,intasrelativeprobabilityovertotalinfected,intasrelativeprobabilityoverfreshlyinfected,intasconstantprobabilityovertotalinfected,intasrelativeprobability,intasconstantprobability,intasnumofinfectednbrsnormalized,intasconstantprobabilityoverfreshlyinfected,constasavgnx,constasmaxnx,fractbyrand,intasfractinfectednbrs,constasnx
0,0.007951067827638658,0.009413447646191342,0.01683155623553334,0.023355934142939683,0.049451469384684144,0.08447399093813879,0.08577269216755146,0.11809758495123934,0.512867714109094,1.3223281206992907,1.2327023328355544,1.5717745018071398
1,0.0093905610663092,0.011998153696373803,0.020085763767875298,0.023355934142939683,0.04527414646348604,0.09196774300283495,0.1255429655691389,0.12191722942712113,0.5151057188001675,0.9661810979498937,1.501103817843443,1.8002216856244027
2,0.008647036080468018,0.008028219498615652,0.018769374135522154,0.02324868481883846,0.04527414646348604,0.06886816804851603,0.08539639655985254,0.12363918986282307,0.4966189077027917,1.1855066306270348,1.2947785951181952,1.7147753301343762
3,0.008095336987968826,0.009911172112513134,0.035560107639860505,0.023509858054396093,0.08656967164262341,0.0789609139670151,0.08515350397991983,0.12000956626276738,0.505039752585669,1.2537145051847076,1.3592608292084734,1.5615945433301348
4,0.017062956355233472,0.006289997142679304,0.01776383022383543,0.023361150780785156,0.04527414646348604,0.0454739721856352,0.08544922923331133,0.11833378618792434,0.472121252348658,1.2366351263969568,1.4831981951906954,1.501655168274775
5,0.017347676364318554,0.014602467517566331,0.019513723637232028,0.023436784253574983,0.04527414646348604,0.060606054976122925,0.13373653382515982,0.11914024565086856,0.4557094439076971,1.3022575807580885,1.3948457333337794,1.5424032653250044
6,0.007987378868495876,0.011977172296118388,0.02369335459989441,0.023335199229046033,0.04527414646348604,0.06053437448868082,0.12603125118456915,0.1216904267854515,0.4969271025800974,1.2507002777629668,1.3339950798255746,1.5742959195418837
7,0.008115178263149558,0.01302877294004845,0.02826328242284104,0.02367633334281216,0.05211076788335656,0.05657105493926895,0.085951091234437,0.11843434559231003,0.48887048690638124,1.1989517714291966,1.2777288363785864,1.5851268448879243
8,0.00811936887440623,0.01314746324843652,0.021344041533449154,0.023355934142939683,0.047647078625142614,0.06748822000269428,0.12613479188450927,0.12314482354520795,0.5035917769409446,1.2634214942661033,1.35113771753157,1.5282018811947609
9,0.006520889444551425,0.013139404083909678,0.028723924055815697,0.023355934142939683,0.04527414646348604,0.060256004253828044,0.11107205775901896,0.11499443923947772,0.49443484800399995,1.0749572375998986,1.3787662258916584,1.509301798594809
