,intasrelativeprobabilityoverfreshlyinfected,intasnumofinfectednbrsnormalized,intasconstantprobability,intasrelativeprobability,intasconstantprobabilityovertotalinfected,intasconstantprobabilityoverfreshlyinfected,constasavgnx,intasrelativeprobabilityovertotalinfected,intasfractinfectednbrs,constasnx,fractbyrand,constasmaxnx
0,0.01811137642312788,0.013156479545744837,0.03337319193894783,0.0229387273014775,0.0691764700714671,0.09176885661646439,0.16558697586753912,0.2420504397263672,0.5237727831656006,0.604913624505926,0.5589872139336203,1.3481325934169712
1,0.011088803394015745,0.016665638192862597,0.037814828959970126,0.04968710952898647,0.054435273586642574,0.10833673479696171,0.19543532036032896,0.20153441739433253,0.5109059246542887,0.48389704661419997,0.6572454951810144,1.3347882510520366
2,0.012648783659562346,0.01023194071660849,0.03679529646877666,0.05279168502223475,0.05985036201789562,0.04890339461570592,0.21618681576272247,0.18336090578690134,0.5382818147357312,0.5530964155303163,0.6383473846477942,1.3075588339099662
3,0.01255891526786379,0.015831011491918012,0.03324113153259456,0.04651955493515192,0.05691781091390424,0.04871032838457601,0.22735150880164823,0.19962588879851562,0.4693933231000662,0.554882669743617,0.544705269704915,1.3688874436494856
4,0.013670908796518666,0.019336993505749467,0.0321529909484618,0.02270813658615034,0.05274222210393986,0.05214849925974596,0.18242494304137846,0.20487992093596852,0.45565277629074397,0.5134675223192897,0.6010990968188824,1.3247793354995476
5,0.018701981871474094,0.010061124413619171,0.03579676784119401,0.05042794482469992,0.046759977908242045,0.048854476279957315,0.1346467730238573,0.20450079759832884,0.4747591219786993,0.5136486057851894,0.46405775887713563,1.3921741183938403
6,0.014915694483011555,0.01521267017948369,0.03137776233792022,0.03675935792900187,0.05370009426017597,0.048764749648745886,0.18065575313028726,0.23681998005623184,0.5183841361801367,0.5665924970933934,0.5206111404739215,1.3078284297569382
7,0.015789477543554975,0.015189820903458107,0.028217568581738406,0.052676892313152535,0.049086641960881194,0.051118345709220026,0.19005931356891104,0.21283935472054272,0.5534029252382715,0.5467189693340104,0.581996556396379,1.4386360396131042
8,0.017110167541835475,0.016823205183122414,0.026454827856643326,0.0322912894762688,0.06291292617640643,0.050191018051783165,0.13748791092982116,0.23178287613068038,0.5398258232535331,0.6916789946470562,0.5725698510656099,1.3495094517019548
9,0.01300619058899355,0.017404342654649407,0.02895417673682965,0.040416123737581744,0.05689818712050998,0.04872301974431881,0.22207257651163237,0.20203357265622768,0.5218161278868563,0.4528920625045869,0.5215441899552211,1.3813297367347634
