,intasconstantprobabilityoverfreshlyinfected,intasrelativeprobabilityovertotalinfected,intasconstantprobability,intasnumofinfectednbrsnormalized,intasfractinfectednbrs,constasavgnx,intasrelativeprobability,constasmaxnx,intasconstantprobabilityovertotalinfected,fractbyrand,intasrelativeprobabilityoverfreshlyinfected,constasnx
0,0.002842652669100443,0.012352074256769652,0.062423593607739525,0.0934659937752812,0.098691387582437,0.3867701675945958,0.7672681552563899,0.822653839248589,1.163127173455782,1.9755358882770642,2.5742791277783503,3.3771150550728337
1,0.0025342432098215406,0.01132362744245452,0.05605935581690569,0.095895370397445,0.062145490118693636,0.47251893585202975,0.7114763463999313,0.7030004677120686,1.1341919151284463,2.1730894159061966,2.3937806256671466,3.1938005486270327
2,0.002630256312975754,0.011543150447553274,0.049694920098704465,0.07866248509418805,0.19712941581992638,0.5081807412196707,0.6438109339978811,0.8070892487811047,1.0600538495310703,2.078375612056659,2.67303228321262,3.1758830773135966
3,0.0029681578354934235,0.011243958976596358,0.0631950702534777,0.17184935201526563,0.15966176036052537,0.40037730589640963,0.7109414032261713,0.6703120863461652,1.1042065897423563,2.002629827072245,2.7790912597163877,3.3117608836996593
4,0.002497285081347722,0.012231693684569778,0.06979148417594427,0.12252335311401319,0.1578940848734144,0.4202509037534422,0.6895881380131804,0.7392693995918566,1.0794425607559752,2.1300268797700816,2.4285430739608547,3.099592596745407
5,0.0011185987009397769,0.01185613116865536,0.06267067029364937,0.08341735951499107,0.13322435679618772,0.49490370943938466,0.7689051149181406,0.6262145166464715,1.1902963182087025,2.02226708776751,2.478085598371976,2.91496459960254
6,0.0019334158825833336,0.012537643288809908,0.06327029772457304,0.10176087255211186,0.18169114603140124,0.3893319348129872,0.6693548276694375,0.8253327061881736,1.0689902068461574,2.063935658902204,2.6512213901373762,3.1374319112092057
7,0.002287492578064154,0.011716584516675788,0.06435044499226916,0.07565415378379747,0.1130310915587831,0.39857178564600904,0.7426711003308751,0.778853046856468,1.1925086548221961,2.088209791893755,2.3933312441594423,3.354515516463445
8,0.0026399203403951743,0.012378203335383309,0.06070245891223036,0.09921643168710537,0.16822893665477057,0.44851426571766617,0.7564851056639671,0.7761085762372238,1.1404861067704246,1.9364931169400417,2.5836372309489977,2.835227991074639
9,0.0027949857048864546,0.011487016060586774,0.059566984490832975,0.0843285418580324,0.16415872201858628,0.40465925245982415,0.747395003087019,0.8098373621570082,1.2552165885320332,2.200083841757674,2.1756659627701436,3.3374805741825777
