,intasrelativeprobabilityoverfreshlyinfected,intasnumofinfectednbrsnormalized,intasconstantprobability,intasconstantprobabilityoverfreshlyinfected,intasrelativeprobabilityovertotalinfected,intasfractinfectednbrs,intasrelativeprobability,intasconstantprobabilityovertotalinfected,constasavgnx,fractbyrand,constasmaxnx,constasnx
0,0.005935781485666869,0.0072770528030952075,0.04879733341766179,0.07824096086256516,0.32939945759329126,0.1803211755010964,0.468872594619252,0.556823165348024,0.4923425491548311,0.5558096630405323,0.7578724626978026,1.0753720398470306
1,0.004550318863220104,0.0072200804500260896,0.03611680878126122,0.08212908557068677,0.14343026752690313,0.36184783656146036,0.48405595330460494,0.5039914780064104,0.5914491961752923,0.5122509640791549,0.9208804996601121,1.210460531040398
2,0.004944881183503447,0.007548290532008117,0.03830882378661715,0.07633417304671064,0.18508756270529125,0.20984359679953923,0.41116663579539725,0.4606175442738841,0.5654137590054242,0.6970992021683378,0.8486675789897884,1.2467924228139453
3,0.004944881183503447,0.005670210165960032,0.04196247953445087,0.07160636451741953,0.12988242543497763,0.34363504085442864,0.45576622726227545,0.5298379664217074,0.49638672035956566,0.7626505213003258,0.7116761319054528,1.0143646047649757
4,0.004856852496955777,0.010891839467832898,0.033386120971301,0.07507526773931705,0.13426123930548262,0.4449610285142288,0.43282523308890153,0.53394047651966,0.5869597882328588,0.8389858057153303,0.8353092912522366,1.2005015036435789
5,0.0046675019235792314,0.00876989711771714,0.04346520443792523,0.0812315725351731,0.12307182507330217,0.2652215737489131,0.44984752888090196,0.5269626932366045,0.5416247492470592,0.8242025052274815,0.7432266324696413,1.1815314616183772
6,0.004859872344418648,0.007996409834125195,0.033278292017545286,0.08549352035426416,0.15350651392986525,0.17346584196011727,0.4593605776726877,0.5201330933170594,0.545539463167064,0.4422329864895671,0.809009777297947,0.9645964543522614
7,0.004944881183503336,0.007880200357014644,0.03981407518668434,0.07535738325129315,0.11737559849466805,0.3956417139420093,0.44424607268711225,0.5471906692152071,0.4782504962497044,0.47794554640047604,0.8579714883539946,1.0370696799908454
8,0.005089093259886934,0.003595488321974649,0.03977754481964191,0.0793937052162682,0.1806256867873972,0.2615472431989275,0.4552781035040666,0.4669387171042426,0.5199184307271483,0.7088303699334744,0.7910618347399974,1.0354898850655898
9,0.004678888420955429,0.0055951650752703586,0.039541520694107324,0.06845869639314561,0.27873882854290943,0.24904183517340261,0.4473411245697043,0.5439859319094822,0.49751944712709906,0.5054340949295951,0.9066092152529313,0.8789126145674175
