,intasrelativeprobabilityovertotalinfected,intasrelativeprobabilityoverfreshlyinfected,intasfractinfectednbrs,intasconstantprobability,intasrelativeprobability,intasnumofinfectednbrsnormalized,intasconstantprobabilityovertotalinfected,intasconstantprobabilityoverfreshlyinfected,constasmaxnx,constasavgnx,fractbyrand,constasnx
0,0.001391242277573257,0.007710085472198647,0.016597330166391977,0.018143215182028327,0.036679969222404574,0.03338433379893113,0.05283929067444704,0.5049254257690111,0.6631424737571369,0.8235038961373625,0.7106038308085826,2.4167219890106972
1,0.0021013224728534396,0.007710085472198647,0.012658763371417359,0.018765952254175433,0.02641134622469765,0.03414273996923767,0.025454128071908166,0.5561681471997993,0.7107396682207799,0.747872664880319,0.7918035446350723,2.264056030693658
2,0.001391242277573257,0.007710085472198647,0.01376981839155389,0.018143215182028327,0.012918362402703054,0.03686444682721879,0.052692790821647906,0.5608043620338078,0.6644227901802923,0.7307381664650273,0.817851769736082,2.3379687802385685
3,0.001391242277573257,0.007710085472198647,0.008502422318500846,0.018143215182028327,0.050954311613016556,0.03118649295989062,0.05000501860252715,0.5326548479578824,0.5891662452383689,0.789723776154066,0.8128280007329843,2.386974702556254
4,0.002635940559788219,0.0067440919280506995,0.009893854911290578,0.018544190526063487,0.027448040363185267,0.033829644040903495,0.03925939608445961,0.5829663421223562,0.6781769111758255,0.7776031309370864,0.7849498051384093,2.370158735603908
5,0.001391242277573257,0.00798067095038213,0.016471680749155393,0.017998818846437836,0.014014450458949113,0.0317040937312465,0.03310327458963924,0.5100943326552442,0.641033107253084,0.8461086499515723,0.8186286473340197,2.291762335168319
6,0.0022934049254276223,0.020021137792285648,0.014185877830493188,0.02093220310811228,0.01385864870172504,0.03550050148865924,0.034484791312400453,0.5467715412931907,0.7047268192404078,0.7729492477745022,0.7598933530832889,2.350765573879239
7,0.001391242277573257,0.007710085472198647,0.009708187176944105,0.019536218392052995,0.019224512862757837,0.029685845113351816,0.043291850666066,0.48244841364123225,0.6711903579612629,0.7301131383772009,0.7708352603989245,2.3460858205919446
8,0.002036611524769305,0.007710085472198647,0.00628013956875173,0.018712351819455186,0.014027385201319076,0.03987142223273665,0.039699066172225406,0.5460445416963412,0.6690028161215461,0.7732568259762981,0.7370737110498754,2.2565486242306645
9,0.0024829813216529217,0.008483366943772497,0.011403766016020334,0.04603522745472399,0.013523752373096665,0.04004550350597447,0.04860282371562219,0.5243438545425078,0.6839616143163302,0.7532859809382472,0.8062739261600252,2.429887935909876
