,intasrelativeprobabilityoverfreshlyinfected,intasconstantprobability,intasconstantprobabilityovertotalinfected,intasnumofinfectednbrsnormalized,intasrelativeprobabilityovertotalinfected,intasconstantprobabilityoverfreshlyinfected,intasfractinfectednbrs,constasavgnx,intasrelativeprobability,constasmaxnx,fractbyrand,constasnx
0,0.0013669308190699114,0.006899738636374497,0.012809001052712876,0.014774012721228247,0.020942326608710093,0.09254480005458843,0.11650911397428787,0.22907692258834345,0.25042665096811956,0.5052546211741473,0.5018656565113468,0.6100865467937313
1,0.003612893479837842,0.005408747713909423,0.014452524013366053,0.019507191268607116,0.017938939172232327,0.07481524770801051,0.1523456227171015,0.22016619763603273,0.26485656913161937,0.5217745968403549,0.509845731801565,0.6207737005385556
2,0.0015055190129623641,0.00798104196549465,0.015203502059817575,0.017895216754658994,0.018651476078350826,0.0972255412920372,0.13495440001706338,0.2510219870360265,0.24075945966417955,0.4101774793104218,0.45716754452744457,0.6725459719902294
3,0.0013669308190699114,0.00537195847445171,0.014310530007601185,0.01852216365868986,0.020916474763874482,0.09275780768772968,0.1304037279754111,0.20923878603343793,0.26228197499689754,0.4175586919827865,0.5640462139961646,0.639763319662005
4,0.0013669308190699114,0.0066662610860245275,0.015207648139271113,0.017006221270160715,0.0208979291365351,0.07832233567164437,0.15793946487409205,0.24093004415652364,0.22872449458824673,0.4339708214779934,0.45100287574573983,0.6071488221720602
5,0.0013669308190699114,0.0055240186887207665,0.013437363346110343,0.01562748491512511,0.023487953657011285,0.0801872254235354,0.12308693020455752,0.2682064210701989,0.2575591252791005,0.4222715464223259,0.5304582040967893,0.6456588091793916
6,0.0012784805656987919,0.005759279754243729,0.018579703000545345,0.013952521907696913,0.019116210312516757,0.08539279937261957,0.10917939110055663,0.2409106938461072,0.2582455178188212,0.43768082211260273,0.5481247629597181,0.6527468839337456
7,0.0009810965390637527,0.004814472243742096,0.020859569405755063,0.017301451517426347,0.021949513811837962,0.10493020434947065,0.15509323687433085,0.2492675594384225,0.2437643668221271,0.43623970332418516,0.46498543095074485,0.6158743804961713
8,0.0013252085187661633,0.006737595020377629,0.012809001052712876,0.014677400772660443,0.025406729809008932,0.07214501493259207,0.11808460104589613,0.24325635300729942,0.2496822115058006,0.44608599326365383,0.4719070741666098,0.6060497035598853
9,0.0017848148854548995,0.00679260399506787,0.012966457081728389,0.018106710771875756,0.01754487593087506,0.07562261570128381,0.1222163042802834,0.24551099693559586,0.2549567880823469,0.4529386410927738,0.43609045419890125,0.6118059443471591
