,constbymaxnx,constbyavgnx,calcproductoverinfected,constbynx,fractbyrand,intensityasfractinfectednbrs,intensitybysizeofix,intensityasconstantprobabilityoverinfected
0,0.05996428613331035,0.07205130502297004,0.0902885971625811,0.10961858782984094,0.13009915302163125,0.14030429073986825,0.18158480646914407,0.21608897362065418
1,0.06020068640295006,0.07213192674449319,0.09678341949341218,0.10999694205863847,0.13328316328036358,0.12952253703465746,0.18435400632244045,0.2137273186630446
2,0.058904814141367806,0.07211548191972647,0.0974965667669714,0.10964085766558607,0.13349761960342643,0.1302830630059869,0.18158481188142775,0.2164767850155072
3,0.05996833410896626,0.07236116034012216,0.0938759823189176,0.10999090178743134,0.12557041268374766,0.14392468602425057,0.184915931316907,0.20939259141965733
4,0.0605091827016055,0.07236414683450222,0.09408881620188225,0.10961858782984238,0.1251201699081023,0.14054708247299832,0.18161880855087997,0.21613320550018714
5,0.059973433121520814,0.07234587751181572,0.09626657761012856,0.10999683442853418,0.12954622905134427,0.1370208350892267,0.18485993119860422,0.20999028198882547
6,0.05993346879228358,0.07211365742176362,0.09345802081103534,0.10962467447966341,0.13422107164671884,0.13662128644026286,0.18427035735134983,0.2097574630569226
7,0.05889878238122191,0.07295809428339808,0.0943774414277542,0.10962467447966433,0.12591726459445057,0.14071469750425036,0.184235660142813,0.21327338518644753
8,0.060218965443810266,0.07268912713211109,0.09381007526094891,0.10962452007434223,0.1336211776740855,0.13229775533119142,0.18428667227054918,0.21345170681296138
9,0.059998650780622456,0.0723613631019423,0.0938100752609462,0.1099909017874307,0.13316701630630765,0.1365004989254666,0.18494927411168122,0.20922221972560287
10,0.05889977031181242,0.07213192674450782,0.09457405646033992,0.10999683403193113,0.12930376945727243,0.1406345173859781,0.18483162993629002,0.20962749567186817
11,0.0605271765413927,0.07326845425415532,0.09395864384386911,0.1096351870599097,0.12839378494846837,0.13646439862427595,0.1815545516531642,0.2161978030747647
12,0.0602283529310307,0.07213005389003102,0.09395864384390354,0.10962441244423803,0.12954694507416054,0.14058426133725804,0.18158496628675666,0.21234236419262148
13,0.05889187285831777,0.0724819719143531,0.09395826263261348,0.11001327885667606,0.12919485952270618,0.14121422767448288,0.18204488807313327,0.21220063846771733
14,0.05887737964791822,0.07290191590301927,0.0970618507920203,0.1096185874332378,0.1299860842801489,0.13331520410112008,0.18473180761062952,0.21350717023190588
15,0.06018516647430433,0.07267263395088057,0.09626657761010822,0.10999694166203539,0.13308838693479916,0.129875297322418,0.18188877153843278,0.21602622450702152
16,0.0599917318284047,0.07297671385439437,0.0938924271436385,0.10962441284084223,0.12601596178739646,0.1397795252733806,0.18454944132220166,0.21316978594974148
17,0.058871944950929234,0.07284239559325412,0.09395864384393825,0.10963518705990893,0.12986651285485565,0.13712255712868807,0.18436515779837925,0.21333760077004646
18,0.05996810288500622,0.07240539782161651,0.09377824766174568,0.11000734661217507,0.12999337102262906,0.1395017518669471,0.18484606930237046,0.20949971282750998
19,0.05997179054768617,0.07213010224652786,0.093892891191317,0.1099968344285345,0.1256736117561805,0.14399591723052257,0.18170521065385548,0.2126336419453759
20,0.058856090625617016,0.07266817838153607,0.09460588405953411,0.10999694205863832,0.13378035744588887,0.13659847454512597,0.18152797153864442,0.21196610134501523
21,0.05913369698642606,0.07205119897408635,0.09468800996794069,0.1100074542422806,0.1335603062008501,0.1369022415293778,0.18425304774735923,0.20940404435167911
22,0.058906262673989976,0.07228524356216315,0.0940890421762317,0.10999694166203502,0.12961320298007695,0.1373240847777664,0.18148758433526904,0.21629763783246783
23,0.05993892863218926,0.07268907877565088,0.09091939255349908,0.10999683442853476,0.12580422638104688,0.14270866364863116,0.184517697764438,0.21342517781600995
24,0.060206574719987443,0.07270942936858191,0.09410526102663572,0.10961874223516496,0.13032361772562548,0.1351757355643042,0.18436688435845358,0.21349375500124662
25,0.058864819566403444,0.07205115061767181,0.09397524307397208,0.10999694205863873,0.1299246915884352,0.1368919839613245,0.1822659620994838,0.21602920703407053
26,0.05997341847131494,0.07236120869661943,0.09091939255351056,0.10999698883385724,0.13297014574317137,0.1393572303255632,0.1821678609216349,0.21225375445432837
27,0.05995160787985518,0.07234471551535565,0.093375359285976,0.10999100941753572,0.1332832038277472,0.1324764299167714,0.18214226461231198,0.21643540954444693
28,0.05890465973600435,0.07240722231958611,0.09459050128507368,0.109991055796151,0.13079069714281505,0.1359114437571535,0.18424016971142884,0.21316425025178748
29,0.05890545620569603,0.07240539782163426,0.09037087747627487,0.10999683403193097,0.1287961992438387,0.14049980853488658,0.18547774462326497,0.2135476820624736
30,0.05887376359309485,0.07265401437990125,0.09387598231889126,0.10961858743323842,0.1338469185569741,0.1374227550739728,0.18144244160210202,0.21226553704182521
31,0.058895474349746776,0.07257698396191209,0.0946223288842982,0.1099969416620362,0.12917332255632358,0.14086616625501516,0.18145530881360336,0.2124134735170646
32,0.06019636586695396,0.07234293937396691,0.09689737300101332,0.10964101167430514,0.12946224763323014,0.13737922176643086,0.1846673963076591,0.20941344437644052
33,0.05910833948523754,0.0720676437988712,0.09636424069821144,0.10962441244423893,0.133562006330777,0.13521513819413666,0.18208339972346815,0.211974819325059
34,0.061600317537556425,0.07291836072779938,0.09316283504529052,0.10999694166203466,0.12431212811621249,0.14024886260276997,0.18443561012348753,0.21332494418484899
35,0.06022652415311189,0.07271135991534469,0.09462232888430566,0.10961858743323778,0.12933019997397596,0.13525411949304839,0.18209971464260766,0.21613716550436798
36,0.06161578325116602,0.07205115061762193,0.09377847363607632,0.10999090139082686,0.12750992091752267,0.1368398649314164,0.18201433369916345,0.21619957155620625
37,0.059996792069190404,0.07213005389001428,0.09449193055195922,0.10999694205863847,0.12983451677403532,0.1351552496814485,0.18506369562097677,0.21333081935373702
38,0.05996551867737579,0.07261204835764337,0.09437759583306339,0.11000745424228099,0.13319727880813584,0.1314861152466109,0.18460042898972837,0.2137535598451614
39,0.05888192316506454,0.07234289101745223,0.0963805311176973,0.10999100941753397,0.1294988143991527,0.13872998729053615,0.18203942512676602,0.21213541846579706
40,0.05996403814689201,0.07241768896878305,0.09355552949382154,0.10964096529569003,0.13363949858061905,0.13619129291502652,0.18216166751035068,0.2124293190888172
41,0.06019237891960263,0.07234293937394891,0.0903708774763104,0.10999100941753537,0.12938720018885091,0.139523683011423,0.18193391968386707,0.21625799192846162
42,0.05887082211297253,0.07211360906528576,0.09088756495429785,0.11000745424228008,0.12960842931324063,0.14009475474268668,0.1815545570654618,0.2168628085037747
43,0.06159622685728314,0.0720677498477161,0.09437744142773288,0.10999694205863948,0.1240573642198433,0.1399199313236444,0.18148931089527726,0.21649503336986337
44,0.058877657473726135,0.07285888877450573,0.09636408629289574,0.10999698843725347,0.13280337775551643,0.13084152916144914,0.18465143570513043,0.21360603639952291
45,0.059945605333300324,0.07205312952086165,0.09160071222787498,0.1100074538456769,0.13354277357685482,0.13420063006839264,0.18217611228870975,0.21647358313832907
46,0.060206682350070956,0.07205119897414894,0.09646265702603925,0.10961847980313508,0.12931003502177335,0.13802914687422502,0.18483125778999343,0.20949054216061397
47,0.058886565034178835,0.07229986388890897,0.09697949890938164,0.10999683403193132,0.1294974852061318,0.13830156117205403,0.1842853232690664,0.20975286848834698
48,0.06162171418980945,0.07206759544240712,0.0935555294938752,0.10962441284084178,0.12847835081047504,0.14052294503069307,0.1848996163976526,0.20922983579424564
49,0.05996719878529463,0.07234289101741297,0.09028875156795113,0.10999694166203536,0.12943435661556865,0.13904860853219544,0.18547324046697092,0.21344801135257083
50,0.06051006482805853,0.07228337070768714,0.090402550670185,0.10999683403193143,0.1274582059844549,0.14085360573048442,0.1849224615362296,0.21357290651096902
51,0.05993246772766388,0.07205302347203733,0.09100174443619241,0.10999683442853492,0.12978091326777036,0.1386830107783035,0.18510502391233866,0.21344698197715897
52,0.05887401877361016,0.07234582915532678,0.09684948095665862,0.10964085726898311,0.1294706255994084,0.13463730382308223,0.18461781118202264,0.21356407324090815
53,0.05996206431618889,0.07234293937397457,0.09686554540176127,0.11000760864760185,0.1302214316342378,0.1328969385963125,0.18430262746078488,0.21340084456913816
54,0.05997683880476205,0.07271419200440835,0.09161715705264142,0.10961848019973691,0.13058960145232804,0.13766856643025094,0.18161708740316634,0.21619807665270593
55,0.05998065968752992,0.07234780805855148,0.09450783976006513,0.10999100941753488,0.1293870411109743,0.13926290856410706,0.18482974897090843,0.20969298443032885
56,0.05883832258802683,0.07242366714428863,0.09746473916775575,0.10961848019973768,0.12585169803163285,0.13796015577491613,0.1844356101235018,0.21340732697014037
57,0.059952220332881674,0.07328505348423128,0.09106742551980986,0.10999694166203487,0.12941658935288747,0.14213090956927454,0.18184930749319814,0.21230155258568206
58,0.061849357080778225,0.07267445844880326,0.09387598231892719,0.11001327925327894,0.1280112557886932,0.14001285868636792,0.1843330420942967,0.20922976632885462
59,0.05886989222413123,0.07241768896878176,0.09644621220131883,0.10963503225798324,0.12942322993658162,0.13503773380081555,0.1815719338454235,0.21659827676496432
60,0.059118090290554634,0.07267450680530334,0.09693145245973969,0.11000745424227963,0.12567711243165583,0.1382344359471124,0.18420166347334443,0.21315528435001002
61,0.05887953302677636,0.0720675954423809,0.09098529961146301,0.10999090178743226,0.12938177014697716,0.14017783787171315,0.18184930208085265,0.21666776003240457
62,0.06159739658020101,0.07228337070769549,0.09407259735145826,0.10963503265458646,0.1282202011188463,0.13570304347570242,0.18487280382235455,0.21361555428915555
63,0.05888879100478825,0.07284422009118788,0.09691381782575187,0.10999694205863862,0.1253962254688137,0.14186287951827214,0.18150324537973592,0.21259387865281165
64,0.060752446995903084,0.07241768896876258,0.09382667449102366,0.10999090139082753,0.12858974761125455,0.13697177286286297,0.1814875897475326,0.21596317793183298
65,0.06000174744918994,0.07205119897418245,0.09686554540178655,0.10963507903320115,0.12961398288134798,0.13362433011728483,0.18206399682539534,0.2161441193176117
66,0.060502304789276026,0.0729808191754217,0.09389273678596258,0.10961858743323834,0.12484804473707062,0.14046429411280878,0.1816059359271629,0.21608727703905908
67,0.06052309349906604,0.07213208114985287,0.09397486269433915,0.10999694205863844,0.13149597068893368,0.13350044068768152,0.1846372140799333,0.213739395141555
68,0.05910842491397479,0.07242199705167031,0.09389220116930339,0.10999683442853499,0.1299460275067119,0.1368974292313525,0.18430263287305523,0.21343445282539691
69,0.06159171863478596,0.07205302347205221,0.09679986431817358,0.10999694205863951,0.12804319407344678,0.13376729945242594,0.18161536084314128,0.21613259714733474
70,0.0599812721404799,0.0729049023974282,0.09160071222785067,0.11000745384567653,0.12943635542062232,0.14222724655730307,0.18144244160221168,0.21239961580842767
71,0.06162258226738891,0.07206946829681572,0.09693145245972434,0.10999683442853525,0.1284935902156411,0.13288926462286185,0.1815830853214564,0.21641372238757642
72,0.05995025186929927,0.07230001829423245,0.09468800996789807,0.10999694205863793,0.12556311590145738,0.1386611784580516,0.18519796552563933,0.21364251792478403
73,0.05887968026682044,0.07292018522572956,0.09381007526094981,0.10999090178743136,0.12579115956179507,0.14500600180071063,0.1814407150421473,0.21216128105441587
74,0.05997753746971533,0.07205297511555167,0.09095347201224313,0.1100132792532788,0.12604592052325794,0.14273694469960152,0.1850749960900169,0.21314487483633468
75,0.05888319848809573,0.07271120551002486,0.09093583737824484,0.10999694205863848,0.129834215239682,0.13992664643376523,0.18433460883669764,0.2133773460548512
76,0.0589072601628443,0.07234765365326924,0.0936961217534024,0.10964085726898336,0.1257951434432256,0.14067564161889562,0.18489018601450313,0.21404713608487633
77,0.05911052441597715,0.07243408543703703,0.09429531551941037,0.10999100941753444,0.12539961457228477,0.14045269861884002,0.18206587237839975,0.2162508796405165
78,0.05996560410611157,0.07313418434960835,0.09688199022656002,0.10999100941753519,0.12893084253343917,0.13300456059867877,0.18190373204380017,0.21618807672426663
79,0.061591819853944255,0.07234289101744297,0.09704540596729493,0.10964096529569142,0.12475365929345261,0.13622409692237236,0.18495272181946795,0.21344843983033343
80,0.061584887108263126,0.07234471551534925,0.09382667449105683,0.1096245204709455,0.12874022238012361,0.13990117338709102,0.18156914542465344,0.21240866122251723
81,0.058884149835895586,0.07240539782160713,0.09160086663315903,0.11001338648678029,0.12961549324473057,0.13985168263393452,0.1814424416021432,0.21618658174174965
82,0.05886973781880928,0.07319862170047108,0.09439388625249968,0.10999100941753519,0.1291005193027102,0.1404105266141098,0.1815736604055008,0.21246203848836398
83,0.05997019459171245,0.07243590993491575,0.09400669029355034,0.10999116382285745,0.12541753998824295,0.14004409020342135,0.18167466169220992,0.2164597494730898
84,0.06022737722331812,0.07261037826507423,0.09377847363609199,0.10999100941753609,0.12927660863876425,0.13603551629366864,0.1842853232690531,0.21379531325649362
85,0.05996810288501634,0.07257698396190317,0.09402313511830555,0.10999683403193192,0.1294748161113829,0.14031498072927662,0.1815719338454709,0.21207321331671264
86,0.05998987745426465,0.0724195134666923,0.0964628114313513,0.10961847980313473,0.13028411166323497,0.1328699411623136,0.18180415393544758,0.21655111108356082
87,0.05890036820161097,0.07271120550998526,0.0915350311442655,0.10999100941753548,0.12566279192202393,0.1434920425782139,0.18431722123218777,0.2133903299941773
88,0.059959857184102405,0.07205130502295223,0.09384415471968528,0.10963503265458621,0.13038060418946498,0.1365463800218617,0.181602488219391,0.21598017798795616
89,0.058898044736565236,0.07236232233654226,0.09091954695880425,0.10999090178743076,0.12553986056039196,0.14350197206526777,0.18246239019543428,0.21632496135956353
90,0.06020098220329897,0.07234293937394405,0.09390918161072771,0.10999694166203582,0.12954146598108204,0.13631644645903532,0.1842418962714318,0.2134501464384443
91,0.06023085630738525,0.07261022385974245,0.09694789728447185,0.10962452007434201,0.12977734858779502,0.13279774352469415,0.18187146193442463,0.21613994842714465
92,0.05997522270747953,0.07206962270211315,0.09738261325944636,0.1096185878298416,0.12956144904667322,0.13251801565482316,0.18498003582526976,0.21389445297435317
93,0.05999984196250299,0.07261032990857262,0.09405721457702218,0.10999683442853414,0.12578184511644427,0.14364605855804446,0.18184120711852156,0.21206666833035773
94,0.05998137977060695,0.07206941994029815,0.09678341949338305,0.10962441284084211,0.13391019552406142,0.12932258660081045,0.18484397600841082,0.213464609821587
95,0.06160136132636781,0.07243408543701264,0.0940066902935322,0.10999100941753467,0.12842191975216882,0.1356231084459158,0.18183643486946297,0.21608539045800507
96,0.058875484740837786,0.07265001510763358,0.09088779092859894,0.10999694166203597,0.13280803253721776,0.13698600680140524,0.181442436189864,0.21635329203240658
97,0.0618462458489227,0.07211360906530832,0.09329323337762174,0.109991009417536,0.12416586870656497,0.14092343395463347,0.18152228154377328,0.21614431808563941
98,0.06156946043346858,0.07319679720253953,0.0935719743185645,0.1099968344285349,0.1272128050492805,0.13654153828784776,0.18435229058700606,0.21355829969275808
99,0.061788173562639305,0.07241768896880892,0.09040255067012996,0.10999694205863807,0.1286229374834784,0.14298680315465614,0.18425476889513734,0.2095301352065119
100,0.05998952469626378,0.0724176406123135,0.09459050128512124,0.10999683403193167,0.13329589148286636,0.13600883411230774,0.18436343665065144,0.2093373371285443
101,0.05890156001612855,0.07240717396301366,0.09108387034455263,0.10999100941753524,0.13344799473971486,0.13588595332809883,0.18209080940084157,0.21619162879011466
102,0.059969583415570314,0.0722998638889031,0.09080543904593132,0.10961848019973905,0.12986799326982865,0.13916033805725864,0.18465008670364547,0.21362821541912347
103,0.05887957263676898,0.07228337070767696,0.09161715705262669,0.10962467487626779,0.12986696563488576,0.13937182408301263,0.18145530881357788,0.2169011261951832
104,0.05911607732268357,0.07240539782162007,0.09697987928898598,0.10999090178743105,0.12994568495368378,0.13348375998103731,0.18188877153843272,0.21618952730612565
105,0.06023589770964706,0.07205297511552676,0.09335960448321796,0.1100074542422795,0.12552763159230165,0.14482683022744375,0.18435056402696512,0.20963904260261818
106,0.06158992851047631,0.07267263395086324,0.0940572145770167,0.10999100941753485,0.12775292491954982,0.13964904341847986,0.18172447381148765,0.21256277139459165
107,0.059079052584642175,0.0720511989741597,0.09381007526091675,0.10963492462787858,0.12948624874094555,0.14193643189735108,0.18153859646301732,0.21246347145108893
108,0.06185499637275956,0.0727258258368308,0.09689737300098286,0.1096245200743424,0.12825424486221118,0.1367917665628339,0.18433116112897174,0.2095201121610675
109,0.06020093542812114,0.07205115061759951,0.09405721457703162,0.10961863460505987,0.1260448989938537,0.14420690794153082,0.1842227929314255,0.20959746490537778
110,0.05910982653419184,0.07241768896881037,0.09684932655137603,0.11000745424227941,0.1255696698011527,0.13773366253239325,0.1819998943330031,0.2163124770367933
111,0.058905650221044166,0.07205119897414239,0.09738261325939815,0.11001338688338337,0.12912705980603886,0.1335561389914144,0.18211358195109065,0.21685036991348797
112,0.05997979161003201,0.07205119897411708,0.09646265702605492,0.10999100941753605,0.13431704268408853,0.12945626932248802,0.18145531422589478,0.21628671673978864
113,0.05911623693876962,0.07205297511557324,0.09389242714361809,0.10962456724616332,0.13001532132000893,0.13689748991707337,0.18479469044074914,0.21360629187804425
114,0.05993952652188357,0.07230164003033974,0.09148675872030815,0.10999100902093127,0.12956517148786997,0.1389645079088439,0.1816059359272199,0.21614545038260347
115,0.060522984378174195,0.07205115061761413,0.09027215233785935,0.10964101167430496,0.12765855255114358,0.14127048303229928,0.18173719202981797,0.2168464733787866
116,0.05887065191718742,0.07313596049101904,0.0934734035854702,0.10964096529569096,0.13339374458194442,0.13341924407312253,0.1819193205001014,0.21614670955546406
117,0.05889336820389181,0.07241946511020919,0.09389273678597293,0.10963503265458671,0.1303066921432882,0.13649832430621037,0.1845651077790221,0.21378927301681871
118,0.05912723639212416,0.07206759544236803,0.09387598231889811,0.10962452007434177,0.12648149157645897,0.14083320490770684,0.18153724746156719,0.21645272182653505
119,0.05912867014740905,0.07267278835624912,0.0932767885528732,0.10964085726898261,0.1292764032869989,0.14220801947160275,0.18153687531527146,0.2122595976006129
120,0.058873933344845975,0.07228341906420752,0.0946880099678704,0.11001327885667739,0.13352553453064658,0.13224949592440952,0.1842513211873808,0.21411500712396184
121,0.05887965806560398,0.07326840589761846,0.093974553052002,0.10961858743323868,0.1260548866828714,0.1404843350751213,0.184565256772065,0.21315431702147922
122,0.059990284699733276,0.07268907877559187,0.0937782476617224,0.10999683442853482,0.1256058069798714,0.13949282738272184,0.1843522851746809,0.21409463489714348
123,0.059940268130753455,0.07240722231954662,0.09738261325941573,0.1100133868833839,0.13334778638239136,0.1329151601933063,0.1819193205001093,0.2120742423310934
124,0.05910991196300757,0.07205302347205786,0.09160086663319578,0.110013386486779,0.12993468024676263,0.13916825043952252,0.1814920993161403,0.21662778144253442
125,0.061596482481844905,0.07206774984767637,0.0939748626943622,0.10999100902093004,0.12464293291550169,0.14031144909863275,0.18424017512364074,0.21317533881741135
126,0.05887925520095899,0.07211365742177922,0.09316283504530358,0.10964096529569038,0.1265798777640242,0.14135779352864916,0.18167466169220575,0.21659095405138873
127,0.058878044547874264,0.07240722231956848,0.09382652008569928,0.10999683442853522,0.12636082087601996,0.14446486600509445,0.18198529313326667,0.2120803986039417
128,0.05886507519094797,0.07205119897413134,0.09324496095367753,0.11001338688338291,0.1302974950687011,0.14188428753630325,0.1814424416021806,0.21220115379067533
129,0.06072955265768161,0.07240722231950844,0.09150320354505205,0.10962452007434198,0.1278356064628263,0.13997234521156726,0.18463894064001263,0.2132886090890097
130,0.06048638928278295,0.0731966427972559,0.0934734035854624,0.1096350322579838,0.12794874592531277,0.1373825076935202,0.18157021269771906,0.21630706575996284
131,0.06181638945555282,0.07234289101743252,0.09101811769193302,0.10999694166203562,0.13133853863644301,0.13493104804995662,0.18241137806781121,0.2161446954188351
132,0.05885444855878789,0.07277188781626613,0.09344157598626195,0.11001354089210205,0.1338474106520127,0.13736274591102746,0.18431828850528187,0.20939010167825994
133,0.05889700732730856,0.07261204835767973,0.09316283504533673,0.10963492462787927,0.1299636252479167,0.1416043482959229,0.18186031045849235,0.2122649006394637
134,0.05997636774681381,0.07264990905878965,0.09757869267536076,0.1096408572689831,0.12593884287757845,0.13666426942220783,0.18147314496919,0.21607791598107642
135,0.05996238891722547,0.07272881233124416,0.09738261325943415,0.10962452047094587,0.13412503277286056,0.13237381164571294,0.18153687531519283,0.2122659452873839
136,0.059927829500405365,0.07257511110748555,0.09450852978201203,0.10999090178743069,0.1254295806622564,0.13951091879108451,0.18424016971137508,0.21381695865795033
137,0.060217013181932476,0.07270942936858649,0.09460588405956942,0.10963492462787958,0.13001338939374316,0.13931507928330816,0.18152264827781928,0.21198163180716156
138,0.05999576958626646,0.0723477020097633,0.09150320354507577,0.10999100902093133,0.12620890575484467,0.14211576639542783,0.1815545570654386,0.21628308662225199
139,0.05993940005324502,0.07234289101743534,0.09377847363608083,0.10962452007434169,0.12686768026602097,0.13992789222757457,0.18435229058700453,0.21316685213829703
140,0.05912714301496716,0.07234293937396515,0.09093583737823223,0.10999694205863841,0.1327884510591579,0.13698261023424219,0.18153342760745733,0.2162926492733396
141,0.06050475375239955,0.07206941994032728,0.09757869267537696,0.1099910090209312,0.13165089818953488,0.13371587711484909,0.1849817569730729,0.2095075923335081
142,0.05997522270750026,0.07236120869661407,0.09704540596727852,0.10999694166203608,0.13296890251357,0.12936634548853695,0.184912489021392,0.21337348394307218
143,0.05891224053692005,0.07211376347059699,0.09440926902698255,0.11000734661217688,0.12895392668577715,0.14090085370499147,0.18184758093315542,0.21285501902939952
144,0.058903684028469946,0.07205302347207668,0.09337535928600389,0.10961874223516457,0.12990322770092147,0.14143778781403005,0.18501403790705737,0.20969413755627592
145,0.05910074392429838,0.07211360906530384,0.09095362641754744,0.10963503225798295,0.13384472577300952,0.13993529733320564,0.18148931089526624,0.21292765433338606
146,0.060508214269016085,0.07278828428448063,0.09106742551981262,0.1096245204709461,0.12454395696181168,0.1434208295945752,0.18203201544941092,0.21601475344994683
147,0.06052426322209661,0.0723622739800545,0.09035427824622674,0.109991163822857,0.1312620778076432,0.13650166114444484,0.18526012371694964,0.2137441580597275
148,0.058886162169530874,0.07228524356211005,0.09376202881134733,0.11001327925327956,0.12934899275414513,0.13766666659754503,0.18436516321071297,0.213672463641329
149,0.059940375760892936,0.0721301022465136,0.09384430912503497,0.10962441284084185,0.13031270543962695,0.1361091369110804,0.1844723952137127,0.21356656246229658
150,0.058853130841498805,0.07211365742178219,0.09035427824623606,0.11001327925327954,0.1331654033477099,0.13744192961376397,0.18432000965299142,0.21373831162273818
151,0.06050155249425507,0.0724072223195199,0.0941052610266716,0.10961848019973816,0.12475003368570503,0.14075765095719034,0.18445673416919187,0.21340306514772803
152,0.05891022742013297,0.07257511110748753,0.09410526102665753,0.10961874223516455,0.12982391887193293,0.1369012477345925,0.18150496652758136,0.21656052507645068
153,0.06161016152090791,0.07205115061765906,0.09399130751905725,0.10999116342625355,0.12812323065003622,0.13610059237442917,0.18161536084316612,0.2165170330484907
154,0.05885267279378135,0.07259160428875266,0.09704540596732594,0.10999090139082711,0.12944451529842307,0.13387769065129285,0.18212923758328345,0.21606797202631353
155,0.05996500621641288,0.07240717396301245,0.09088756495429531,0.10963492502448359,0.12981100353761044,0.13851121135941816,0.18228055587097056,0.21650255907379667
156,0.058868784312510226,0.07284239559325376,0.09468800996795067,0.10964096529569049,0.13340079380143804,0.13265308696885497,0.1842832299750224,0.2136227340852795
157,0.06185760737924428,0.0720530234720683,0.09636424069823278,0.10964096489908697,0.12826726045113657,0.13424539391098222,0.18423566555516202,0.21333584363408684
158,0.05996489043395987,0.072051150617665,0.09759513750013524,0.10962452047094587,0.1341949700866493,0.12897719441306346,0.18420166347336778,0.21339047300421354
159,0.05997360918985288,0.07315255972103717,0.09397486269431353,0.10999090178743175,0.12937325007296002,0.1353677045155401,0.18428876556460302,0.21387834645426146
160,0.05996312251102029,0.07326860865948932,0.09095347201222367,0.10964085726898391,0.12605719490006542,0.1425334587693284,0.18167293513216098,0.2159103507467281
161,0.05997467923106238,0.07257511110746712,0.09644621220129919,0.10963503225798349,0.12975076136360095,0.1338688425321799,0.1842418962714195,0.21350746503498752
162,0.05888217600524759,0.07267263395085208,0.09379469248650539,0.10999694166203584,0.1255182158484567,0.14530394360582294,0.18147471712382932,0.21235667931725008
163,0.0599584842836259,0.072668178381524,0.09757869267536806,0.10961863460505983,0.12593376943168857,0.13669022371015319,0.18420338462109123,0.21334863229148923
164,0.05998850221347042,0.07261017550323616,0.09415472325988722,0.11000734661217527,0.13305856676843006,0.13210937265427192,0.18450294417540863,0.21356836881312022
165,0.061587018285755864,0.0723641468345429,0.09381007526094869,0.10999694166203598,0.1319558434563942,0.13192225719779666,0.1819852985455199,0.2163784187570058
166,0.05998987511386381,0.07241764061228348,0.09093599178355251,0.10962452047094536,0.1306414852964603,0.13871883284818906,0.18428322997508165,0.2133884238996238
167,0.060239606831160565,0.07290378875751079,0.09337589490266401,0.10999100941753574,0.12935617011439277,0.13592458216929165,0.1843505640269548,0.2138583837804896
168,0.06051887955466323,0.07234293937395293,0.09390864599406591,0.10999683442853625,0.12792154697675032,0.13707598067659624,0.18231179995936855,0.21592337303606662
169,0.059136459970911916,0.07205115061762647,0.09037072307098735,0.10961858782984167,0.12991149704019353,0.14005147996760525,0.1821309641432736,0.21672913735956015
170,0.05997365674816121,0.07290196425954734,0.09390880039940688,0.10999100902093215,0.1294476660170249,0.13592213435131206,0.18427035735133332,0.21358441185228214
171,0.05884870163676065,0.07270938101212722,0.09382652008571417,0.10999694205863857,0.12588045656361813,0.1406782777913279,0.18445516742675555,0.21360455342505777
172,0.06074546960579977,0.07242184264636066,0.0914046328119001,0.10962452007434108,0.12864630603689522,0.13957895162470893,0.18144071504218723,0.21613756215780702
173,0.060229895163055554,0.07205115061762077,0.09324496095365246,0.11001338648678072,0.12997132311923007,0.1360390148260836,0.18435401173479946,0.2140962570987773
174,0.05890542659439249,0.0723611603401123,0.09689737300103093,0.10961848019973866,0.1297780125904633,0.13465006115108435,0.184557007404348,0.21323247871883003
175,0.06162025282017473,0.07263761791165059,0.09389220116933843,0.1096409652956906,0.12417194528227532,0.14378922083465853,0.1820466092208528,0.21220118746535907
176,0.05994406310121265,0.07205302347208203,0.09686577137610625,0.10999090139082861,0.12923253779470956,0.1337381435285157,0.18226596209955395,0.21590959723699127
177,0.06019274217420298,0.07205115061765145,0.09748118399250863,0.10999090139082715,0.12940148599481793,0.13663106038326608,0.1847835389647673,0.20946793648195844
178,0.05996056885940943,0.07235933584218594,0.09633225869370614,0.10999100941753452,0.12576435337248335,0.14093505812125443,0.1823937331949918,0.2122636824984343
179,0.05912513024623735,0.07213010224655741,0.09437744142774804,0.10999694166203612,0.13348108403746742,0.13323385255334375,0.18423393899510732,0.21342150883150257
180,0.059933335805191126,0.07236414683448808,0.0910015184619001,0.10999698843725349,0.13013124609236826,0.13868112489639275,0.18432173080072045,0.2135699086716857
181,0.059959857184098554,0.07236120869664549,0.09335945007791563,0.10999100941753473,0.12966905254332414,0.14086568525064744,0.18456510777903085,0.20922862905080308
182,0.05997461025444846,0.0723429393739501,0.0940066902935491,0.11000745424227924,0.1261951468289258,0.13928828438476903,0.18157036710306007,0.21661450751901817
183,0.05887382571472625,0.07249659224119058,0.09335891446124546,0.1099910090209317,0.12556316289247063,0.14529807632807007,0.18232482698842267,0.2120935923529425
184,0.06047173543470644,0.07228337070767835,0.09148675872030297,0.10964096489908717,0.1243400571477368,0.1481755868909082,0.18145358766578654,0.21214793853379352
185,0.06158631245568769,0.07284422009117743,0.09098529961147032,0.10964111970101198,0.13182547530039987,0.1349216067582512,0.1815049719397783,0.21669099414222326
186,0.0591367005881494,0.0729662472050881,0.09644621220130994,0.11001338688338391,0.12937956285478602,0.13839796494439138,0.18427051175668518,0.2093894135662061
187,0.05889751215021289,0.07266635388357409,0.09100151846186566,0.10962467487626881,0.12928065376281964,0.13993240895910422,0.18485993119858654,0.21373694670756813
188,0.06181930018709502,0.07205297511560342,0.09442571385169388,0.10999694205863879,0.1239343180836554,0.1401747537774401,0.18431565990207996,0.21328033702379345
189,0.060003120349655624,0.07243408543701337,0.09468800996788951,0.10999694166203516,0.12577243358906945,0.14257726432747023,0.18484434274237843,0.20968380192448824
190,0.05996567308278155,0.07205115061761212,0.0974811839925112,0.10999100902093255,0.13002086366112764,0.13269717912247264,0.18170521065388515,0.2160877298486771
191,0.06048381063710773,0.07297686825973729,0.09470445479264418,0.10962452007434334,0.12797892132916572,0.14023111039954267,0.1815049665275571,0.21249534797990197
192,0.05887741242883312,0.07211543356322314,0.09038610584542639,0.10964085726898319,0.13364325434663205,0.13730764938459847,0.1818364294572301,0.21619285770507352
193,0.059934444499858734,0.07206941994035193,0.09460588405950358,0.10999683403193156,0.13354943381821574,0.1355317125392423,0.1845651023667733,0.20974716874412297
194,0.05910140648404106,0.07205135337947007,0.09108387034457298,0.10999694166203511,0.1288183396989002,0.1446705513453676,0.18153515416746632,0.21274238291814668
195,0.0599545821032155,0.07265168520027254,0.09345802081102163,0.10961858782984266,0.1339693207594188,0.1324892639655106,0.18423581996049962,0.21362271937021868
196,0.05999234428138798,0.07305561712678935,0.09095347201221063,0.10961847980313508,0.12966563646146367,0.14274049238147204,0.1815882541769038,0.21238570375663746
197,0.05885534482853687,0.07234289101743081,0.09450783976007816,0.10999090178743155,0.12969258195759503,0.1365338047903462,0.18157087198466973,0.2165057638739117
198,0.059150207548932146,0.0720677498477041,0.09689737300099716,0.1099909013908279,0.1298025979723454,0.13387514142266893,0.18191932050010617,0.21629670831641815
199,0.061618005068298454,0.07261037826504506,0.09431176034414097,0.10999683403193142,0.12385952824616989,0.13940834055017715,0.18212271277620617,0.21607244071803094
200,0.05998572521132883,0.07259155593220452,0.09100151846183957,0.10962441284084148,0.13331507099559245,0.13581505094798274,0.184270878490758,0.21339578711945234
201,0.059990998371898495,0.07259175869406392,0.09678341949341121,0.10999683442853515,0.1329429103581164,0.12895728885308086,0.1821778334365233,0.2165589563643707
202,0.06073838861022083,0.07211360906529372,0.0934734035854884,0.10963518705990981,0.12767844109768836,0.14221671401577204,0.1815205549837233,0.2126237015819036
203,0.05890651829858549,0.07211360906524852,0.09317927987002692,0.10999116382285688,0.12952036514484336,0.13734187186239305,0.18226595668723497,0.21668123524881083
204,0.06020487871518704,0.07240534946514238,0.09093583737824584,0.10999090178743068,0.1331698868615766,0.1354840802541195,0.18150684749290344,0.2163022180453945
205,0.06184420804850558,0.07240717396300143,0.09417132248990988,0.10961858782984217,0.12866119976681697,0.13557375795826915,0.18152437483784242,0.2161993751058124
206,0.05911535723958291,0.07292018522570602,0.09035427824624147,0.10962467447966394,0.12945656018899804,0.14097000016327385,0.1842835967090049,0.21327534774752885
207,0.06052528570493189,0.0722852435620962,0.09090400977904903,0.10999694166203511,0.12728434468220143,0.14426861964227458,0.18487903453858406,0.20985652042882774
208,0.06162262904258557,0.07290196425951874,0.09357197431860835,0.10961858782984131,0.13179764678874195,0.13620904114299778,0.1848690674360673,0.20940908918163897
209,0.05888027051856516,0.07234293937395694,0.09345802081101157,0.10999709646396098,0.1296353944273381,0.13698781376356817,0.1851435355625954,0.21355492907900364
210,0.05996343947396949,0.0735630844353661,0.09462232888429503,0.1096184798031357,0.1295842489627082,0.1351982124352746,0.18428876556459214,0.2131614404406588
211,0.058902621935629576,0.07272582583682034,0.09355552949386878,0.10999683403193072,0.12553936879615551,0.14140363261451014,0.18453672851620223,0.21333945877488258
212,0.06184815133564453,0.07234293937400194,0.09150320354503895,0.10999100902093091,0.13246555885145514,0.1383339491303979,0.18153687531518564,0.21197831342734502
213,0.05908429959164652,0.07206946829680472,0.09697949890934238,0.1099910090209314,0.1254787925069573,0.13774465423496773,0.18244951757181474,0.21620275986753523
214,0.05996859388693076,0.07211381182718656,0.09397455305200485,0.1099969420586391,0.1261280822337349,0.13995004663805174,0.18185102864088895,0.21601694166256308
215,0.05996403050884494,0.07243413379350687,0.09693145245970085,0.10962467447966423,0.12566380329226132,0.14119296300886838,0.18451753794679326,0.20967140451036012
216,0.05998595696970798,0.07205302347205272,0.0944092690269387,0.10964085726898291,0.1334870579462292,0.13153459795391828,0.18240195315183924,0.21648728421033103
217,0.06160640969473822,0.07257693560540861,0.09381007526096961,0.11000750101749915,0.12826200416858508,0.13623763507787826,0.18420166347337205,0.213297775701549
218,0.059933779599872374,0.07228524356209334,0.09697987928900549,0.10999100941753516,0.12962865681163907,0.13313637668981845,0.18153342760745111,0.216511627022585
219,0.058839695488452255,0.07294160110213053,0.09757869267536828,0.10963503265458618,0.12984043586394942,0.136771679663693,0.18211545750416505,0.21227740504765513
220,0.06053871464703522,0.07205119897414115,0.097513165997068,0.10961858782984196,0.12793475255807027,0.1344020659005864,0.18144243618990202,0.21649907790335501
221,0.061587777978916805,0.07211548191970507,0.09142107763663962,0.10999694205863951,0.12855751822634476,0.14216528261861555,0.18153724746157063,0.21261867209956803
222,0.058847833559313646,0.07290191590301767,0.09151858631952671,0.10964096489908758,0.1263303145912294,0.14283361974934888,0.1845846596701142,0.21334210530836187
223,0.05888315935094265,0.07284426844767604,0.09460588405955352,0.10964085726898405,0.13012113222600383,0.1361456971139109,0.18157381481079862,0.2161851867221305
224,0.05890911872535696,0.07213010224654716,0.09160071222789377,0.10999100902093176,0.13334735590077307,0.13589420906456873,0.18183643486945578,0.21629105794447265
225,0.05890158452643649,0.07269090327353568,0.09316283504532029,0.10962456684956105,0.12985812844166542,0.1372428252305311,0.1846847784999435,0.21383437813300643
226,0.058863183847476686,0.0721319267444258,0.09335945007789527,0.10961874183856155,0.1305327086283404,0.13708090199422326,0.1848460638901183,0.21356702297895874
227,0.05907202320859156,0.07211365742182692,0.09459050128508252,0.10999683442853432,0.12999865595377436,0.13639680975792298,0.18420166347341016,0.2136298544708572
228,0.05887745359603015,0.07241768896880231,0.0938924271436279,0.1099968344285358,0.1330213799274948,0.13706281646916935,0.18498348353306868,0.20974791593327094
229,0.058852334371773535,0.07205119897415932,0.09759513750013454,0.1099909017874318,0.12957684495707247,0.13329124008997126,0.18224655378920024,0.21639578853025684
230,0.0599260007224977,0.07259160428875552,0.09046838615910875,0.10999100902093108,0.12568022090745773,0.1468808002751294,0.18476068835898574,0.20970129026713408
231,0.05887067411857074,0.07351889531041544,0.09408881620191932,0.10962441284084148,0.1334414058693233,0.1327893866783001,0.1843155054967411,0.2133509034838885
232,0.05891181558075359,0.0723429393739475,0.0937620288113313,0.11000734661217627,0.12913561331214818,0.13706476168324697,0.18527780546719907,0.21349768915919703
233,0.05887472429345759,0.0722833707076489,0.09027215233786284,0.11001327925327956,0.12601227210180338,0.14845152483892735,0.1842724452330585,0.20982023123396193
234,0.05887452359649906,0.0732702787521378,0.09337535928596416,0.10999100902093117,0.1331484708550357,0.13357504107138343,0.1843155054967774,0.21344981192127127
235,0.05908463084837977,0.07205119897416074,0.09684932655138408,0.1096350326545864,0.126449954855231,0.13813934090288277,0.18153514875521315,0.21625536645816212
236,0.05889441810202992,0.07211365742181926,0.0938441547196624,0.11000750062089475,0.13345623738201,0.1334326592715245,0.1817673742575718,0.2164839982244873
237,0.059937448101678226,0.07267263395085209,0.09626657761007641,0.10999683403193174,0.12579298158623142,0.1371246818345862,0.1817227472514779,0.21648609563316604
238,0.05912463478763026,0.0720513050229702,0.0910838703445379,0.1099969416620352,0.12600824440210678,0.1436402224179772,0.18436343665066984,0.21373134471207259
239,0.05884933587104536,0.07206764379887734,0.09389220116929328,0.10999100902093215,0.12598125252714037,0.14050334137976148,0.18491264342670463,0.2138025728062454
240,0.05994067156122822,0.07303917230197282,0.09335945007790003,0.11001327885667622,0.12895734136003736,0.13677513797756435,0.18447239521374276,0.21344255265087822
241,0.05999038591889527,0.07234770200977728,0.09395810822730226,0.10964085726898283,0.12945475554894018,0.14070055957877778,0.18428704441678986,0.2096205870305346
242,0.05994681152245166,0.07205119897415771,0.09684932655138491,0.11001338688338325,0.13306999859980082,0.129637853215418,0.18149209931612326,0.21693932493728038
243,0.0588728246501036,0.07265168520025041,0.09087134610386328,0.11000734661217572,0.13306859856623357,0.13695392818576452,0.184284945710529,0.21328932497107994
244,0.058875484740844405,0.0723458291553327,0.09738261325940749,0.10964096529569085,0.13080209581761668,0.13309001433443673,0.1815032453797538,0.2163597520169174
245,0.059973364145002005,0.0723428910174542,0.09381007526098332,0.10964085766558797,0.12991389465773417,0.139812685486649,0.1851068994653824,0.20939933230120686
246,0.058881523631954424,0.07277366395765979,0.0941054154319939,0.10999683403193176,0.12938904202534274,0.1363582238380271,0.18231352651942315,0.21618177056366714
247,0.061565067251035284,0.07206764379886682,0.09440926902695773,0.10999683442853402,0.12772216397899486,0.1396975067598794,0.18483147553098592,0.20971003922474593
248,0.060007494371228286,0.07206759544235428,0.09387598231888554,0.1099909013908283,0.12944025970623366,0.13675856952547866,0.1817850505954939,0.21607414664949742
249,0.05911537180289268,0.07234293937398126,0.09449208495727611,0.1100132792532811,0.12643281000349907,0.13991641273078267,0.18436343665067942,0.21332366522760762
250,0.05887255740392658,0.07234770200973267,0.09093583737824355,0.10999694205863944,0.12948145238049985,0.14025036820951808,0.18155283050547602,0.21656231005396384
251,0.059110769460899305,0.07262844482588313,0.09407259735150283,0.10961874223516396,0.12583200779383996,0.14036600004891087,0.18463721407997355,0.2137342242038264
252,0.0588918876734493,0.07265168520018805,0.09693145245973037,0.11000745424227988,0.1295494857772987,0.13348986344835936,0.18486165775863334,0.2136165134400609
253,0.06000086444540073,0.07206759544239247,0.09384415471967718,0.10962441244423884,0.12945072027589097,0.14066829943768303,0.18496387329536754,0.20938007993934926
254,0.059988164101793806,0.0721136090652875,0.09442571385172113,0.1096244128408419,0.12955829846354086,0.1354418001112405,0.18241948974936378,0.21642851181621042
255,0.05886577307266295,0.07211360906532682,0.09688199022652753,0.10999694205863778,0.12994413104082134,0.13747754719288213,0.18180415393548452,0.2129158534076569
256,0.058895729974301765,0.07234293937392577,0.09037087747630243,0.10961858743323809,0.13366061230533885,0.137172704253692,0.18464799340971147,0.2132905557734896
257,0.0599610491084005,0.07241768896876374,0.09335960448324485,0.11001327925327987,0.1300598506276907,0.1363172355013081,0.18173718661759172,0.2161341054397205
258,0.05889286338099989,0.07211543356319798,0.09450837537669252,0.10999683403193214,0.1335585256715101,0.13270148916048388,0.18507656824473406,0.21314991057044946
259,0.0599439554711534,0.07266813002499539,0.09389235557463167,0.10962452007434154,0.129884601217825,0.1363480274085997,0.18420339003346642,0.21343502019498692
260,0.05911831657979147,0.07205297511555049,0.09457421086564337,0.11000745424227959,0.12953740951412818,0.13664356356661322,0.18468199549140768,0.2133840746245861
261,0.05889632358873559,0.07206759544239784,0.09027215233788469,0.1096244124442383,0.13406192314075602,0.13702829249114315,0.18150512634512952,0.2165441742097149
262,0.061862756411507056,0.07241768896883724,0.09317927987007803,0.10999105619275437,0.13131185439350024,0.13270737095679758,0.18204833578089535,0.21648165742563014
263,0.05911070843265437,0.07205297511556236,0.09347340358548203,0.10963503265458571,0.12936171398539745,0.1381079234275238,0.18487731339090546,0.21338092940788883
264,0.058887225045506905,0.07213005389001002,0.09098529961143458,0.10999694166203498,0.12933012498082894,0.139990237031368,0.1851290593189641,0.21355105845985248
265,0.06050303302469096,0.07266630552706567,0.09404076975227461,0.10962441244423808,0.13220885870621293,0.13326868890850307,0.18423844856365099,0.21344948307336367
266,0.05912327164600874,0.07262662032799866,0.09369612175334308,0.10999100902093158,0.129524316029836,0.1366901145089454,0.18433116112899942,0.21401738558393713
267,0.058887922927244825,0.07234289101747811,0.09040255067018414,0.10962467447966409,0.13368569781132944,0.13717588371203182,0.18462125888975164,0.21325912049231582
268,0.05889854955941078,0.07257515946397182,0.09095347201225058,0.11000745384567742,0.12934737934446913,0.143954672119465,0.184568307873323,0.20969500578143224
269,0.05885313084140307,0.07236430123989276,0.09437744142774578,0.1096184801997387,0.1258557757530984,0.14394919937355544,0.18524380338552224,0.20973786777904366
270,0.05994308739356457,0.07302050437458021,0.09689737300098962,0.10999116382285777,0.12953305155531195,0.13643228424162865,0.18479469044069902,0.20938784517036826
271,0.05997471788455835,0.07243408543705188,0.09686554540176767,0.10999090139082801,0.12569366830768963,0.13656067954009077,0.18206414581837138,0.2164162562196423
272,0.05888731047425928,0.07206764379888893,0.09387598231889832,0.10962467487626805,0.13024775680808418,0.13737928625300772,0.18428359670911307,0.21363374876148034
273,0.058871773310278736,0.07350062598770789,0.09449139493530172,0.10964096529569009,0.13344911994204844,0.1363692340037129,0.18152228154379452,0.21215460498146574
274,0.058882881525032404,0.07205302347208262,0.09395826263260215,0.10963503265458703,0.12589222267404357,0.14484058734042388,0.18482765567685905,0.20991033402436937
275,0.061587583963579356,0.07228352511300414,0.09091939255347593,0.11001327885667597,0.127859747162306,0.13889484502924515,0.18152055498374867,0.21692107233796468
276,0.059143423217818326,0.07243408543698568,0.09389273678596737,0.10962456684956066,0.12916611855861784,0.1369787582352526,0.18217611228874056,0.2165841986270569
277,0.059112103534411584,0.07213010224653545,0.0909852996114467,0.10999116382285742,0.1266040222836382,0.1437468626867007,0.1815226482777783,0.21590779753663172
278,0.059964440538688615,0.07234582915531997,0.09450783976008634,0.10999694205863848,0.12975942048357744,0.13530797466752106,0.18428704441682292,0.21383050891934516
279,0.05888772891196379,0.07261022385971362,0.09457405646030878,0.11001343326199849,0.12966379467924216,0.13620895066045224,0.18184930749320843,0.2161925046731124
280,0.060501995195477894,0.07242184264633617,0.09397486269430054,0.10961858782984127,0.12426804582015695,0.14442967416521188,0.18516133484067285,0.20962365680800255
281,0.058885017913373874,0.07295809428337686,0.09407259735147795,0.10999694166203504,0.12881318839274644,0.13686615489930434,0.184861657758675,0.2135463477390105
282,0.05998142654581414,0.07242366714429015,0.09369612175338997,0.10961858782984102,0.13003802639213194,0.14005163035611104,0.18482974897096885,0.2093607910074529
283,0.06052224042888543,0.07228357346952054,0.09327678855288248,0.10963503265458724,0.13163882739476823,0.13434115475601974,0.1847981327361979,0.2135042500071384
284,0.05889176522823234,0.07228337070766597,0.09160071222786775,0.11000745424228085,0.13316694461878514,0.13637285255160828,0.18145531422581657,0.21622158619774312
285,0.05908242403855991,0.07270938101209233,0.09028859716258007,0.10999694205863841,0.13310308444964394,0.1367804700479918,0.18201778140694397,0.2160213198235497
286,0.06020331275590045,0.07206759544234982,0.09696328005890963,0.10999683442853482,0.12892508302866426,0.13287324706120412,0.18212645457481805,0.21684419264961885
287,0.05886023182538121,0.07257698396191764,0.09404076975230098,0.1100075010174982,0.13342044211427598,0.13346680984966505,0.18430434860851325,0.21332291287044772
288,0.05910919864788185,0.07213187838794637,0.09344157598627029,0.10999694205863883,0.12991967776248337,0.14125184843828567,0.1848103460729632,0.2093385326455305
289,0.058895945407759054,0.07205119897417667,0.09028859716262075,0.1099910090209309,0.12631445542193961,0.14421812418056684,0.18451372350503698,0.21372694632696917
290,0.058879362831027536,0.07211360906526805,0.09387598231886068,0.11001327885667661,0.12999060804387455,0.13727639625188387,0.1843200096530317,0.21353075297937701
291,0.058917987458983904,0.07228341906416277,0.09151858631949045,0.11001343326199928,0.13016530795397138,0.1431721537327645,0.18157021269766202,0.21235889951096565
292,0.059143801572052936,0.07205135337943126,0.09335891446122918,0.11001338688338363,0.13277060796001663,0.13440842416456414,0.18433632998448496,0.2139171815948372
293,0.05998779669368946,0.07240534946508957,0.0910179632866355,0.10999683403193211,0.13300538370017095,0.13922915216654944,0.18184758093314535,0.21250993972278764
294,0.05995542463155997,0.07211543356319791,0.09090400977905021,0.10962441284084264,0.12956264384731225,0.13920490815355394,0.18217610687643165,0.21645706030805142
295,0.06049640346191396,0.0723593358421909,0.09697949890934288,0.10961874183856121,0.12846692744705188,0.13409535783201768,0.184569880028042,0.21341385464087953
296,0.06182472967328719,0.0724800990599737,0.09397455305206069,0.10999100902093151,0.12735190974787125,0.1363738724148894,0.18157021269769702,0.21643361433328923
297,0.05998436880908568,0.07299331308445492,0.09035427824624712,0.10999100902093221,0.12913768408662993,0.13977114979778016,0.18432001506527235,0.2134481818895977
298,0.058865687643996675,0.07228337070765091,0.09387598231888623,0.11001338648677983,0.13352497043417078,0.137410309521402,0.1845570074043875,0.20946928548272611
299,0.05993416029439348,0.0728425983551339,0.09704540596727038,0.11001338648678005,0.13342214850782647,0.13265663433193395,0.18433460883674962,0.20975105721991225
300,0.060197824196163874,0.07240534946513769,0.09046838615912832,0.11000745384567674,0.12604164874602153,0.14741410102889047,0.18148586318754725,0.2119793733714342
301,0.05996102690709039,0.07284426844766015,0.0909852996114665,0.11001338688338316,0.1332023820182471,0.13909936915497853,0.18185874371604863,0.21203552326112557
302,0.05996798143397642,0.07213005389005568,0.0932769429582251,0.10961858743323802,0.13031801430568082,0.13602003873501528,0.18218524311388748,0.21648313812992112
303,0.060007494371243544,0.0726744584488142,0.09148691312560607,0.11001327885667574,0.12989307268718894,0.13809998446953617,0.18181703197143873,0.2160077660694965
304,0.059108501622837734,0.07241764061226802,0.09757884708071171,0.11000745424228044,0.12994799457871084,0.1330124702517685,0.1841905174096798,0.21373657420174297
305,0.05907766250051279,0.07303912394555186,0.0916007122278366,0.10963503225798364,0.12950686773707357,0.1396010552607116,0.1815228026831499,0.21601674338718013
306,0.061598179228955295,0.07206764379889334,0.09468800996791225,0.10999694166203544,0.12400479270596722,0.13895479982324044,0.18482974897093835,0.21385988384205756
307,0.060202865598410794,0.07234293937394339,0.0943774414277802,0.11000745424228044,0.1293786017951733,0.13553624056335775,0.18185858931080445,0.2162958676882497
308,0.059151688079501115,0.07205115061766168,0.09335945007790675,0.11000750062089432,0.12526323830105734,0.14168981329703967,0.18487731339088861,0.21359984561505058
309,0.059981416787026544,0.07242194869516293,0.09457405646032503,0.10999683403193126,0.1301688221217938,0.13872526914401523,0.18152264827776557,0.2126090044819796
310,0.06156180802476963,0.07228341906417152,0.09437744142774696,0.10963492502448251,0.1245460441180256,0.13902342611618596,0.1820941790531123,0.21647875717150558
311,0.059964393763468925,0.07313418434954716,0.09389220116932426,0.10963492502448294,0.13345198814663178,0.13587229757752853,0.18433288768898873,0.20971712228002773
312,0.058859317726989636,0.07297671385434994,0.09638053111770824,0.10961847980313492,0.13348447873258448,0.13050945261338273,0.18180415934773905,0.21636686680411096
313,0.05908223969959346,0.07262677473332035,0.091486758720306,0.10999694166203516,0.13305802369339148,0.1397794768555432,0.18153896860922827,0.21243081602658212
314,0.05997188361442232,0.07234582915535247,0.09381022966626658,0.11001327885667646,0.12954380835033724,0.13594768114697234,0.1820493976416491,0.2163178915683235
315,0.058910947503186414,0.07265416878525104,0.094072597351514,0.10999090178743161,0.12936741015988343,0.13640185474027086,0.18242876026000088,0.21617335941246177
316,0.059934373214358905,0.07205115061763438,0.09686577137612153,0.10961847980313415,0.12990235171691397,0.13280175605148262,0.18525667600913828,0.2135694412112163
317,0.06160802321239401,0.07240534946508231,0.0937620288113192,0.10963518666330607,0.1281175629374001,0.13649702162475583,0.18178505059548414,0.2161897766902584
318,0.059996209549827505,0.072903740400955,0.09344157598626048,0.11001338688338348,0.12947601075212148,0.14027232517195115,0.1844550130214534,0.20944173823404746
319,0.05999984196252156,0.07248197191436959,0.09335945007793704,0.10963492462788055,0.12682078399304297,0.13997886108054586,0.18153342760741223,0.21619073873629013
320,0.06073747451179345,0.07270938101209404,0.09148675872030378,0.11000745424228019,0.12729138552555463,0.13945183197632063,0.18479640617613824,0.21351930783551507
321,0.05884699747962706,0.07205115061763323,0.09329323337765591,0.10999090139082743,0.1328281788605089,0.13408159193994182,0.18224483264150376,0.21666311369230198
322,0.061602251605193004,0.072342891017448,0.09400684469887911,0.11000734661217551,0.13168185855601142,0.131868012444447,0.18240195315184451,0.2160888419140015
323,0.06000121486296615,0.07298086753190397,0.0914869131256143,0.10999100941753492,0.1256584027365001,0.14193781155152513,0.18419051740972503,0.2137532633642304
324,0.059136256793462946,0.07211376347060224,0.09459050128506169,0.10962441244423743,0.12962046401934127,0.13622623421653743,0.18209454578707474,0.21659382198368232
325,0.05884289978715463,0.07205115061762149,0.09638053111769229,0.10961847980313345,0.1340945416037923,0.13482470140216976,0.18460042898976162,0.20958726667867453
326,0.06019218490428828,0.0724341337935155,0.09387598231892803,0.10999090139082808,0.12898821151144207,0.13677614792547851,0.1842816578203254,0.2134607803351941
327,0.06022779566104212,0.07261200000116654,0.09748118399254083,0.10962441284084214,0.13378966062075132,0.12845503982564224,0.18424017512366098,0.21356973193435394
328,0.05912780206991896,0.0729662472051272,0.09101796328658869,0.10961847980313508,0.1258564059007394,0.1434224797547783,0.18465196766909017,0.21333865431062232
329,0.06049796942113328,0.07292018522574509,0.09376202881132054,0.10999694205863801,0.1243077626052191,0.14462722484298027,0.18180243278775227,0.21208545424721148
330,0.06049691317342803,0.07230164003038912,0.09457405646030909,0.10962441244423773,0.12413825856296111,0.1408083136347646,0.18460666511838247,0.21344974057552787
331,0.061852627315545666,0.07235933584218604,0.0973826132594057,0.10999100902093102,0.131419559325265,0.12848481043245558,0.18486165234634455,0.2136483924578664
332,0.058910489455576184,0.07261204835762868,0.0968973730009808,0.10964085726898423,0.12956617241574264,0.1341486698833159,0.184557001992071,0.2136673876257006
333,0.06161230461111632,0.07234289101745431,0.09381007526096924,0.11001354128870595,0.12784047996233006,0.1359521907155366,0.18227710816312095,0.21615140898076662
334,0.0599631774386179,0.0720676437988696,0.09387598231888447,0.10961858782984138,0.13363255057448603,0.1320823083247854,0.18512717835365028,0.21363257136086483
335,0.059994963118069636,0.07205115061762021,0.09440942343229163,0.10964085766558729,0.12602763343320814,0.14318184638610526,0.18487452497003717,0.20981960037708072
336,0.058900608818805454,0.07261215440647012,0.09101796328662383,0.10999100902093184,0.12624229864094785,0.14774463383483283,0.18144416274986808,0.2120471692415201
337,0.060186654198830236,0.07205119897414426,0.09335960448321562,0.10963492462787994,0.12642561151521914,0.14063069646937615,0.18144244160214942,0.21626886812918536
338,0.059958437681757994,0.07265588723433422,0.0914867587202962,0.10961874223516349,0.12992619056395827,0.13846449108913364,0.1846021555497832,0.21328733692557292
339,0.05890158452644053,0.07263939405306621,0.09395810822727131,0.1100132788566761,0.12553686799330127,0.14042915637186287,0.18249294456942383,0.21602866540195798
340,0.05996388295839919,0.0720694199402923,0.09027215233785037,0.1099910094175343,0.12647283194638095,0.14306866020033682,0.18463894064005568,0.21352310255915047
341,0.05995441190750258,0.0726558388778112,0.09407259735149046,0.10999709646396157,0.12944151661529038,0.13523700462226929,0.18213095873099805,0.21651057543067648
342,0.05911157651014923,0.07241768896878484,0.09751301159172214,0.10999694166203626,0.13319467342579852,0.13032195922669607,0.1814731449691707,0.21597100364564228
343,0.0588553384175512,0.07299315867912805,0.09087134610388573,0.10999100902093077,0.12570757578174738,0.14386133733359618,0.18427035735134736,0.21344987731181336
344,0.058903526208679474,0.07268907877563364,0.09087134610388109,0.10961858782984156,0.12562978700779964,0.14356725129651057,0.1845029441753684,0.21421747860228557
345,0.05909143018689036,0.0724053494650867,0.09749672117230218,0.11000745384567569,0.13008317615324794,0.13729736533250533,0.18148586318752688,0.21213264065676496
346,0.05912886416274277,0.07249836838259967,0.09633225869371222,0.1099910094175351,0.1333392701077851,0.13062735628278893,0.184235660142866,0.21384721280997016
347,0.06161230461119938,0.07205297511552262,0.09462232888430205,0.10962452047094644,0.12417566267185202,0.14258610168404295,0.18277309581338136,0.2125530107487531
348,0.059133441361850295,0.07234293937399379,0.09457405646036376,0.11001338688338323,0.12983855204704814,0.13637120468755687,0.1815848064691121,0.21614161271669172
349,0.05998855714107036,0.0729019159030354,0.0963805311176854,0.10961858782984114,0.134025692334993,0.12952551047282407,0.18427395405212946,0.21328525114842106
350,0.05996690876153841,0.07228519520559487,0.09390880039941397,0.10999090178743166,0.13358696635426764,0.13261875509708723,0.18425132118734336,0.21339115120732272
351,0.060536763017719895,0.07265168520025143,0.09386059954447039,0.10961863420845677,0.12781471622082974,0.137664380630821,0.18153896860923344,0.21631425256821724
352,0.05913015719648135,0.0724055038704096,0.09389242714367188,0.1099969420586384,0.12537202679329887,0.140504002535789,0.18489018601457471,0.21380875438713615
353,0.05993693729661156,0.07242366714430341,0.0969632800589086,0.10999694166203636,0.12969329623086445,0.13283441617651282,0.18476585721445826,0.2133856042163045
354,0.0599686077079395,0.07299498317704979,0.09384430912504114,0.10999100902093101,0.12972191889117923,0.13949195597494515,0.18423393899505153,0.2097532771078627
355,0.05913273584198846,0.07248014741645228,0.0940066902935532,0.11000760825099894,0.1334543593850157,0.13311976210103524,0.18435229058698988,0.21344640612396626
356,0.05995105060987527,0.0725751111075315,0.09759513750012419,0.10961858782984134,0.12983839066476044,0.13173746068823816,0.1852438033854927,0.21344045821413646
357,0.05886526824983998,0.07265168520023718,0.09369612175336714,0.11001327885667636,0.1295563065044762,0.1410469603851918,0.18201261255139572,0.21215776649881565
358,0.061590705948414606,0.07269095163005976,0.09633225869373002,0.10999100902093124,0.1281036817702806,0.13765102143687855,0.18423844856369243,0.20940192293601273
359,0.0599763677467479,0.07236227398005221,0.0908713461039002,0.10962441244423927,0.12629982384580557,0.14340216495538433,0.1814443171552037,0.21601929376866677
360,0.06017406137414772,0.0720694682967929,0.0969314524596885,0.10999698883385849,0.12952004816264975,0.13733075459165228,0.18458927751377344,0.20938794876743685
361,0.06016564927235443,0.07236116034013489,0.0940725973514803,0.10999090178743111,0.13305152385842223,0.13225873467669333,0.1847624095067191,0.2133370232067646
362,0.05911953056428529,0.0721154819197133,0.09395810822727822,0.10963503225798314,0.12588262479386464,0.14495397130592588,0.18190373745621585,0.21243151347473374
363,0.05995848428371007,0.07235938419870641,0.09384415471966666,0.10999090139082839,0.12985626112803592,0.13546742615724697,0.1851095334809251,0.21341385464088045
364,0.05997626011667137,0.07234476387188732,0.09400669029356519,0.10964096529568977,0.12576987271597093,0.139700766644603,0.18506369562102223,0.21349698544059018
365,0.05997471788454476,0.0723447155154168,0.0941052610266529,0.10999683442853399,0.12607948678143563,0.13924740166249078,0.18190201089615207,0.21634957180477296
366,0.0599909838086272,0.07263761791164146,0.09440926902691418,0.1100074542422799,0.12594346762911962,0.13885998151955486,0.18471705402162047,0.21343417184024235
367,0.05997183732282789,0.07298269202989055,0.09395864384388501,0.10999100941753559,0.12986011802002068,0.13539256804990782,0.18176737425751452,0.21607575705841797
368,0.05993882100210457,0.07248009905993034,0.09450837537671675,0.10962452007434198,0.13029554838457397,0.13545931925742688,0.18423566555513027,0.21345765128977517
369,0.05884355901536507,0.07240534946506878,0.0941711680846163,0.1099969416620352,0.12980918150736825,0.13674874916417226,0.18474953688302814,0.21327551421834595
370,0.06047702630596149,0.07267445844878379,0.09397486269433082,0.10963503265458685,0.12786606013607363,0.14090573280767482,0.18446803463818456,0.20999879231440408
371,0.06023574971526231,0.07235938419867174,0.09746473916779907,0.10999090178743234,0.12952066453280955,0.1318338146801579,0.1821438313546996,0.21645091456316742
372,0.05889603161970509,0.07299315867911883,0.09160071222789214,0.10961858782984253,0.1293898769331146,0.1393078570970104,0.18152400269152266,0.21666977292179376
373,0.0599597307155138,0.07235933584214604,0.09746473916777829,0.10962452007434223,0.13002737500400569,0.13199167076378254,0.18539511626080724,0.21317751217162426
374,0.059967995254859095,0.07243413379355154,0.09376218321666188,0.10999100941753526,0.12881833969887435,0.13601993324965397,0.18234407548111617,0.2166623298877478
375,0.05890448049813122,0.0724053978215885,0.09757869267536876,0.10963503225798368,0.13410083074163714,0.12939206836485076,0.18445501302146056,0.2135284846189795
376,0.05886516061968596,0.07234582915531314,0.09404076975230286,0.10963503225798335,0.1257769203902402,0.14433380220293576,0.18244951757176206,0.21255296804977666
377,0.06053795419959129,0.0730393267073483,0.09686554540178398,0.11001327885667643,0.13176837799947466,0.13426730198559347,0.1842832245627515,0.20922499028678035
378,0.05999013029441208,0.07284244394975128,0.0934898484102438,0.10961847980313459,0.1298047796804029,0.13635824223738297,0.1815674296891907,0.2163286459354817
379,0.060494404946112065,0.07205130502298186,0.09037072307095259,0.10999090178743148,0.12808675992506308,0.1445412112834391,0.18209245249309253,0.21237224147092726
380,0.06020657471995016,0.07205119897416815,0.09096991683699258,0.10962452007434223,0.1266124881291772,0.14312118292226797,0.181455468631167,0.2159586497119348
381,0.06022027656173887,0.07241768896879637,0.09040255067019656,0.10962452007434087,0.13326012956773126,0.1396680139592826,0.18482974897090704,0.20957707122700647
382,0.060207936730266816,0.07234471551535607,0.09397455305199315,0.10999694205863822,0.1303007639059565,0.1354920655756683,0.18424017512371066,0.21344284803841018
383,0.06074470915839327,0.07206759544237981,0.09335945007790553,0.1096184801997384,0.1320239762239785,0.1378421383508747,0.1848427759999648,0.20950087454676508
384,0.06185690185944113,0.07242361878778421,0.09387598231889875,0.10999709646396066,0.1315173080864715,0.13188862566154572,0.18214383676700638,0.21629663005489166
385,0.058880357205791864,0.07290207030835463,0.09046823175381989,0.1100074538456774,0.1296401083276204,0.14401984430075393,0.1844661590850909,0.20961577517289093
386,0.05993865844444686,0.07213192674444395,0.09148691312561669,0.10962452047094545,0.1301114771164086,0.13831078638464087,0.1815372474615504,0.21685847025194718
387,0.05993940005331612,0.07205119897412111,0.09757869267535454,0.11001338648678081,0.1291776740694262,0.13311199568453305,0.18150324537975973,0.21662440667670843
388,0.05996475822994505,0.07236116034013568,0.09087134610386197,0.10999698883385768,0.1256322271171584,0.14349595141252278,0.18148586318750418,0.21619170477501426
389,0.06180665717279481,0.07262662032795353,0.09429531551940887,0.10999090139082837,0.13167682136845757,0.1358425620189232,0.18144071504214526,0.21232040715948836
390,0.05908147925219196,0.0727112055100579,0.0943938862524954,0.10999683442853452,0.12587261177866166,0.14012849002455188,0.1842052655864816,0.2136102271670251
391,0.058894861896807836,0.07243413379353758,0.09100151846188753,0.10962452007434295,0.12996320517113233,0.1403266241947183,0.18430263287302978,0.21345250353454362
392,0.05886481956644021,0.07228519520557886,0.09037072307097116,0.109624520470945,0.1296697690227023,0.1445008115188996,0.1848137937806968,0.20987036736376613
393,0.059931298004753324,0.07229986388892505,0.09387598231890465,0.10962441284084176,0.13005365608830904,0.13614988692590396,0.18435056402696634,0.2137143359053959
394,0.05995160787979804,0.07313413599311949,0.09357197431858628,0.10962452007434105,0.12958171773820856,0.13633863054583842,0.18150324537979387,0.2162941680703143
395,0.0604901905438201,0.07243413379353329,0.09035427824622995,0.10961858743323874,0.12458908610781197,0.14404933814455126,0.1818475809331506,0.21661680479766413
396,0.05891170795063748,0.07259155593221327,0.09468800996789777,0.10999694166203484,0.13306251881908737,0.13258397919350057,0.1820924524930504,0.2160728339815782
397,0.060503738544551884,0.07234765365325466,0.0963487035184271,0.10961847980313418,0.1280220331857187,0.13440824830606493,0.1824460698640022,0.2163050731248463
398,0.05998595696972864,0.07296619884857647,0.09470445479265559,0.1099909017874317,0.13300353184017183,0.13110857938850606,0.1848996163977078,0.21334075997522178
399,0.058869482194333064,0.07228337070768664,0.09626657761009368,0.10999694166203436,0.1297724533642715,0.13886163954766007,0.18435056402694108,0.2095989708869796
400,0.05998640660951257,0.07236232233656621,0.09324496095367939,0.10999694166203461,0.12952077813262036,0.14050970927970724,0.18427207849910157,0.2101068025267781
401,0.059964030508841096,0.07229986388889888,0.09140463281195291,0.10961874223516344,0.12632976481007768,0.14226374670575,0.18460493855827623,0.2135142804810397
402,0.05913360391961036,0.07297864440110052,0.09161715705262194,0.10962452047094527,0.12954633262114965,0.1396811639984651,0.1814407150421159,0.21597786249399123
403,0.05884406951008516,0.07234293937398734,0.0968493265513347,0.11001343365860217,0.13002125192056893,0.13761039107517914,0.18205229775052634,0.21226629015971624
404,0.058906540079799466,0.07234289101745409,0.0932614057784418,0.10962452007434216,0.12647032834075,0.14123224603492107,0.18208472767753575,0.21607734099675574
405,0.05996755146020438,0.07205297511559905,0.09082188387066062,0.10962441284084248,0.1258850693744549,0.14325606233442045,0.18506713791647136,0.21332490708734683
406,0.05890158452646608,0.07236116034006722,0.09335945007790346,0.10999683403193239,0.12950703589351664,0.1375490473570092,0.18214399117230276,0.21618089660080228
407,0.05888374960258867,0.07213010224651784,0.09429531551935816,0.1099969416620356,0.12893084369906385,0.13781554316782985,0.1845194189121633,0.21342808519044273
408,0.05998139458567181,0.07261017550321555,0.09344173039156624,0.11001338688338479,0.1335523783412441,0.13233945567580846,0.18180415393553218,0.21625732468357686
409,0.05910599824640541,0.07262677473329221,0.09035427824623765,0.10999683403193175,0.12556956039667022,0.14441909398802696,0.18465008670373345,0.21327737365370228
410,0.058882136084988546,0.07248014741640792,0.09686554540176902,0.11000734621557252,0.12987899454459798,0.13402359990946508,0.18428667227058096,0.213575558156618
411,0.05997979160999307,0.07228341906416029,0.09625028719068478,0.1100074542422796,0.1333391349180255,0.12961524838692726,0.18185235318214688,0.2166723114057826
412,0.060216588899104986,0.07211548191970772,0.09151858631952378,0.11000760864760187,0.13300249483294616,0.1382309204617229,0.18209626693478886,0.2128120519846038
413,0.06052462647666439,0.07272582583684767,0.09644621220133416,0.10999090139082748,0.12767257654671751,0.13501665511721694,0.1815224359490969,0.2161007664812949
414,0.05995629270908625,0.07326860865949286,0.09688199022652222,0.10999090139082728,0.133216069307612,0.13304132362434512,0.18167466169217322,0.211970152389941
415,0.0601869952521551,0.07211360906526997,0.09704540596728643,0.10963507903320154,0.1302267347760473,0.13284867155707322,0.18418879084970485,0.21375471349926167
416,0.05997450903531775,0.07205115061764981,0.0937784736360422,0.10999694166203564,0.1336728392327186,0.13287276846807072,0.1815719392577605,0.21608137809040476
417,0.06050634105623116,0.07205115061763004,0.09633241309904797,0.10963492462787866,0.12845684391115236,0.13853727654815995,0.1815528305054164,0.2129282196344835
418,0.058867290619617506,0.0733327371997526,0.09348984841023612,0.10999694205863876,0.12884405339008428,0.1374526297486918,0.18448526783744218,0.2135312307355368
419,0.058904036703402995,0.07228337070766282,0.09699609813942656,0.10962441284084198,0.12956196900265968,0.13425272030132251,0.18485993119857394,0.21351746110610959
420,0.061858490020054,0.07205115061763387,0.09337535928597933,0.10999090178743119,0.12399687885117106,0.1403015723661727,0.18487453038232723,0.21355111668923063
421,0.05997435462995297,0.07277188781622425,0.09400684469889245,0.11001338648678004,0.12568653611653036,0.13989037695434198,0.1842835967090519,0.213373016588226
422,0.061839390232096704,0.07211360906534225,0.09317927987007651,0.10961874183856064,0.12440719429124056,0.14504947143791308,0.18152055498371614,0.21227175828105416
423,0.06021277855832161,0.07211543356322653,0.0945740564603517,0.1096350322579823,0.1298432888778607,0.1350745848161291,0.1849130366203591,0.21363178884576894
424,0.06019652800460068,0.07297666549787066,0.09415472325989663,0.11001338648678043,0.1252847326583582,0.13916600949850638,0.18155283050542534,0.21665512408856163
425,0.05910376228616514,0.07205302347204817,0.09679986431814927,0.10962441284084157,0.13377494403194184,0.13097111839864656,0.18428510552816726,0.2133877691240402
426,0.061819696423525125,0.07211360906529751,0.09738261325944415,0.11001338648678106,0.12402044042109636,0.1360179594405835,0.18478024566227794,0.21385204924099435
427,0.058885103342182075,0.07205130502294589,0.09397455305198546,0.10961858782984331,0.12594970672531552,0.141004533049112,0.18496214673537134,0.2135540642432444
428,0.05998479309186804,0.07234293937395367,0.09379469248651415,0.1096244128408411,0.1332666732817509,0.13661216646622834,0.18487287646557443,0.2095014459932693
429,0.0599656263074366,0.07206759544240432,0.09344157598629348,0.10961848019973777,0.12975000203050488,0.1366790272278649,0.1849169985899826,0.2135606942157754
430,0.058870350271784895,0.07234293937398346,0.09037087747629897,0.10999100941753583,0.12576221997517148,0.14472980005924127,0.18447239521369924,0.21346040821228499
431,0.059968607707942816,0.07262662032796172,0.09344157598626364,0.1096246748762675,0.13352116926416063,0.13237714780399837,0.18190373745611838,0.21653646657728698
432,0.05999027828883782,0.07267450680530789,0.09644636660662109,0.10963503225798317,0.1298948711285487,0.13282306645683878,0.18221579748781433,0.21632008096804828
433,0.05886259359581621,0.07291840908425876,0.09387598231889381,0.10999090139082807,0.1291002105440815,0.14094571970691908,0.18458278411697238,0.2097233992422303
434,0.06016918252964889,0.07234293937392773,0.09429531551937756,0.11000734661217565,0.13361030633173882,0.13202956305685365,0.18145546863122508,0.21608987794505266
435,0.06050682757509271,0.07228337070768098,0.09686577137610056,0.10999683442853499,0.12377584712342875,0.1375700991786589,0.18209627234711753,0.21690497726338565
436,0.05911022277055797,0.07234289101746987,0.09095347201225554,0.10963503225798278,0.12941146262750997,0.14048382557973602,0.1819227682079046,0.21614032552658322
437,0.05888105316726687,0.07236120869667888,0.09080559345123951,0.10962452007434224,0.12589432081130578,0.1445909494547208,0.18430090631298196,0.21354144803146394
438,0.059078944954576315,0.07270938101209148,0.091001518461868,0.10964096489908619,0.12585043296940898,0.14747202823516842,0.1847948448460165,0.20945188462178413
439,0.060514627978172905,0.07266635388358407,0.09384415471966578,0.10962452047094648,0.1323891792104785,0.13710073900690214,0.18149225372139804,0.21236817100885197
440,0.05886982104832488,0.0720676437989062,0.09693145245972314,0.10999090178743098,0.12593200266833154,0.14226326392923408,0.18185117763394762,0.21209373667410156
441,0.06053176839070125,0.07234289101748531,0.09408881620192239,0.10963503265458754,0.12450416171162502,0.14043796377800086,0.18204939764160996,0.21640996860406764
442,0.05911636992588795,0.0724194651102649,0.09397508866865728,0.10961874183856049,0.1257834103487145,0.14075263667677207,0.18484225486061107,0.2134920325705318
443,0.0605297084987134,0.07234293937395873,0.09150320354506379,0.10999116342625344,0.12810974179610388,0.13901614973731824,0.18507656824470864,0.21343052537787982
444,0.058879658065528036,0.07261017550325484,0.09689752740632557,0.11001338688338354,0.1255608560796928,0.13793826405406157,0.1845365741107879,0.21356355789696568
445,0.058869760020115916,0.0724236187878027,0.09689737300100239,0.10999683403193192,0.12955847149376257,0.13354297907108753,0.1854432072323904,0.21326775636190654
446,0.05997626011663039,0.07228337070771054,0.09082188387070934,0.10999694205863886,0.1293849872769047,0.1397299485009714,0.1815719338453923,0.2162346736230424
447,0.05888433417482868,0.0728588404180208,0.0941547232598547,0.1099969416620354,0.12904366814581258,0.1374586619515203,0.18153686990293563,0.2160659604849918
448,0.06159568601215613,0.07228337070767069,0.0914867587203186,0.1100076082509989,0.12740776256622355,0.13926857678661259,0.18150669308753056,0.2164435438684889
449,0.05889202726357528,0.07284422009121362,0.0939091816107072,0.10999683442853504,0.1328837656959878,0.1334644986234192,0.18180893159680916,0.21620054068975264
450,0.06018841157990223,0.07243590993494102,0.0909193925535218,0.10962441284084194,0.12932499940624978,0.1428477624540545,0.1820639914130674,0.21259511981742138
451,0.05886979884704593,0.0726120483576309,0.09450837537669073,0.10999709606735744,0.1296899688011724,0.13651100600826363,0.18149381505156895,0.21631789149027006
452,0.06019975188420006,0.07213010224655339,0.09440926902696536,0.10999698883385749,0.12903907811210813,0.13560372759415568,0.1825425968710602,0.21607848543109975
453,0.0615814408052459,0.07205302347205825,0.09093583737825912,0.10999683403193204,0.1313339346498727,0.13528071525910995,0.1851258538123423,0.2136923605911798
454,0.058877566834198716,0.07228524356214507,0.09686554540176512,0.11000734621557247,0.1300981784541739,0.13824224939693602,0.1842724506453581,0.20935141948985056
455,0.05995901130795479,0.07356308443538222,0.09148675872029566,0.10964085766558704,0.12593759690252468,0.14584104591273675,0.18147299056381536,0.21209865449170354
456,0.058887069857067875,0.07257698396188529,0.09335945007794082,0.1096409652956911,0.1264123008295004,0.14163386851757842,0.1842720730867947,0.21321728837354148
457,0.05996664151534968,0.07313600884749437,0.0938761367242353,0.11001338688338246,0.12897948054073818,0.14029439699906124,0.18153552090150607,0.2121984275882327
458,0.058865687643902584,0.07319664279725767,0.09449154934065085,0.11001338688338366,0.12908356322057762,0.1407556905613117,0.18423566014280343,0.20935781941011258
459,0.06023272128075694,0.07261200000116177,0.09408904217621983,0.10962452047094577,0.12962357475090253,0.1359861359167227,0.1842356601428599,0.2135963452604306
460,0.059961318876012,0.07229981553247632,0.09384430912500834,0.10962441244423857,0.13327957561769477,0.13283557338171806,0.18152228154378833,0.21663271347906354
461,0.05995467394289348,0.07211365742180725,0.09337589490265323,0.10999683442853479,0.13330694346741817,0.13306978080979923,0.18148758974754162,0.21669462527935218
462,0.06162122852780483,0.07248009905993749,0.0974647391678108,0.1100132788566757,0.1322069526004096,0.12838808464209844,0.1842549233003896,0.21357069384487357
463,0.06074557723587105,0.07211360906531415,0.09106742551982347,0.10964085726898205,0.12865712270906357,0.14014844656983994,0.18160421477944996,0.21602274685165576
464,0.05891181558076182,0.07206946829680431,0.09106742551984026,0.10961847980313484,0.12928431731554196,0.1402557585805736,0.18499635615676144,0.21379637874658175
465,0.058902196979420486,0.07211548191973671,0.0938924271436411,0.10999090139082876,0.13340567528742323,0.13337086348888816,0.1824158876363011,0.21590656615376058
466,0.05996859388697567,0.0724217942898992,0.09440926902694076,0.10962452007434263,0.13381555674467044,0.1315079660859351,0.18498175697304256,0.21327054291819358
467,0.05887811031065305,0.07205302347209347,0.09327678855291256,0.10963492502448294,0.12604748882015476,0.14592912467416166,0.1817673742575162,0.21241316488802542
468,0.05889675170285723,0.07294347395656142,0.0910838703445298,0.10962441284084279,0.12580412609010555,0.14405516443587596,0.18420181787875584,0.21339038275047137
469,0.06159023325050233,0.0731506291743264,0.09088756495428772,0.10962452047094519,0.1318285916589147,0.13491550390201376,0.1816153608431178,0.21638759574589214
470,0.06161628392051285,0.07265406273644225,0.09335945007790761,0.10999090139082887,0.1274459736896974,0.13700276426463529,0.18428150341499758,0.2136490605049782
471,0.061808479539697966,0.07242179428988432,0.0936961217533965,0.10961848019973822,0.12417712586217047,0.14020554016836664,0.18463894063998065,0.21343351754676523
472,0.059927829500362496,0.07211365742179396,0.09688214463181903,0.10999683442853485,0.1296767353884542,0.1335334025583156,0.18425132118732832,0.2136180748833915
473,0.059967918868352045,0.07248009905994139,0.09431176034415753,0.1099909013908273,0.12556091226346172,0.13901097246056457,0.1823603958125382,0.21631703980015715
474,0.0605139285590029,0.07205115061762424,0.09460603846488605,0.10964085766558646,0.12875728576231915,0.14056194297196767,0.18453312640300737,0.20933566955560617
475,0.0591012584896461,0.07211360906527851,0.09749656676699715,0.11001327885667592,0.13058428202610206,0.13319879208738872,0.18431377893672674,0.21317843377118476
476,0.06049761900364426,0.07320888558787132,0.0945740564603474,0.10964085726898258,0.12813421834171698,0.1360152819688619,0.18419051740971437,0.21373856395886115
477,0.05998476451098118,0.07284239559329457,0.09415472325984951,0.10964096529569091,0.12579729297265527,0.1438701386792289,0.18144086944740123,0.21226885024089837
478,0.059967164386002816,0.07268907877561816,0.09381007526094146,0.10999105579614889,0.1254047042752811,0.13984689267610426,0.18181530541146076,0.21647572341844257
479,0.05993820854909924,0.07242366714425205,0.09151858631950884,0.10961858743323813,0.13428274844282356,0.134349949589954,0.18460387669756642,0.21326437582355776
480,0.05999973433246243,0.07262662032796899,0.09644636660661635,0.10999100941753545,0.13306878164396893,0.12940661160851777,0.18173719202990143,0.21672368403302858
481,0.05996231933947587,0.07262662032794145,0.09347340358547157,0.10999683442853554,0.1333192310009489,0.1326663357943713,0.18461781118198753,0.21333744434126778
482,0.05890268296382653,0.07206759544235969,0.09027215233786662,0.10961848019973788,0.12665327208107363,0.1440866051209003,0.18435071843225728,0.21404849342197815
483,0.058848646709139175,0.07297681990320903,0.09377847363608441,0.10999683403193236,0.1331744791958012,0.13311506115291533,0.1815719338454783,0.21653775152544022
484,0.05888029271984136,0.07236247674190677,0.09376202881132202,0.10961848019973863,0.1335726277662371,0.13441484144522228,0.18423566014285145,0.2131535921728804
485,0.061629018351279624,0.07319664279723022,0.09739921248948856,0.10999100941753467,0.13137343374875668,0.12851804376649106,0.18420339003343197,0.21368924939578718
486,0.059119841371869195,0.07243590993496675,0.09633225869371247,0.10999100902093098,0.1290394611165827,0.13489634584262875,0.1820483357808872,0.216136838238422
487,0.059945457782867854,0.07320888558792599,0.09150320354502256,0.10999100902093058,0.12957226956328813,0.13822303436606223,0.18152781713334268,0.21602832300055994
488,0.0615881126525774,0.07205115061763015,0.09046838615912094,0.11001338688338426,0.12824959086508084,0.1397988152650877,0.18425304233506096,0.21357751522205773
489,0.05996428613335122,0.07249836838257688,0.09738261325943613,0.10999709606735762,0.13018407703750728,0.13221068132023867,0.1815865330291687,0.2161763447703635
490,0.05889941763688333,0.07205297511555643,0.09038610584544726,0.10964096489908766,0.13386479338054974,0.13746777851717498,0.18150669308756112,0.2161812715177395
491,0.060001700847298285,0.07205115061763952,0.09462232888428616,0.10961858782984163,0.12932168655226345,0.13916964753404895,0.18272359250476503,0.21249130522985707
492,0.061573317549478035,0.07211365742180333,0.09348984841021858,0.10999694205863919,0.12456687293595813,0.14034847486207291,0.1843522851746688,0.21355860158716103
493,0.05908470245622476,0.07213192674448152,0.0910015184618713,0.10999709606735664,0.1255892750919571,0.14351901217423046,0.18511430572986126,0.21356216327401698
494,0.05994410987644491,0.07228524356209551,0.09355552949380157,0.10963503225798259,0.12997365745350017,0.1367902103926466,0.18436688435842835,0.2134493326051003
495,0.0590761819700199,0.07267268230734461,0.09387598231886458,0.11001338648678072,0.13310450248536823,0.133359221752229,0.18431844291061997,0.21357959976877297
496,0.06073927367827462,0.07205302347210284,0.09389242714364698,0.10999090139082697,0.12413406070507585,0.14122088350494963,0.18148586318760493,0.21648356691751824
497,0.06182086614639959,0.07243590993499816,0.09633225869372646,0.10999694205863852,0.12460251521941833,0.1410261774163171,0.18425304774734116,0.20953228278316077
498,0.05886507519090498,0.07241764061231361,0.094688009967927,0.10963503265458749,0.13345535663002714,0.13677929079196163,0.1817694675515161,0.2123901266007621
499,0.06159756677597885,0.07266635388358672,0.09693160686504519,0.10999694205863884,0.13201738317227432,0.133031779277644,0.18161708199082338,0.21214128597600856
500,0.05887912299691707,0.0720530234720697,0.09101796328661017,0.109990901390828,0.12635633757263054,0.14369683866069236,0.18198529854550133,0.21602051407475084
501,0.05887866758056742,0.07235949024751734,0.09027215233787458,0.1099968344285353,0.129749120697801,0.14470980508401926,0.18172431399384337,0.21230961562984169
502,0.05884743272468295,0.0727258258368555,0.0974647391677902,0.10999683442853558,0.12935526741999942,0.1374628289775063,0.18200146107548693,0.21214561036914317
503,0.059998013184652636,0.07206764379889687,0.09704540596732014,0.10999100941753431,0.12924571302690557,0.13402087662955806,0.18423910785063738,0.21339223012449496
504,0.059097147286547615,0.07206759544240066,0.09106742551979807,0.10999090178743069,0.12602112710603788,0.14371641589632422,0.18153358201276432,0.2165058049486966
505,0.060192656745455694,0.07327023039558236,0.09688199022648376,0.10999090139082764,0.1255156937702902,0.13654427697394156,0.18427245064537318,0.2133317998520455
506,0.05910842491392928,0.07236120869668801,0.09400684469885794,0.10999683442853546,0.12928006598884334,0.14089187612874252,0.18157193925774387,0.21278280588665957
507,0.06161932304115793,0.07262666868446478,0.09335945007789635,0.10962441244423819,0.1316872927195936,0.13277347239508983,0.1845652621843796,0.21374411845317967
508,0.06159553801772458,0.07211381182713114,0.09417116808460108,0.109624412444238,0.12888356931360012,0.13555039263741397,0.1847800912569671,0.21328101641832412
509,0.058901491459667124,0.07234770200972916,0.09400669029356158,0.11000734661217577,0.13300417800972691,0.13413339487275378,0.18427072408533152,0.21332847265705407
510,0.05996578071282459,0.07234770200972068,0.09417116808460353,0.10999683442853475,0.12892822292738046,0.14076550271830093,0.18156742968921114,0.212257359429424
511,0.0607327493183018,0.07211360906526935,0.0968819902265384,0.1099969884372536,0.12786930196027016,0.13392581155894212,0.18211185539104918,0.21636769404237532
512,0.06020573864030063,0.07262844482590766,0.09091939255353129,0.10962441244423769,0.1301251999302097,0.1384269945104579,0.18153342760745583,0.21653638948789938
513,0.05911517874399945,0.0724965922412235,0.09460588405957408,0.10999100902093098,0.12959722032396795,0.13658578098125088,0.18427245064535866,0.2133358839836945
514,0.059999996367861755,0.07205119897414573,0.09442571385170546,0.10961847980313395,0.12580782929335774,0.13926393532057033,0.18539791009392306,0.21343493629530197
515,0.05910833948520943,0.07243408543702823,0.0938927367859693,0.10999090178743112,0.12949736495116634,0.13746950589027654,0.1842703573513148,0.21333670831160423
516,0.06050042159809795,0.07261017550326668,0.09704556037260026,0.11000745424227994,0.13117938085810527,0.12994475797092642,0.18205402431051476,0.21665822514420863
517,0.059943699846562545,0.07285888877451667,0.09689737300095566,0.10999709646396134,0.12570479111970312,0.1368059671090232,0.18182007766050412,0.2159721060247733
518,0.05997255099504983,0.07296619884860828,0.09415472325983787,0.11001338688338358,0.12551622025137946,0.13911452728662418,0.1847170540216348,0.21354533845348195
519,0.058876838802749874,0.07228337070767857,0.09449193055197035,0.10964096489908737,0.13039440511939554,0.1365974534831299,0.18150668767523714,0.21620834876075132
