/home/deamonpog/miniconda3/envs/doi/lib/python3.8/site-packages/sklearn/base.py:450: UserWarning: X does not have valid feature names, but RandomForestRegressor was fitted with feature names
  warnings.warn(
/home/deamonpog/miniconda3/envs/doi/lib/python3.8/site-packages/sklearn/base.py:450: UserWarning: X does not have valid feature names, but RandomForestRegressor was fitted with feature names
  warnings.warn(
/home/deamonpog/miniconda3/envs/doi/lib/python3.8/site-packages/sklearn/base.py:450: UserWarning: X does not have valid feature names, but RandomForestRegressor was fitted with feature names
  warnings.warn(
/home/deamonpog/miniconda3/envs/doi/lib/python3.8/site-packages/sklearn/base.py:450: UserWarning: X does not have valid feature names, but RandomForestRegressor was fitted with feature names
  warnings.warn(
/home/deamonpog/miniconda3/envs/doi/lib/python3.8/site-packages/sklearn/base.py:450: UserWarning: X does not have valid feature names, but RandomForestRegressor was fitted with feature names
  warnings.warn(
/home/deamonpog/miniconda3/envs/doi/lib/python3.8/site-packages/sklearn/base.py:450: UserWarning: X does not have valid feature names, but RandomForestRegressor was fitted with feature names
  warnings.warn(
/home/deamonpog/miniconda3/envs/doi/lib/python3.8/site-packages/sklearn/base.py:450: UserWarning: X does not have valid feature names, but RandomForestRegressor was fitted with feature names
  warnings.warn(
/home/deamonpog/miniconda3/envs/doi/lib/python3.8/site-packages/sklearn/base.py:450: UserWarning: X does not have valid feature names, but RandomForestRegressor was fitted with feature names
  warnings.warn(
/home/deamonpog/miniconda3/envs/doi/lib/python3.8/site-packages/sklearn/base.py:450: UserWarning: X does not have valid feature names, but RandomForestRegressor was fitted with feature names
  warnings.warn(
/home/deamonpog/miniconda3/envs/doi/lib/python3.8/site-packages/sklearn/base.py:450: UserWarning: X does not have valid feature names, but RandomForestRegressor was fitted with feature names
  warnings.warn(
/home/deamonpog/miniconda3/envs/doi/lib/python3.8/site-packages/sklearn/base.py:450: UserWarning: X does not have valid feature names, but RandomForestRegressor was fitted with feature names
  warnings.warn(
/home/deamonpog/miniconda3/envs/doi/lib/python3.8/site-packages/sklearn/base.py:450: UserWarning: X does not have valid feature names, but RandomForestRegressor was fitted with feature names
  warnings.warn(
/home/deamonpog/miniconda3/envs/doi/lib/python3.8/site-packages/sklearn/base.py:450: UserWarning: X does not have valid feature names, but RandomForestRegressor was fitted with feature names
  warnings.warn(
/home/deamonpog/miniconda3/envs/doi/lib/python3.8/site-packages/sklearn/base.py:450: UserWarning: X does not have valid feature names, but RandomForestRegressor was fitted with feature names
  warnings.warn(
/home/deamonpog/miniconda3/envs/doi/lib/python3.8/site-packages/sklearn/base.py:450: UserWarning: X does not have valid feature names, but RandomForestRegressor was fitted with feature names
  warnings.warn(
/home/deamonpog/miniconda3/envs/doi/lib/python3.8/site-packages/sklearn/base.py:450: UserWarning: X does not have valid feature names, but RandomForestRegressor was fitted with feature names
  warnings.warn(
/home/deamonpog/miniconda3/envs/doi/lib/python3.8/site-packages/sklearn/base.py:450: UserWarning: X does not have valid feature names, but RandomForestRegressor was fitted with feature names
  warnings.warn(
/home/deamonpog/miniconda3/envs/doi/lib/python3.8/site-packages/sklearn/base.py:450: UserWarning: X does not have valid feature names, but RandomForestRegressor was fitted with feature names
  warnings.warn(
/home/deamonpog/miniconda3/envs/doi/lib/python3.8/site-packages/sklearn/base.py:450: UserWarning: X does not have valid feature names, but RandomForestRegressor was fitted with feature names
  warnings.warn(
/home/deamonpog/miniconda3/envs/doi/lib/python3.8/site-packages/sklearn/base.py:450: UserWarning: X does not have valid feature names, but RandomForestRegressor was fitted with feature names
  warnings.warn(
/home/deamonpog/miniconda3/envs/doi/lib/python3.8/site-packages/sklearn/base.py:450: UserWarning: X does not have valid feature names, but RandomForestRegressor was fitted with feature names
  warnings.warn(
/home/deamonpog/miniconda3/envs/doi/lib/python3.8/site-packages/sklearn/base.py:450: UserWarning: X does not have valid feature names, but RandomForestRegressor was fitted with feature names
  warnings.warn(
/home/deamonpog/miniconda3/envs/doi/lib/python3.8/site-packages/sklearn/base.py:450: UserWarning: X does not have valid feature names, but RandomForestRegressor was fitted with feature names
  warnings.warn(
/home/deamonpog/miniconda3/envs/doi/lib/python3.8/site-packages/sklearn/base.py:450: UserWarning: X does not have valid feature names, but RandomForestRegressor was fitted with feature names
  warnings.warn(
/home/deamonpog/miniconda3/envs/doi/lib/python3.8/site-packages/sklearn/base.py:450: UserWarning: X does not have valid feature names, but RandomForestRegressor was fitted with feature names
  warnings.warn(
/home/deamonpog/miniconda3/envs/doi/lib/python3.8/site-packages/sklearn/base.py:450: UserWarning: X does not have valid feature names, but RandomForestRegressor was fitted with feature names
  warnings.warn(
/home/deamonpog/miniconda3/envs/doi/lib/python3.8/site-packages/sklearn/base.py:450: UserWarning: X does not have valid feature names, but RandomForestRegressor was fitted with feature names
  warnings.warn(
/home/deamonpog/miniconda3/envs/doi/lib/python3.8/site-packages/sklearn/base.py:450: UserWarning: X does not have valid feature names, but RandomForestRegressor was fitted with feature names
  warnings.warn(
/home/deamonpog/miniconda3/envs/doi/lib/python3.8/site-packages/sklearn/base.py:450: UserWarning: X does not have valid feature names, but RandomForestRegressor was fitted with feature names
  warnings.warn(
/home/deamonpog/miniconda3/envs/doi/lib/python3.8/site-packages/sklearn/base.py:450: UserWarning: X does not have valid feature names, but RandomForestRegressor was fitted with feature names
  warnings.warn(
/home/deamonpog/miniconda3/envs/doi/lib/python3.8/site-packages/sklearn/base.py:450: UserWarning: X does not have valid feature names, but RandomForestRegressor was fitted with feature names
  warnings.warn(
/home/deamonpog/miniconda3/envs/doi/lib/python3.8/site-packages/sklearn/base.py:450: UserWarning: X does not have valid feature names, but RandomForestRegressor was fitted with feature names
  warnings.warn(
/home/deamonpog/miniconda3/envs/doi/lib/python3.8/site-packages/sklearn/base.py:450: UserWarning: X does not have valid feature names, but RandomForestRegressor was fitted with feature names
  warnings.warn(
/home/deamonpog/miniconda3/envs/doi/lib/python3.8/site-packages/sklearn/base.py:450: UserWarning: X does not have valid feature names, but RandomForestRegressor was fitted with feature names
  warnings.warn(
/home/deamonpog/miniconda3/envs/doi/lib/python3.8/site-packages/sklearn/base.py:450: UserWarning: X does not have valid feature names, but RandomForestRegressor was fitted with feature names
  warnings.warn(
/home/deamonpog/miniconda3/envs/doi/lib/python3.8/site-packages/sklearn/base.py:450: UserWarning: X does not have valid feature names, but RandomForestRegressor was fitted with feature names
  warnings.warn(
/home/deamonpog/miniconda3/envs/doi/lib/python3.8/site-packages/sklearn/base.py:450: UserWarning: X does not have valid feature names, but RandomForestRegressor was fitted with feature names
  warnings.warn(
/home/deamonpog/miniconda3/envs/doi/lib/python3.8/site-packages/sklearn/base.py:450: UserWarning: X does not have valid feature names, but RandomForestRegressor was fitted with feature names
  warnings.warn(
/home/deamonpog/miniconda3/envs/doi/lib/python3.8/site-packages/sklearn/base.py:450: UserWarning: X does not have valid feature names, but RandomForestRegressor was fitted with feature names
  warnings.warn(
/home/deamonpog/miniconda3/envs/doi/lib/python3.8/site-packages/sklearn/base.py:450: UserWarning: X does not have valid feature names, but RandomForestRegressor was fitted with feature names
  warnings.warn(
/home/deamonpog/miniconda3/envs/doi/lib/python3.8/site-packages/sklearn/base.py:450: UserWarning: X does not have valid feature names, but RandomForestRegressor was fitted with feature names
  warnings.warn(
/home/deamonpog/miniconda3/envs/doi/lib/python3.8/site-packages/sklearn/base.py:450: UserWarning: X does not have valid feature names, but RandomForestRegressor was fitted with feature names
  warnings.warn(
/home/deamonpog/miniconda3/envs/doi/lib/python3.8/site-packages/sklearn/base.py:450: UserWarning: X does not have valid feature names, but RandomForestRegressor was fitted with feature names
  warnings.warn(
/home/deamonpog/miniconda3/envs/doi/lib/python3.8/site-packages/sklearn/base.py:450: UserWarning: X does not have valid feature names, but RandomForestRegressor was fitted with feature names
  warnings.warn(
/home/deamonpog/miniconda3/envs/doi/lib/python3.8/site-packages/sklearn/base.py:450: UserWarning: X does not have valid feature names, but RandomForestRegressor was fitted with feature names
  warnings.warn(
/home/deamonpog/miniconda3/envs/doi/lib/python3.8/site-packages/sklearn/base.py:450: UserWarning: X does not have valid feature names, but RandomForestRegressor was fitted with feature names
  warnings.warn(
/home/deamonpog/miniconda3/envs/doi/lib/python3.8/site-packages/sklearn/base.py:450: UserWarning: X does not have valid feature names, but RandomForestRegressor was fitted with feature names
  warnings.warn(
/home/deamonpog/miniconda3/envs/doi/lib/python3.8/site-packages/sklearn/base.py:450: UserWarning: X does not have valid feature names, but RandomForestRegressor was fitted with feature names
  warnings.warn(
/home/deamonpog/miniconda3/envs/doi/lib/python3.8/site-packages/sklearn/base.py:450: UserWarning: X does not have valid feature names, but RandomForestRegressor was fitted with feature names
  warnings.warn(
/home/deamonpog/miniconda3/envs/doi/lib/python3.8/site-packages/sklearn/base.py:450: UserWarning: X does not have valid feature names, but RandomForestRegressor was fitted with feature names
  warnings.warn(
/home/deamonpog/miniconda3/envs/doi/lib/python3.8/site-packages/sklearn/base.py:450: UserWarning: X does not have valid feature names, but RandomForestRegressor was fitted with feature names
  warnings.warn(
/home/deamonpog/miniconda3/envs/doi/lib/python3.8/site-packages/sklearn/base.py:450: UserWarning: X does not have valid feature names, but RandomForestRegressor was fitted with feature names
  warnings.warn(
/home/deamonpog/miniconda3/envs/doi/lib/python3.8/site-packages/sklearn/base.py:450: UserWarning: X does not have valid feature names, but RandomForestRegressor was fitted with feature names
  warnings.warn(
/home/deamonpog/miniconda3/envs/doi/lib/python3.8/site-packages/sklearn/base.py:450: UserWarning: X does not have valid feature names, but RandomForestRegressor was fitted with feature names
  warnings.warn(
/home/deamonpog/miniconda3/envs/doi/lib/python3.8/site-packages/sklearn/base.py:450: UserWarning: X does not have valid feature names, but RandomForestRegressor was fitted with feature names
  warnings.warn(
/home/deamonpog/miniconda3/envs/doi/lib/python3.8/site-packages/sklearn/base.py:450: UserWarning: X does not have valid feature names, but RandomForestRegressor was fitted with feature names
  warnings.warn(
/home/deamonpog/miniconda3/envs/doi/lib/python3.8/site-packages/sklearn/base.py:450: UserWarning: X does not have valid feature names, but RandomForestRegressor was fitted with feature names
  warnings.warn(
/home/deamonpog/miniconda3/envs/doi/lib/python3.8/site-packages/sklearn/base.py:450: UserWarning: X does not have valid feature names, but RandomForestRegressor was fitted with feature names
  warnings.warn(
/home/deamonpog/miniconda3/envs/doi/lib/python3.8/site-packages/sklearn/base.py:450: UserWarning: X does not have valid feature names, but RandomForestRegressor was fitted with feature names
  warnings.warn(
/home/deamonpog/miniconda3/envs/doi/lib/python3.8/site-packages/sklearn/base.py:450: UserWarning: X does not have valid feature names, but RandomForestRegressor was fitted with feature names
  warnings.warn(
/home/deamonpog/miniconda3/envs/doi/lib/python3.8/site-packages/sklearn/base.py:450: UserWarning: X does not have valid feature names, but RandomForestRegressor was fitted with feature names
  warnings.warn(
/home/deamonpog/miniconda3/envs/doi/lib/python3.8/site-packages/sklearn/base.py:450: UserWarning: X does not have valid feature names, but RandomForestRegressor was fitted with feature names
  warnings.warn(
/home/deamonpog/miniconda3/envs/doi/lib/python3.8/site-packages/sklearn/base.py:450: UserWarning: X does not have valid feature names, but RandomForestRegressor was fitted with feature names
  warnings.warn(
/home/deamonpog/miniconda3/envs/doi/lib/python3.8/site-packages/sklearn/base.py:450: UserWarning: X does not have valid feature names, but RandomForestRegressor was fitted with feature names
  warnings.warn(
/home/deamonpog/miniconda3/envs/doi/lib/python3.8/site-packages/sklearn/base.py:450: UserWarning: X does not have valid feature names, but RandomForestRegressor was fitted with feature names
  warnings.warn(
/home/deamonpog/miniconda3/envs/doi/lib/python3.8/site-packages/sklearn/base.py:450: UserWarning: X does not have valid feature names, but RandomForestRegressor was fitted with feature names
  warnings.warn(
/home/deamonpog/miniconda3/envs/doi/lib/python3.8/site-packages/sklearn/base.py:450: UserWarning: X does not have valid feature names, but RandomForestRegressor was fitted with feature names
  warnings.warn(
/home/deamonpog/miniconda3/envs/doi/lib/python3.8/site-packages/sklearn/base.py:450: UserWarning: X does not have valid feature names, but RandomForestRegressor was fitted with feature names
  warnings.warn(
/home/deamonpog/miniconda3/envs/doi/lib/python3.8/site-packages/sklearn/base.py:450: UserWarning: X does not have valid feature names, but RandomForestRegressor was fitted with feature names
  warnings.warn(
/home/deamonpog/miniconda3/envs/doi/lib/python3.8/site-packages/sklearn/base.py:450: UserWarning: X does not have valid feature names, but RandomForestRegressor was fitted with feature names
  warnings.warn(
/home/deamonpog/miniconda3/envs/doi/lib/python3.8/site-packages/sklearn/base.py:450: UserWarning: X does not have valid feature names, but RandomForestRegressor was fitted with feature names
  warnings.warn(
/home/deamonpog/miniconda3/envs/doi/lib/python3.8/site-packages/sklearn/base.py:450: UserWarning: X does not have valid feature names, but RandomForestRegressor was fitted with feature names
  warnings.warn(
/home/deamonpog/miniconda3/envs/doi/lib/python3.8/site-packages/sklearn/base.py:450: UserWarning: X does not have valid feature names, but RandomForestRegressor was fitted with feature names
  warnings.warn(
/home/deamonpog/miniconda3/envs/doi/lib/python3.8/site-packages/sklearn/base.py:450: UserWarning: X does not have valid feature names, but RandomForestRegressor was fitted with feature names
  warnings.warn(
/home/deamonpog/miniconda3/envs/doi/lib/python3.8/site-packages/sklearn/base.py:450: UserWarning: X does not have valid feature names, but RandomForestRegressor was fitted with feature names
  warnings.warn(
/home/deamonpog/miniconda3/envs/doi/lib/python3.8/site-packages/sklearn/base.py:450: UserWarning: X does not have valid feature names, but RandomForestRegressor was fitted with feature names
  warnings.warn(
/home/deamonpog/miniconda3/envs/doi/lib/python3.8/site-packages/sklearn/base.py:450: UserWarning: X does not have valid feature names, but RandomForestRegressor was fitted with feature names
  warnings.warn(
/home/deamonpog/miniconda3/envs/doi/lib/python3.8/site-packages/sklearn/base.py:450: UserWarning: X does not have valid feature names, but RandomForestRegressor was fitted with feature names
  warnings.warn(
/home/deamonpog/miniconda3/envs/doi/lib/python3.8/site-packages/sklearn/base.py:450: UserWarning: X does not have valid feature names, but RandomForestRegressor was fitted with feature names
  warnings.warn(
/home/deamonpog/miniconda3/envs/doi/lib/python3.8/site-packages/sklearn/base.py:450: UserWarning: X does not have valid feature names, but RandomForestRegressor was fitted with feature names
  warnings.warn(
/home/deamonpog/miniconda3/envs/doi/lib/python3.8/site-packages/sklearn/base.py:450: UserWarning: X does not have valid feature names, but RandomForestRegressor was fitted with feature names
  warnings.warn(
/home/deamonpog/miniconda3/envs/doi/lib/python3.8/site-packages/sklearn/base.py:450: UserWarning: X does not have valid feature names, but RandomForestRegressor was fitted with feature names
  warnings.warn(
/home/deamonpog/miniconda3/envs/doi/lib/python3.8/site-packages/sklearn/base.py:450: UserWarning: X does not have valid feature names, but RandomForestRegressor was fitted with feature names
  warnings.warn(
/home/deamonpog/miniconda3/envs/doi/lib/python3.8/site-packages/sklearn/base.py:450: UserWarning: X does not have valid feature names, but RandomForestRegressor was fitted with feature names
  warnings.warn(
/home/deamonpog/miniconda3/envs/doi/lib/python3.8/site-packages/sklearn/base.py:450: UserWarning: X does not have valid feature names, but RandomForestRegressor was fitted with feature names
  warnings.warn(
/home/deamonpog/miniconda3/envs/doi/lib/python3.8/site-packages/sklearn/base.py:450: UserWarning: X does not have valid feature names, but RandomForestRegressor was fitted with feature names
  warnings.warn(
/home/deamonpog/miniconda3/envs/doi/lib/python3.8/site-packages/sklearn/base.py:450: UserWarning: X does not have valid feature names, but RandomForestRegressor was fitted with feature names
  warnings.warn(
/home/deamonpog/miniconda3/envs/doi/lib/python3.8/site-packages/sklearn/base.py:450: UserWarning: X does not have valid feature names, but RandomForestRegressor was fitted with feature names
  warnings.warn(
/home/deamonpog/miniconda3/envs/doi/lib/python3.8/site-packages/sklearn/base.py:450: UserWarning: X does not have valid feature names, but RandomForestRegressor was fitted with feature names
  warnings.warn(
/home/deamonpog/miniconda3/envs/doi/lib/python3.8/site-packages/sklearn/base.py:450: UserWarning: X does not have valid feature names, but RandomForestRegressor was fitted with feature names
  warnings.warn(
/home/deamonpog/miniconda3/envs/doi/lib/python3.8/site-packages/sklearn/base.py:450: UserWarning: X does not have valid feature names, but RandomForestRegressor was fitted with feature names
  warnings.warn(
/home/deamonpog/miniconda3/envs/doi/lib/python3.8/site-packages/sklearn/base.py:450: UserWarning: X does not have valid feature names, but RandomForestRegressor was fitted with feature names
  warnings.warn(
/home/deamonpog/miniconda3/envs/doi/lib/python3.8/site-packages/sklearn/base.py:450: UserWarning: X does not have valid feature names, but RandomForestRegressor was fitted with feature names
  warnings.warn(
/home/deamonpog/miniconda3/envs/doi/lib/python3.8/site-packages/sklearn/base.py:450: UserWarning: X does not have valid feature names, but RandomForestRegressor was fitted with feature names
  warnings.warn(
/home/deamonpog/miniconda3/envs/doi/lib/python3.8/site-packages/sklearn/base.py:450: UserWarning: X does not have valid feature names, but RandomForestRegressor was fitted with feature names
  warnings.warn(
/home/deamonpog/miniconda3/envs/doi/lib/python3.8/site-packages/sklearn/base.py:450: UserWarning: X does not have valid feature names, but RandomForestRegressor was fitted with feature names
  warnings.warn(
/home/deamonpog/miniconda3/envs/doi/lib/python3.8/site-packages/sklearn/base.py:450: UserWarning: X does not have valid feature names, but RandomForestRegressor was fitted with feature names
  warnings.warn(
/home/deamonpog/miniconda3/envs/doi/lib/python3.8/site-packages/sklearn/base.py:450: UserWarning: X does not have valid feature names, but RandomForestRegressor was fitted with feature names
  warnings.warn(
/home/deamonpog/miniconda3/envs/doi/lib/python3.8/site-packages/sklearn/base.py:450: UserWarning: X does not have valid feature names, but RandomForestRegressor was fitted with feature names
  warnings.warn(
/home/deamonpog/miniconda3/envs/doi/lib/python3.8/site-packages/sklearn/base.py:450: UserWarning: X does not have valid feature names, but RandomForestRegressor was fitted with feature names
  warnings.warn(
/home/deamonpog/miniconda3/envs/doi/lib/python3.8/site-packages/sklearn/base.py:450: UserWarning: X does not have valid feature names, but RandomForestRegressor was fitted with feature names
  warnings.warn(
/home/deamonpog/miniconda3/envs/doi/lib/python3.8/site-packages/sklearn/base.py:450: UserWarning: X does not have valid feature names, but RandomForestRegressor was fitted with feature names
  warnings.warn(
/home/deamonpog/miniconda3/envs/doi/lib/python3.8/site-packages/sklearn/base.py:450: UserWarning: X does not have valid feature names, but RandomForestRegressor was fitted with feature names
  warnings.warn(
/home/deamonpog/miniconda3/envs/doi/lib/python3.8/site-packages/sklearn/base.py:450: UserWarning: X does not have valid feature names, but RandomForestRegressor was fitted with feature names
  warnings.warn(
/home/deamonpog/miniconda3/envs/doi/lib/python3.8/site-packages/sklearn/base.py:450: UserWarning: X does not have valid feature names, but RandomForestRegressor was fitted with feature names
  warnings.warn(
/home/deamonpog/miniconda3/envs/doi/lib/python3.8/site-packages/sklearn/base.py:450: UserWarning: X does not have valid feature names, but RandomForestRegressor was fitted with feature names
  warnings.warn(
/home/deamonpog/miniconda3/envs/doi/lib/python3.8/site-packages/sklearn/base.py:450: UserWarning: X does not have valid feature names, but RandomForestRegressor was fitted with feature names
  warnings.warn(
/home/deamonpog/miniconda3/envs/doi/lib/python3.8/site-packages/sklearn/base.py:450: UserWarning: X does not have valid feature names, but RandomForestRegressor was fitted with feature names
  warnings.warn(
/home/deamonpog/miniconda3/envs/doi/lib/python3.8/site-packages/sklearn/base.py:450: UserWarning: X does not have valid feature names, but RandomForestRegressor was fitted with feature names
  warnings.warn(
/home/deamonpog/miniconda3/envs/doi/lib/python3.8/site-packages/sklearn/base.py:450: UserWarning: X does not have valid feature names, but RandomForestRegressor was fitted with feature names
  warnings.warn(
/home/deamonpog/miniconda3/envs/doi/lib/python3.8/site-packages/sklearn/base.py:450: UserWarning: X does not have valid feature names, but RandomForestRegressor was fitted with feature names
  warnings.warn(
/home/deamonpog/miniconda3/envs/doi/lib/python3.8/site-packages/sklearn/base.py:450: UserWarning: X does not have valid feature names, but RandomForestRegressor was fitted with feature names
  warnings.warn(
/home/deamonpog/miniconda3/envs/doi/lib/python3.8/site-packages/sklearn/base.py:450: UserWarning: X does not have valid feature names, but RandomForestRegressor was fitted with feature names
  warnings.warn(
/home/deamonpog/miniconda3/envs/doi/lib/python3.8/site-packages/sklearn/base.py:450: UserWarning: X does not have valid feature names, but RandomForestRegressor was fitted with feature names
  warnings.warn(
/home/deamonpog/miniconda3/envs/doi/lib/python3.8/site-packages/sklearn/base.py:450: UserWarning: X does not have valid feature names, but RandomForestRegressor was fitted with feature names
  warnings.warn(
/home/deamonpog/miniconda3/envs/doi/lib/python3.8/site-packages/sklearn/base.py:450: UserWarning: X does not have valid feature names, but RandomForestRegressor was fitted with feature names
  warnings.warn(
/home/deamonpog/miniconda3/envs/doi/lib/python3.8/site-packages/sklearn/base.py:450: UserWarning: X does not have valid feature names, but RandomForestRegressor was fitted with feature names
  warnings.warn(
/home/deamonpog/miniconda3/envs/doi/lib/python3.8/site-packages/sklearn/base.py:450: UserWarning: X does not have valid feature names, but RandomForestRegressor was fitted with feature names
  warnings.warn(
/home/deamonpog/miniconda3/envs/doi/lib/python3.8/site-packages/sklearn/base.py:450: UserWarning: X does not have valid feature names, but RandomForestRegressor was fitted with feature names
  warnings.warn(
/home/deamonpog/miniconda3/envs/doi/lib/python3.8/site-packages/sklearn/base.py:450: UserWarning: X does not have valid feature names, but RandomForestRegressor was fitted with feature names
  warnings.warn(
/home/deamonpog/miniconda3/envs/doi/lib/python3.8/site-packages/sklearn/base.py:450: UserWarning: X does not have valid feature names, but RandomForestRegressor was fitted with feature names
  warnings.warn(
Processing : ./outputs/10x10CSV/anti_mistreatment_52_of_163__binned_10x10.csv
Unknown args : []
Beta : 0.59
Initial Infects : 0.05
GT:
    timebinMid  valbinMid
0        0.05       0.05
1        0.15       0.15
2        0.25       0.15
3        0.35       0.35
4        0.45       0.65
5        0.55       0.75
6        0.65       0.75
7        0.75       0.85
8        0.85       0.95
9        0.95       0.95
setting meta values
Seting up took :0.0028430700302124025 minutes
Starting evolve
--- Starting GP Run 0 ---
gen	nevals	avg     	std     	min     	max    
0  	50    	0.832657	0.509228	0.257976	2.90668
1  	50    	0.685878	0.526435	0.273472	2.90668
2  	50    	0.576586	0.255214	0.234584	2.01779
3  	50    	0.564681	0.277816	0.283891	1.66834
4  	50    	0.494087	0.173334	0.206698	1.0557 
5  	50    	0.532489	0.289396	0.206698	1.68975
6  	50    	0.560773	0.258724	0.178314	1.78906
7  	50    	0.562617	0.241947	0.217117	1.32752
8  	50    	0.49269 	0.158447	0.283424	1.11024
9  	50    	0.459293	0.109639	0.204419	0.779776
10 	50    	0.49357 	0.157038	0.217653	1.11024 
11 	50    	0.470543	0.134433	0.241045	0.857566
12 	50    	0.500939	0.231353	0.282888	1.96456 
13 	50    	0.451382	0.130209	0.229349	0.895853
14 	50    	0.455975	0.130899	0.25586 	0.841456
15 	50    	0.547065	0.237005	0.282888	1.66826 
16 	50    	0.511493	0.16039 	0.229349	1.10181 
17 	50    	0.481384	0.160807	0.226911	1.1695  
18 	50    	0.487072	0.290426	0.234566	2.38816 
19 	50    	0.477732	0.155958	0.21749 	1.13888 
20 	50    	0.476491	0.195372	0.157858	1.36909 
21 	50    	0.487114	0.204696	0.231932	1.65207 
22 	50    	0.508051	0.227806	0.172673	1.47795 
23 	50    	0.46583 	0.159645	0.265957	1.24905 
24 	50    	0.425632	0.082657	0.229027	0.652275
25 	50    	0.454331	0.114775	0.174952	0.794385
26 	50    	0.459115	0.133308	0.257976	0.794385
27 	50    	0.486583	0.145343	0.265957	0.980864
28 	50    	0.455095	0.109731	0.195305	0.804544
29 	50    	0.447885	0.136861	0.157858	0.841456
30 	50    	0.457345	0.0842151	0.280935	0.759401
31 	50    	0.436454	0.111933 	0.22623 	0.794385
32 	50    	0.503947	0.138866 	0.282888	0.819196
33 	50    	0.468727	0.158298 	0.172673	1.1524  
34 	50    	0.488645	0.142769 	0.249399	0.871085
35 	50    	0.487756	0.13523  	0.270353	0.87322 
36 	50    	0.500273	0.152551 	0.217653	1.07833 
37 	50    	0.510334	0.290603 	0.217653	2.04303 
38 	50    	0.474189	0.150828 	0.174952	0.883014
39 	50    	0.5043  	0.134499 	0.246262	0.794385
40 	50    	0.465328	0.130307 	0.209136	1.09542 
41 	50    	0.503042	0.19382  	0.238607	1.43442 
42 	50    	0.475107	0.166078 	0.134466	1.07833 
43 	50    	0.490369	0.189714 	0.202838	1.12977 
44 	50    	0.494416	0.276981 	0.231932	1.90764 
45 	50    	0.532765	0.466378 	0.204419	2.90668 
46 	50    	0.455091	0.240872 	0.243983	1.61134 
47 	50    	0.463698	0.344315 	0.236165	2.20393 
48 	50    	0.415706	0.212827 	0.246262	1.37463 
49 	50    	0.459931	0.377596 	0.243983	1.62859 
50 	50    	0.43351 	0.325313 	0.244145	1.90764 
--- Genetic program runs finished, output written to outputs/EMD/anti_mistreatment_FactorScores.csv ---
EMD.Evolve up took :30.015281263987223 minutes
Factor Importance Calc took :1800.92316532135 seconds
     intasconstantprobabilityovertotalinfected  ...  constasnx
0                                     0.009461  ...   0.209245
1                                     0.005244  ...   0.236877
2                                     0.009372  ...   0.209221
3                                     0.009359  ...   0.236863
4                                     0.009310  ...   0.209236
..                                         ...  ...        ...
515                                   0.005539  ...   0.209208
516                                   0.009446  ...   0.236887
517                                   0.009875  ...   0.209208
518                                   0.011658  ...   0.209223
519                                   0.007935  ...   0.209259

[520 rows x 12 columns]
   intasconstantprobabilityoverfreshlyinfected  ...  constasnx
0                                     0.005855  ...   1.787160
1                                     0.004834  ...   1.678464
2                                     0.002819  ...   1.888881
3                                     0.004532  ...   1.734463
4                                     0.003761  ...   1.896034
5                                     0.004074  ...   1.723887
6                                     0.003952  ...   1.656067
7                                     0.004066  ...   1.711669
8                                     0.004180  ...   1.848667
9                                     0.004950  ...   1.876749

[10 rows x 12 columns]
