/home/deamonpog/miniconda3/envs/doi/lib/python3.8/site-packages/sklearn/base.py:450: UserWarning: X does not have valid feature names, but RandomForestRegressor was fitted with feature names
  warnings.warn(
/home/deamonpog/miniconda3/envs/doi/lib/python3.8/site-packages/sklearn/base.py:450: UserWarning: X does not have valid feature names, but RandomForestRegressor was fitted with feature names
  warnings.warn(
/home/deamonpog/miniconda3/envs/doi/lib/python3.8/site-packages/sklearn/base.py:450: UserWarning: X does not have valid feature names, but RandomForestRegressor was fitted with feature names
  warnings.warn(
/home/deamonpog/miniconda3/envs/doi/lib/python3.8/site-packages/sklearn/base.py:450: UserWarning: X does not have valid feature names, but RandomForestRegressor was fitted with feature names
  warnings.warn(
/home/deamonpog/miniconda3/envs/doi/lib/python3.8/site-packages/sklearn/base.py:450: UserWarning: X does not have valid feature names, but RandomForestRegressor was fitted with feature names
  warnings.warn(
/home/deamonpog/miniconda3/envs/doi/lib/python3.8/site-packages/sklearn/base.py:450: UserWarning: X does not have valid feature names, but RandomForestRegressor was fitted with feature names
  warnings.warn(
/home/deamonpog/miniconda3/envs/doi/lib/python3.8/site-packages/sklearn/base.py:450: UserWarning: X does not have valid feature names, but RandomForestRegressor was fitted with feature names
  warnings.warn(
/home/deamonpog/miniconda3/envs/doi/lib/python3.8/site-packages/sklearn/base.py:450: UserWarning: X does not have valid feature names, but RandomForestRegressor was fitted with feature names
  warnings.warn(
/home/deamonpog/miniconda3/envs/doi/lib/python3.8/site-packages/sklearn/base.py:450: UserWarning: X does not have valid feature names, but RandomForestRegressor was fitted with feature names
  warnings.warn(
/home/deamonpog/miniconda3/envs/doi/lib/python3.8/site-packages/sklearn/base.py:450: UserWarning: X does not have valid feature names, but RandomForestRegressor was fitted with feature names
  warnings.warn(
/home/deamonpog/miniconda3/envs/doi/lib/python3.8/site-packages/sklearn/base.py:450: UserWarning: X does not have valid feature names, but RandomForestRegressor was fitted with feature names
  warnings.warn(
/home/deamonpog/miniconda3/envs/doi/lib/python3.8/site-packages/sklearn/base.py:450: UserWarning: X does not have valid feature names, but RandomForestRegressor was fitted with feature names
  warnings.warn(
/home/deamonpog/miniconda3/envs/doi/lib/python3.8/site-packages/sklearn/base.py:450: UserWarning: X does not have valid feature names, but RandomForestRegressor was fitted with feature names
  warnings.warn(
/home/deamonpog/miniconda3/envs/doi/lib/python3.8/site-packages/sklearn/base.py:450: UserWarning: X does not have valid feature names, but RandomForestRegressor was fitted with feature names
  warnings.warn(
/home/deamonpog/miniconda3/envs/doi/lib/python3.8/site-packages/sklearn/base.py:450: UserWarning: X does not have valid feature names, but RandomForestRegressor was fitted with feature names
  warnings.warn(
/home/deamonpog/miniconda3/envs/doi/lib/python3.8/site-packages/sklearn/base.py:450: UserWarning: X does not have valid feature names, but RandomForestRegressor was fitted with feature names
  warnings.warn(
/home/deamonpog/miniconda3/envs/doi/lib/python3.8/site-packages/sklearn/base.py:450: UserWarning: X does not have valid feature names, but RandomForestRegressor was fitted with feature names
  warnings.warn(
/home/deamonpog/miniconda3/envs/doi/lib/python3.8/site-packages/sklearn/base.py:450: UserWarning: X does not have valid feature names, but RandomForestRegressor was fitted with feature names
  warnings.warn(
/home/deamonpog/miniconda3/envs/doi/lib/python3.8/site-packages/sklearn/base.py:450: UserWarning: X does not have valid feature names, but RandomForestRegressor was fitted with feature names
  warnings.warn(
/home/deamonpog/miniconda3/envs/doi/lib/python3.8/site-packages/sklearn/base.py:450: UserWarning: X does not have valid feature names, but RandomForestRegressor was fitted with feature names
  warnings.warn(
/home/deamonpog/miniconda3/envs/doi/lib/python3.8/site-packages/sklearn/base.py:450: UserWarning: X does not have valid feature names, but RandomForestRegressor was fitted with feature names
  warnings.warn(
/home/deamonpog/miniconda3/envs/doi/lib/python3.8/site-packages/sklearn/base.py:450: UserWarning: X does not have valid feature names, but RandomForestRegressor was fitted with feature names
  warnings.warn(
/home/deamonpog/miniconda3/envs/doi/lib/python3.8/site-packages/sklearn/base.py:450: UserWarning: X does not have valid feature names, but RandomForestRegressor was fitted with feature names
  warnings.warn(
/home/deamonpog/miniconda3/envs/doi/lib/python3.8/site-packages/sklearn/base.py:450: UserWarning: X does not have valid feature names, but RandomForestRegressor was fitted with feature names
  warnings.warn(
/home/deamonpog/miniconda3/envs/doi/lib/python3.8/site-packages/sklearn/base.py:450: UserWarning: X does not have valid feature names, but RandomForestRegressor was fitted with feature names
  warnings.warn(
/home/deamonpog/miniconda3/envs/doi/lib/python3.8/site-packages/sklearn/base.py:450: UserWarning: X does not have valid feature names, but RandomForestRegressor was fitted with feature names
  warnings.warn(
/home/deamonpog/miniconda3/envs/doi/lib/python3.8/site-packages/sklearn/base.py:450: UserWarning: X does not have valid feature names, but RandomForestRegressor was fitted with feature names
  warnings.warn(
/home/deamonpog/miniconda3/envs/doi/lib/python3.8/site-packages/sklearn/base.py:450: UserWarning: X does not have valid feature names, but RandomForestRegressor was fitted with feature names
  warnings.warn(
/home/deamonpog/miniconda3/envs/doi/lib/python3.8/site-packages/sklearn/base.py:450: UserWarning: X does not have valid feature names, but RandomForestRegressor was fitted with feature names
  warnings.warn(
/home/deamonpog/miniconda3/envs/doi/lib/python3.8/site-packages/sklearn/base.py:450: UserWarning: X does not have valid feature names, but RandomForestRegressor was fitted with feature names
  warnings.warn(
/home/deamonpog/miniconda3/envs/doi/lib/python3.8/site-packages/sklearn/base.py:450: UserWarning: X does not have valid feature names, but RandomForestRegressor was fitted with feature names
  warnings.warn(
/home/deamonpog/miniconda3/envs/doi/lib/python3.8/site-packages/sklearn/base.py:450: UserWarning: X does not have valid feature names, but RandomForestRegressor was fitted with feature names
  warnings.warn(
/home/deamonpog/miniconda3/envs/doi/lib/python3.8/site-packages/sklearn/base.py:450: UserWarning: X does not have valid feature names, but RandomForestRegressor was fitted with feature names
  warnings.warn(
/home/deamonpog/miniconda3/envs/doi/lib/python3.8/site-packages/sklearn/base.py:450: UserWarning: X does not have valid feature names, but RandomForestRegressor was fitted with feature names
  warnings.warn(
/home/deamonpog/miniconda3/envs/doi/lib/python3.8/site-packages/sklearn/base.py:450: UserWarning: X does not have valid feature names, but RandomForestRegressor was fitted with feature names
  warnings.warn(
/home/deamonpog/miniconda3/envs/doi/lib/python3.8/site-packages/sklearn/base.py:450: UserWarning: X does not have valid feature names, but RandomForestRegressor was fitted with feature names
  warnings.warn(
/home/deamonpog/miniconda3/envs/doi/lib/python3.8/site-packages/sklearn/base.py:450: UserWarning: X does not have valid feature names, but RandomForestRegressor was fitted with feature names
  warnings.warn(
/home/deamonpog/miniconda3/envs/doi/lib/python3.8/site-packages/sklearn/base.py:450: UserWarning: X does not have valid feature names, but RandomForestRegressor was fitted with feature names
  warnings.warn(
/home/deamonpog/miniconda3/envs/doi/lib/python3.8/site-packages/sklearn/base.py:450: UserWarning: X does not have valid feature names, but RandomForestRegressor was fitted with feature names
  warnings.warn(
/home/deamonpog/miniconda3/envs/doi/lib/python3.8/site-packages/sklearn/base.py:450: UserWarning: X does not have valid feature names, but RandomForestRegressor was fitted with feature names
  warnings.warn(
/home/deamonpog/miniconda3/envs/doi/lib/python3.8/site-packages/sklearn/base.py:450: UserWarning: X does not have valid feature names, but RandomForestRegressor was fitted with feature names
  warnings.warn(
/home/deamonpog/miniconda3/envs/doi/lib/python3.8/site-packages/sklearn/base.py:450: UserWarning: X does not have valid feature names, but RandomForestRegressor was fitted with feature names
  warnings.warn(
/home/deamonpog/miniconda3/envs/doi/lib/python3.8/site-packages/sklearn/base.py:450: UserWarning: X does not have valid feature names, but RandomForestRegressor was fitted with feature names
  warnings.warn(
/home/deamonpog/miniconda3/envs/doi/lib/python3.8/site-packages/sklearn/base.py:450: UserWarning: X does not have valid feature names, but RandomForestRegressor was fitted with feature names
  warnings.warn(
/home/deamonpog/miniconda3/envs/doi/lib/python3.8/site-packages/sklearn/base.py:450: UserWarning: X does not have valid feature names, but RandomForestRegressor was fitted with feature names
  warnings.warn(
/home/deamonpog/miniconda3/envs/doi/lib/python3.8/site-packages/sklearn/base.py:450: UserWarning: X does not have valid feature names, but RandomForestRegressor was fitted with feature names
  warnings.warn(
/home/deamonpog/miniconda3/envs/doi/lib/python3.8/site-packages/sklearn/base.py:450: UserWarning: X does not have valid feature names, but RandomForestRegressor was fitted with feature names
  warnings.warn(
/home/deamonpog/miniconda3/envs/doi/lib/python3.8/site-packages/sklearn/base.py:450: UserWarning: X does not have valid feature names, but RandomForestRegressor was fitted with feature names
  warnings.warn(
/home/deamonpog/miniconda3/envs/doi/lib/python3.8/site-packages/sklearn/base.py:450: UserWarning: X does not have valid feature names, but RandomForestRegressor was fitted with feature names
  warnings.warn(
/home/deamonpog/miniconda3/envs/doi/lib/python3.8/site-packages/sklearn/base.py:450: UserWarning: X does not have valid feature names, but RandomForestRegressor was fitted with feature names
  warnings.warn(
/home/deamonpog/miniconda3/envs/doi/lib/python3.8/site-packages/sklearn/base.py:450: UserWarning: X does not have valid feature names, but RandomForestRegressor was fitted with feature names
  warnings.warn(
/home/deamonpog/miniconda3/envs/doi/lib/python3.8/site-packages/sklearn/base.py:450: UserWarning: X does not have valid feature names, but RandomForestRegressor was fitted with feature names
  warnings.warn(
/home/deamonpog/miniconda3/envs/doi/lib/python3.8/site-packages/sklearn/base.py:450: UserWarning: X does not have valid feature names, but RandomForestRegressor was fitted with feature names
  warnings.warn(
/home/deamonpog/miniconda3/envs/doi/lib/python3.8/site-packages/sklearn/base.py:450: UserWarning: X does not have valid feature names, but RandomForestRegressor was fitted with feature names
  warnings.warn(
/home/deamonpog/miniconda3/envs/doi/lib/python3.8/site-packages/sklearn/base.py:450: UserWarning: X does not have valid feature names, but RandomForestRegressor was fitted with feature names
  warnings.warn(
/home/deamonpog/miniconda3/envs/doi/lib/python3.8/site-packages/sklearn/base.py:450: UserWarning: X does not have valid feature names, but RandomForestRegressor was fitted with feature names
  warnings.warn(
/home/deamonpog/miniconda3/envs/doi/lib/python3.8/site-packages/sklearn/base.py:450: UserWarning: X does not have valid feature names, but RandomForestRegressor was fitted with feature names
  warnings.warn(
/home/deamonpog/miniconda3/envs/doi/lib/python3.8/site-packages/sklearn/base.py:450: UserWarning: X does not have valid feature names, but RandomForestRegressor was fitted with feature names
  warnings.warn(
/home/deamonpog/miniconda3/envs/doi/lib/python3.8/site-packages/sklearn/base.py:450: UserWarning: X does not have valid feature names, but RandomForestRegressor was fitted with feature names
  warnings.warn(
/home/deamonpog/miniconda3/envs/doi/lib/python3.8/site-packages/sklearn/base.py:450: UserWarning: X does not have valid feature names, but RandomForestRegressor was fitted with feature names
  warnings.warn(
/home/deamonpog/miniconda3/envs/doi/lib/python3.8/site-packages/sklearn/base.py:450: UserWarning: X does not have valid feature names, but RandomForestRegressor was fitted with feature names
  warnings.warn(
/home/deamonpog/miniconda3/envs/doi/lib/python3.8/site-packages/sklearn/base.py:450: UserWarning: X does not have valid feature names, but RandomForestRegressor was fitted with feature names
  warnings.warn(
/home/deamonpog/miniconda3/envs/doi/lib/python3.8/site-packages/sklearn/base.py:450: UserWarning: X does not have valid feature names, but RandomForestRegressor was fitted with feature names
  warnings.warn(
/home/deamonpog/miniconda3/envs/doi/lib/python3.8/site-packages/sklearn/base.py:450: UserWarning: X does not have valid feature names, but RandomForestRegressor was fitted with feature names
  warnings.warn(
/home/deamonpog/miniconda3/envs/doi/lib/python3.8/site-packages/sklearn/base.py:450: UserWarning: X does not have valid feature names, but RandomForestRegressor was fitted with feature names
  warnings.warn(
/home/deamonpog/miniconda3/envs/doi/lib/python3.8/site-packages/sklearn/base.py:450: UserWarning: X does not have valid feature names, but RandomForestRegressor was fitted with feature names
  warnings.warn(
/home/deamonpog/miniconda3/envs/doi/lib/python3.8/site-packages/sklearn/base.py:450: UserWarning: X does not have valid feature names, but RandomForestRegressor was fitted with feature names
  warnings.warn(
/home/deamonpog/miniconda3/envs/doi/lib/python3.8/site-packages/sklearn/base.py:450: UserWarning: X does not have valid feature names, but RandomForestRegressor was fitted with feature names
  warnings.warn(
/home/deamonpog/miniconda3/envs/doi/lib/python3.8/site-packages/sklearn/base.py:450: UserWarning: X does not have valid feature names, but RandomForestRegressor was fitted with feature names
  warnings.warn(
/home/deamonpog/miniconda3/envs/doi/lib/python3.8/site-packages/sklearn/base.py:450: UserWarning: X does not have valid feature names, but RandomForestRegressor was fitted with feature names
  warnings.warn(
/home/deamonpog/miniconda3/envs/doi/lib/python3.8/site-packages/sklearn/base.py:450: UserWarning: X does not have valid feature names, but RandomForestRegressor was fitted with feature names
  warnings.warn(
/home/deamonpog/miniconda3/envs/doi/lib/python3.8/site-packages/sklearn/base.py:450: UserWarning: X does not have valid feature names, but RandomForestRegressor was fitted with feature names
  warnings.warn(
/home/deamonpog/miniconda3/envs/doi/lib/python3.8/site-packages/sklearn/base.py:450: UserWarning: X does not have valid feature names, but RandomForestRegressor was fitted with feature names
  warnings.warn(
/home/deamonpog/miniconda3/envs/doi/lib/python3.8/site-packages/sklearn/base.py:450: UserWarning: X does not have valid feature names, but RandomForestRegressor was fitted with feature names
  warnings.warn(
/home/deamonpog/miniconda3/envs/doi/lib/python3.8/site-packages/sklearn/base.py:450: UserWarning: X does not have valid feature names, but RandomForestRegressor was fitted with feature names
  warnings.warn(
/home/deamonpog/miniconda3/envs/doi/lib/python3.8/site-packages/sklearn/base.py:450: UserWarning: X does not have valid feature names, but RandomForestRegressor was fitted with feature names
  warnings.warn(
/home/deamonpog/miniconda3/envs/doi/lib/python3.8/site-packages/sklearn/base.py:450: UserWarning: X does not have valid feature names, but RandomForestRegressor was fitted with feature names
  warnings.warn(
/home/deamonpog/miniconda3/envs/doi/lib/python3.8/site-packages/sklearn/base.py:450: UserWarning: X does not have valid feature names, but RandomForestRegressor was fitted with feature names
  warnings.warn(
/home/deamonpog/miniconda3/envs/doi/lib/python3.8/site-packages/sklearn/base.py:450: UserWarning: X does not have valid feature names, but RandomForestRegressor was fitted with feature names
  warnings.warn(
/home/deamonpog/miniconda3/envs/doi/lib/python3.8/site-packages/sklearn/base.py:450: UserWarning: X does not have valid feature names, but RandomForestRegressor was fitted with feature names
  warnings.warn(
/home/deamonpog/miniconda3/envs/doi/lib/python3.8/site-packages/sklearn/base.py:450: UserWarning: X does not have valid feature names, but RandomForestRegressor was fitted with feature names
  warnings.warn(
/home/deamonpog/miniconda3/envs/doi/lib/python3.8/site-packages/sklearn/base.py:450: UserWarning: X does not have valid feature names, but RandomForestRegressor was fitted with feature names
  warnings.warn(
/home/deamonpog/miniconda3/envs/doi/lib/python3.8/site-packages/sklearn/base.py:450: UserWarning: X does not have valid feature names, but RandomForestRegressor was fitted with feature names
  warnings.warn(
/home/deamonpog/miniconda3/envs/doi/lib/python3.8/site-packages/sklearn/base.py:450: UserWarning: X does not have valid feature names, but RandomForestRegressor was fitted with feature names
  warnings.warn(
/home/deamonpog/miniconda3/envs/doi/lib/python3.8/site-packages/sklearn/base.py:450: UserWarning: X does not have valid feature names, but RandomForestRegressor was fitted with feature names
  warnings.warn(
/home/deamonpog/miniconda3/envs/doi/lib/python3.8/site-packages/sklearn/base.py:450: UserWarning: X does not have valid feature names, but RandomForestRegressor was fitted with feature names
  warnings.warn(
/home/deamonpog/miniconda3/envs/doi/lib/python3.8/site-packages/sklearn/base.py:450: UserWarning: X does not have valid feature names, but RandomForestRegressor was fitted with feature names
  warnings.warn(
/home/deamonpog/miniconda3/envs/doi/lib/python3.8/site-packages/sklearn/base.py:450: UserWarning: X does not have valid feature names, but RandomForestRegressor was fitted with feature names
  warnings.warn(
/home/deamonpog/miniconda3/envs/doi/lib/python3.8/site-packages/sklearn/base.py:450: UserWarning: X does not have valid feature names, but RandomForestRegressor was fitted with feature names
  warnings.warn(
/home/deamonpog/miniconda3/envs/doi/lib/python3.8/site-packages/sklearn/base.py:450: UserWarning: X does not have valid feature names, but RandomForestRegressor was fitted with feature names
  warnings.warn(
/home/deamonpog/miniconda3/envs/doi/lib/python3.8/site-packages/sklearn/base.py:450: UserWarning: X does not have valid feature names, but RandomForestRegressor was fitted with feature names
  warnings.warn(
/home/deamonpog/miniconda3/envs/doi/lib/python3.8/site-packages/sklearn/base.py:450: UserWarning: X does not have valid feature names, but RandomForestRegressor was fitted with feature names
  warnings.warn(
/home/deamonpog/miniconda3/envs/doi/lib/python3.8/site-packages/sklearn/base.py:450: UserWarning: X does not have valid feature names, but RandomForestRegressor was fitted with feature names
  warnings.warn(
/home/deamonpog/miniconda3/envs/doi/lib/python3.8/site-packages/sklearn/base.py:450: UserWarning: X does not have valid feature names, but RandomForestRegressor was fitted with feature names
  warnings.warn(
/home/deamonpog/miniconda3/envs/doi/lib/python3.8/site-packages/sklearn/base.py:450: UserWarning: X does not have valid feature names, but RandomForestRegressor was fitted with feature names
  warnings.warn(
/home/deamonpog/miniconda3/envs/doi/lib/python3.8/site-packages/sklearn/base.py:450: UserWarning: X does not have valid feature names, but RandomForestRegressor was fitted with feature names
  warnings.warn(
/home/deamonpog/miniconda3/envs/doi/lib/python3.8/site-packages/sklearn/base.py:450: UserWarning: X does not have valid feature names, but RandomForestRegressor was fitted with feature names
  warnings.warn(
/home/deamonpog/miniconda3/envs/doi/lib/python3.8/site-packages/sklearn/base.py:450: UserWarning: X does not have valid feature names, but RandomForestRegressor was fitted with feature names
  warnings.warn(
/home/deamonpog/miniconda3/envs/doi/lib/python3.8/site-packages/sklearn/base.py:450: UserWarning: X does not have valid feature names, but RandomForestRegressor was fitted with feature names
  warnings.warn(
/home/deamonpog/miniconda3/envs/doi/lib/python3.8/site-packages/sklearn/base.py:450: UserWarning: X does not have valid feature names, but RandomForestRegressor was fitted with feature names
  warnings.warn(
/home/deamonpog/miniconda3/envs/doi/lib/python3.8/site-packages/sklearn/base.py:450: UserWarning: X does not have valid feature names, but RandomForestRegressor was fitted with feature names
  warnings.warn(
/home/deamonpog/miniconda3/envs/doi/lib/python3.8/site-packages/sklearn/base.py:450: UserWarning: X does not have valid feature names, but RandomForestRegressor was fitted with feature names
  warnings.warn(
/home/deamonpog/miniconda3/envs/doi/lib/python3.8/site-packages/sklearn/base.py:450: UserWarning: X does not have valid feature names, but RandomForestRegressor was fitted with feature names
  warnings.warn(
/home/deamonpog/miniconda3/envs/doi/lib/python3.8/site-packages/sklearn/base.py:450: UserWarning: X does not have valid feature names, but RandomForestRegressor was fitted with feature names
  warnings.warn(
/home/deamonpog/miniconda3/envs/doi/lib/python3.8/site-packages/sklearn/base.py:450: UserWarning: X does not have valid feature names, but RandomForestRegressor was fitted with feature names
  warnings.warn(
/home/deamonpog/miniconda3/envs/doi/lib/python3.8/site-packages/sklearn/base.py:450: UserWarning: X does not have valid feature names, but RandomForestRegressor was fitted with feature names
  warnings.warn(
/home/deamonpog/miniconda3/envs/doi/lib/python3.8/site-packages/sklearn/base.py:450: UserWarning: X does not have valid feature names, but RandomForestRegressor was fitted with feature names
  warnings.warn(
/home/deamonpog/miniconda3/envs/doi/lib/python3.8/site-packages/sklearn/base.py:450: UserWarning: X does not have valid feature names, but RandomForestRegressor was fitted with feature names
  warnings.warn(
/home/deamonpog/miniconda3/envs/doi/lib/python3.8/site-packages/sklearn/base.py:450: UserWarning: X does not have valid feature names, but RandomForestRegressor was fitted with feature names
  warnings.warn(
/home/deamonpog/miniconda3/envs/doi/lib/python3.8/site-packages/sklearn/base.py:450: UserWarning: X does not have valid feature names, but RandomForestRegressor was fitted with feature names
  warnings.warn(
/home/deamonpog/miniconda3/envs/doi/lib/python3.8/site-packages/sklearn/base.py:450: UserWarning: X does not have valid feature names, but RandomForestRegressor was fitted with feature names
  warnings.warn(
/home/deamonpog/miniconda3/envs/doi/lib/python3.8/site-packages/sklearn/base.py:450: UserWarning: X does not have valid feature names, but RandomForestRegressor was fitted with feature names
  warnings.warn(
/home/deamonpog/miniconda3/envs/doi/lib/python3.8/site-packages/sklearn/base.py:450: UserWarning: X does not have valid feature names, but RandomForestRegressor was fitted with feature names
  warnings.warn(
/home/deamonpog/miniconda3/envs/doi/lib/python3.8/site-packages/sklearn/base.py:450: UserWarning: X does not have valid feature names, but RandomForestRegressor was fitted with feature names
  warnings.warn(
/home/deamonpog/miniconda3/envs/doi/lib/python3.8/site-packages/sklearn/base.py:450: UserWarning: X does not have valid feature names, but RandomForestRegressor was fitted with feature names
  warnings.warn(
/home/deamonpog/miniconda3/envs/doi/lib/python3.8/site-packages/sklearn/base.py:450: UserWarning: X does not have valid feature names, but RandomForestRegressor was fitted with feature names
  warnings.warn(
/home/deamonpog/miniconda3/envs/doi/lib/python3.8/site-packages/sklearn/base.py:450: UserWarning: X does not have valid feature names, but RandomForestRegressor was fitted with feature names
  warnings.warn(
/home/deamonpog/miniconda3/envs/doi/lib/python3.8/site-packages/sklearn/base.py:450: UserWarning: X does not have valid feature names, but RandomForestRegressor was fitted with feature names
  warnings.warn(
/home/deamonpog/miniconda3/envs/doi/lib/python3.8/site-packages/sklearn/base.py:450: UserWarning: X does not have valid feature names, but RandomForestRegressor was fitted with feature names
  warnings.warn(
/home/deamonpog/miniconda3/envs/doi/lib/python3.8/site-packages/sklearn/base.py:450: UserWarning: X does not have valid feature names, but RandomForestRegressor was fitted with feature names
  warnings.warn(
/home/deamonpog/miniconda3/envs/doi/lib/python3.8/site-packages/sklearn/base.py:450: UserWarning: X does not have valid feature names, but RandomForestRegressor was fitted with feature names
  warnings.warn(
Processing : ./outputs/10x10CSV/covid_infrastructure_101_of_163__binned_10x10.csv
Unknown args : []
Beta : 0.59
Initial Infects : 0.05
GT:
    timebinMid  valbinMid
0        0.05       0.05
1        0.15       0.15
2        0.25       0.25
3        0.35       0.45
4        0.45       0.65
5        0.55       0.75
6        0.65       0.85
7        0.75       0.85
8        0.85       0.95
9        0.95       0.95
setting meta values
Seting up took :0.0025519728660583496 minutes
Starting evolve
--- Starting GP Run 0 ---
gen	nevals	avg     	std     	min     	max    
0  	50    	0.778935	0.479602	0.295303	2.54162
1  	50    	0.600018	0.242725	0.218722	1.67521
2  	50    	0.607325	0.136379	0.335042	0.998969
3  	50    	0.575844	0.1316  	0.321893	0.998969
4  	50    	0.515348	0.118466	0.285199	0.813599
5  	50    	0.56834 	0.146778	0.248735	0.998969
6  	50    	0.566567	0.151376	0.29318 	0.821191
7  	50    	0.545302	0.127113	0.33816 	0.813599
8  	50    	0.545013	0.155773	0.207026	0.813599
9  	50    	0.524205	0.219562	0.248735	1.74428 
10 	50    	0.591763	0.162418	0.276622	0.998969
11 	50    	0.53978 	0.133708	0.276622	0.839506
12 	50    	0.568508	0.277869	0.325089	2.3194  
13 	50    	0.578578	0.208035	0.169187	1.47555 
14 	50    	0.609147	0.21484 	0.313086	1.70478 
15 	50    	0.579514	0.260087	0.239622	1.9836  
16 	50    	0.533237	0.118456	0.339367	0.813599
17 	50    	0.540696	0.156592	0.231641	0.813599
18 	50    	0.534275	0.151106	0.218722	0.813599
19 	50    	0.525393	0.122784	0.260508	0.813599
20 	50    	0.502972	0.104694	0.300397	0.813599
21 	50    	0.51936 	0.20076 	0.265829	1.74428 
22 	50    	0.519348	0.133377	0.261807	1.00619 
23 	50    	0.475757	0.105426	0.219945	0.692189
24 	50    	0.518544	0.137408	0.313086	0.998969
25 	50    	0.555939	0.183423	0.276622	1.43909 
26 	50    	0.50176 	0.107314	0.231641	0.813599
27 	50    	0.530589	0.139255	0.264466	0.813599
28 	50    	0.538162	0.115467	0.285199	0.813599
29 	50    	0.509056	0.128703	0.280108	0.813599
30 	50    	0.52544 	0.112331	0.346737	0.813599
31 	50    	0.579252	0.312275	0.169187	2.54162 
32 	50    	0.526132	0.0957239	0.265829	0.76915 
33 	50    	0.554642	0.130675 	0.296375	0.813599
34 	50    	0.51979 	0.122335 	0.313086	0.813599
35 	50    	0.528278	0.154201 	0.282767	0.813599
36 	50    	0.536477	0.145223 	0.268488	0.917525
37 	50    	0.546329	0.125403 	0.290597	0.813599
38 	50    	0.481782	0.116215 	0.261807	0.813599
39 	50    	0.532411	0.135266 	0.169187	0.813599
40 	50    	0.522658	0.12901  	0.30139 	0.813599
41 	50    	0.546237	0.106759 	0.264466	0.813599
42 	50    	0.492621	0.136434 	0.261807	0.813599
43 	50    	0.513818	0.109184 	0.273503	0.813599
44 	50    	0.51264 	0.135403 	0.231641	0.974278
45 	50    	0.519612	0.139721 	0.218722	1.20888 
46 	50    	0.527015	0.119872 	0.268105	0.813599
47 	50    	0.523522	0.129477 	0.226627	0.813599
48 	50    	0.541568	0.144899 	0.276622	0.813599
49 	50    	0.54365 	0.15313  	0.248735	1.05572 
50 	50    	0.530294	0.213646 	0.226167	1.71959 
--- Genetic program runs finished, output written to outputs/EMD/covid_infrastructure_FactorScores.csv ---
EMD.Evolve up took :30.29785285393397 minutes
Factor Importance Calc took :1817.8774819374084 seconds
     intasnumofinfectednbrsnormalized  ...  constasmaxnx
0                            0.007491  ...      0.241124
1                            0.014481  ...      0.241124
2                            0.014002  ...      0.241124
3                            0.014857  ...      0.241124
4                            0.007491  ...      0.241124
..                                ...  ...           ...
515                          0.015444  ...      0.241124
516                          0.014480  ...      0.241124
517                          0.014965  ...      0.241124
518                          0.015444  ...      0.241124
519                          0.007491  ...      0.241124

[520 rows x 12 columns]
   intasrelativeprobabilityoverfreshlyinfected  ...  constasmaxnx
0                                     0.018111  ...      1.348133
1                                     0.011089  ...      1.334788
2                                     0.012649  ...      1.307559
3                                     0.012559  ...      1.368887
4                                     0.013671  ...      1.324779
5                                     0.018702  ...      1.392174
6                                     0.014916  ...      1.307828
7                                     0.015789  ...      1.438636
8                                     0.017110  ...      1.349509
9                                     0.013006  ...      1.381330

[10 rows x 12 columns]
