/home/deamonpog/miniconda3/envs/doi/lib/python3.8/site-packages/sklearn/base.py:450: UserWarning: X does not have valid feature names, but RandomForestRegressor was fitted with feature names
  warnings.warn(
/home/deamonpog/miniconda3/envs/doi/lib/python3.8/site-packages/sklearn/base.py:450: UserWarning: X does not have valid feature names, but RandomForestRegressor was fitted with feature names
  warnings.warn(
/home/deamonpog/miniconda3/envs/doi/lib/python3.8/site-packages/sklearn/base.py:450: UserWarning: X does not have valid feature names, but RandomForestRegressor was fitted with feature names
  warnings.warn(
/home/deamonpog/miniconda3/envs/doi/lib/python3.8/site-packages/sklearn/base.py:450: UserWarning: X does not have valid feature names, but RandomForestRegressor was fitted with feature names
  warnings.warn(
/home/deamonpog/miniconda3/envs/doi/lib/python3.8/site-packages/sklearn/base.py:450: UserWarning: X does not have valid feature names, but RandomForestRegressor was fitted with feature names
  warnings.warn(
/home/deamonpog/miniconda3/envs/doi/lib/python3.8/site-packages/sklearn/base.py:450: UserWarning: X does not have valid feature names, but RandomForestRegressor was fitted with feature names
  warnings.warn(
/home/deamonpog/miniconda3/envs/doi/lib/python3.8/site-packages/sklearn/base.py:450: UserWarning: X does not have valid feature names, but RandomForestRegressor was fitted with feature names
  warnings.warn(
/home/deamonpog/miniconda3/envs/doi/lib/python3.8/site-packages/sklearn/base.py:450: UserWarning: X does not have valid feature names, but RandomForestRegressor was fitted with feature names
  warnings.warn(
/home/deamonpog/miniconda3/envs/doi/lib/python3.8/site-packages/sklearn/base.py:450: UserWarning: X does not have valid feature names, but RandomForestRegressor was fitted with feature names
  warnings.warn(
/home/deamonpog/miniconda3/envs/doi/lib/python3.8/site-packages/sklearn/base.py:450: UserWarning: X does not have valid feature names, but RandomForestRegressor was fitted with feature names
  warnings.warn(
/home/deamonpog/miniconda3/envs/doi/lib/python3.8/site-packages/sklearn/base.py:450: UserWarning: X does not have valid feature names, but RandomForestRegressor was fitted with feature names
  warnings.warn(
/home/deamonpog/miniconda3/envs/doi/lib/python3.8/site-packages/sklearn/base.py:450: UserWarning: X does not have valid feature names, but RandomForestRegressor was fitted with feature names
  warnings.warn(
/home/deamonpog/miniconda3/envs/doi/lib/python3.8/site-packages/sklearn/base.py:450: UserWarning: X does not have valid feature names, but RandomForestRegressor was fitted with feature names
  warnings.warn(
/home/deamonpog/miniconda3/envs/doi/lib/python3.8/site-packages/sklearn/base.py:450: UserWarning: X does not have valid feature names, but RandomForestRegressor was fitted with feature names
  warnings.warn(
/home/deamonpog/miniconda3/envs/doi/lib/python3.8/site-packages/sklearn/base.py:450: UserWarning: X does not have valid feature names, but RandomForestRegressor was fitted with feature names
  warnings.warn(
/home/deamonpog/miniconda3/envs/doi/lib/python3.8/site-packages/sklearn/base.py:450: UserWarning: X does not have valid feature names, but RandomForestRegressor was fitted with feature names
  warnings.warn(
/home/deamonpog/miniconda3/envs/doi/lib/python3.8/site-packages/sklearn/base.py:450: UserWarning: X does not have valid feature names, but RandomForestRegressor was fitted with feature names
  warnings.warn(
/home/deamonpog/miniconda3/envs/doi/lib/python3.8/site-packages/sklearn/base.py:450: UserWarning: X does not have valid feature names, but RandomForestRegressor was fitted with feature names
  warnings.warn(
/home/deamonpog/miniconda3/envs/doi/lib/python3.8/site-packages/sklearn/base.py:450: UserWarning: X does not have valid feature names, but RandomForestRegressor was fitted with feature names
  warnings.warn(
/home/deamonpog/miniconda3/envs/doi/lib/python3.8/site-packages/sklearn/base.py:450: UserWarning: X does not have valid feature names, but RandomForestRegressor was fitted with feature names
  warnings.warn(
/home/deamonpog/miniconda3/envs/doi/lib/python3.8/site-packages/sklearn/base.py:450: UserWarning: X does not have valid feature names, but RandomForestRegressor was fitted with feature names
  warnings.warn(
/home/deamonpog/miniconda3/envs/doi/lib/python3.8/site-packages/sklearn/base.py:450: UserWarning: X does not have valid feature names, but RandomForestRegressor was fitted with feature names
  warnings.warn(
/home/deamonpog/miniconda3/envs/doi/lib/python3.8/site-packages/sklearn/base.py:450: UserWarning: X does not have valid feature names, but RandomForestRegressor was fitted with feature names
  warnings.warn(
/home/deamonpog/miniconda3/envs/doi/lib/python3.8/site-packages/sklearn/base.py:450: UserWarning: X does not have valid feature names, but RandomForestRegressor was fitted with feature names
  warnings.warn(
/home/deamonpog/miniconda3/envs/doi/lib/python3.8/site-packages/sklearn/base.py:450: UserWarning: X does not have valid feature names, but RandomForestRegressor was fitted with feature names
  warnings.warn(
/home/deamonpog/miniconda3/envs/doi/lib/python3.8/site-packages/sklearn/base.py:450: UserWarning: X does not have valid feature names, but RandomForestRegressor was fitted with feature names
  warnings.warn(
/home/deamonpog/miniconda3/envs/doi/lib/python3.8/site-packages/sklearn/base.py:450: UserWarning: X does not have valid feature names, but RandomForestRegressor was fitted with feature names
  warnings.warn(
/home/deamonpog/miniconda3/envs/doi/lib/python3.8/site-packages/sklearn/base.py:450: UserWarning: X does not have valid feature names, but RandomForestRegressor was fitted with feature names
  warnings.warn(
/home/deamonpog/miniconda3/envs/doi/lib/python3.8/site-packages/sklearn/base.py:450: UserWarning: X does not have valid feature names, but RandomForestRegressor was fitted with feature names
  warnings.warn(
/home/deamonpog/miniconda3/envs/doi/lib/python3.8/site-packages/sklearn/base.py:450: UserWarning: X does not have valid feature names, but RandomForestRegressor was fitted with feature names
  warnings.warn(
/home/deamonpog/miniconda3/envs/doi/lib/python3.8/site-packages/sklearn/base.py:450: UserWarning: X does not have valid feature names, but RandomForestRegressor was fitted with feature names
  warnings.warn(
/home/deamonpog/miniconda3/envs/doi/lib/python3.8/site-packages/sklearn/base.py:450: UserWarning: X does not have valid feature names, but RandomForestRegressor was fitted with feature names
  warnings.warn(
/home/deamonpog/miniconda3/envs/doi/lib/python3.8/site-packages/sklearn/base.py:450: UserWarning: X does not have valid feature names, but RandomForestRegressor was fitted with feature names
  warnings.warn(
/home/deamonpog/miniconda3/envs/doi/lib/python3.8/site-packages/sklearn/base.py:450: UserWarning: X does not have valid feature names, but RandomForestRegressor was fitted with feature names
  warnings.warn(
/home/deamonpog/miniconda3/envs/doi/lib/python3.8/site-packages/sklearn/base.py:450: UserWarning: X does not have valid feature names, but RandomForestRegressor was fitted with feature names
  warnings.warn(
/home/deamonpog/miniconda3/envs/doi/lib/python3.8/site-packages/sklearn/base.py:450: UserWarning: X does not have valid feature names, but RandomForestRegressor was fitted with feature names
  warnings.warn(
/home/deamonpog/miniconda3/envs/doi/lib/python3.8/site-packages/sklearn/base.py:450: UserWarning: X does not have valid feature names, but RandomForestRegressor was fitted with feature names
  warnings.warn(
/home/deamonpog/miniconda3/envs/doi/lib/python3.8/site-packages/sklearn/base.py:450: UserWarning: X does not have valid feature names, but RandomForestRegressor was fitted with feature names
  warnings.warn(
/home/deamonpog/miniconda3/envs/doi/lib/python3.8/site-packages/sklearn/base.py:450: UserWarning: X does not have valid feature names, but RandomForestRegressor was fitted with feature names
  warnings.warn(
/home/deamonpog/miniconda3/envs/doi/lib/python3.8/site-packages/sklearn/base.py:450: UserWarning: X does not have valid feature names, but RandomForestRegressor was fitted with feature names
  warnings.warn(
/home/deamonpog/miniconda3/envs/doi/lib/python3.8/site-packages/sklearn/base.py:450: UserWarning: X does not have valid feature names, but RandomForestRegressor was fitted with feature names
  warnings.warn(
/home/deamonpog/miniconda3/envs/doi/lib/python3.8/site-packages/sklearn/base.py:450: UserWarning: X does not have valid feature names, but RandomForestRegressor was fitted with feature names
  warnings.warn(
/home/deamonpog/miniconda3/envs/doi/lib/python3.8/site-packages/sklearn/base.py:450: UserWarning: X does not have valid feature names, but RandomForestRegressor was fitted with feature names
  warnings.warn(
/home/deamonpog/miniconda3/envs/doi/lib/python3.8/site-packages/sklearn/base.py:450: UserWarning: X does not have valid feature names, but RandomForestRegressor was fitted with feature names
  warnings.warn(
/home/deamonpog/miniconda3/envs/doi/lib/python3.8/site-packages/sklearn/base.py:450: UserWarning: X does not have valid feature names, but RandomForestRegressor was fitted with feature names
  warnings.warn(
/home/deamonpog/miniconda3/envs/doi/lib/python3.8/site-packages/sklearn/base.py:450: UserWarning: X does not have valid feature names, but RandomForestRegressor was fitted with feature names
  warnings.warn(
/home/deamonpog/miniconda3/envs/doi/lib/python3.8/site-packages/sklearn/base.py:450: UserWarning: X does not have valid feature names, but RandomForestRegressor was fitted with feature names
  warnings.warn(
/home/deamonpog/miniconda3/envs/doi/lib/python3.8/site-packages/sklearn/base.py:450: UserWarning: X does not have valid feature names, but RandomForestRegressor was fitted with feature names
  warnings.warn(
/home/deamonpog/miniconda3/envs/doi/lib/python3.8/site-packages/sklearn/base.py:450: UserWarning: X does not have valid feature names, but RandomForestRegressor was fitted with feature names
  warnings.warn(
/home/deamonpog/miniconda3/envs/doi/lib/python3.8/site-packages/sklearn/base.py:450: UserWarning: X does not have valid feature names, but RandomForestRegressor was fitted with feature names
  warnings.warn(
/home/deamonpog/miniconda3/envs/doi/lib/python3.8/site-packages/sklearn/base.py:450: UserWarning: X does not have valid feature names, but RandomForestRegressor was fitted with feature names
  warnings.warn(
/home/deamonpog/miniconda3/envs/doi/lib/python3.8/site-packages/sklearn/base.py:450: UserWarning: X does not have valid feature names, but RandomForestRegressor was fitted with feature names
  warnings.warn(
/home/deamonpog/miniconda3/envs/doi/lib/python3.8/site-packages/sklearn/base.py:450: UserWarning: X does not have valid feature names, but RandomForestRegressor was fitted with feature names
  warnings.warn(
/home/deamonpog/miniconda3/envs/doi/lib/python3.8/site-packages/sklearn/base.py:450: UserWarning: X does not have valid feature names, but RandomForestRegressor was fitted with feature names
  warnings.warn(
/home/deamonpog/miniconda3/envs/doi/lib/python3.8/site-packages/sklearn/base.py:450: UserWarning: X does not have valid feature names, but RandomForestRegressor was fitted with feature names
  warnings.warn(
/home/deamonpog/miniconda3/envs/doi/lib/python3.8/site-packages/sklearn/base.py:450: UserWarning: X does not have valid feature names, but RandomForestRegressor was fitted with feature names
  warnings.warn(
/home/deamonpog/miniconda3/envs/doi/lib/python3.8/site-packages/sklearn/base.py:450: UserWarning: X does not have valid feature names, but RandomForestRegressor was fitted with feature names
  warnings.warn(
/home/deamonpog/miniconda3/envs/doi/lib/python3.8/site-packages/sklearn/base.py:450: UserWarning: X does not have valid feature names, but RandomForestRegressor was fitted with feature names
  warnings.warn(
/home/deamonpog/miniconda3/envs/doi/lib/python3.8/site-packages/sklearn/base.py:450: UserWarning: X does not have valid feature names, but RandomForestRegressor was fitted with feature names
  warnings.warn(
/home/deamonpog/miniconda3/envs/doi/lib/python3.8/site-packages/sklearn/base.py:450: UserWarning: X does not have valid feature names, but RandomForestRegressor was fitted with feature names
  warnings.warn(
/home/deamonpog/miniconda3/envs/doi/lib/python3.8/site-packages/sklearn/base.py:450: UserWarning: X does not have valid feature names, but RandomForestRegressor was fitted with feature names
  warnings.warn(
/home/deamonpog/miniconda3/envs/doi/lib/python3.8/site-packages/sklearn/base.py:450: UserWarning: X does not have valid feature names, but RandomForestRegressor was fitted with feature names
  warnings.warn(
/home/deamonpog/miniconda3/envs/doi/lib/python3.8/site-packages/sklearn/base.py:450: UserWarning: X does not have valid feature names, but RandomForestRegressor was fitted with feature names
  warnings.warn(
/home/deamonpog/miniconda3/envs/doi/lib/python3.8/site-packages/sklearn/base.py:450: UserWarning: X does not have valid feature names, but RandomForestRegressor was fitted with feature names
  warnings.warn(
/home/deamonpog/miniconda3/envs/doi/lib/python3.8/site-packages/sklearn/base.py:450: UserWarning: X does not have valid feature names, but RandomForestRegressor was fitted with feature names
  warnings.warn(
/home/deamonpog/miniconda3/envs/doi/lib/python3.8/site-packages/sklearn/base.py:450: UserWarning: X does not have valid feature names, but RandomForestRegressor was fitted with feature names
  warnings.warn(
/home/deamonpog/miniconda3/envs/doi/lib/python3.8/site-packages/sklearn/base.py:450: UserWarning: X does not have valid feature names, but RandomForestRegressor was fitted with feature names
  warnings.warn(
/home/deamonpog/miniconda3/envs/doi/lib/python3.8/site-packages/sklearn/base.py:450: UserWarning: X does not have valid feature names, but RandomForestRegressor was fitted with feature names
  warnings.warn(
/home/deamonpog/miniconda3/envs/doi/lib/python3.8/site-packages/sklearn/base.py:450: UserWarning: X does not have valid feature names, but RandomForestRegressor was fitted with feature names
  warnings.warn(
/home/deamonpog/miniconda3/envs/doi/lib/python3.8/site-packages/sklearn/base.py:450: UserWarning: X does not have valid feature names, but RandomForestRegressor was fitted with feature names
  warnings.warn(
/home/deamonpog/miniconda3/envs/doi/lib/python3.8/site-packages/sklearn/base.py:450: UserWarning: X does not have valid feature names, but RandomForestRegressor was fitted with feature names
  warnings.warn(
/home/deamonpog/miniconda3/envs/doi/lib/python3.8/site-packages/sklearn/base.py:450: UserWarning: X does not have valid feature names, but RandomForestRegressor was fitted with feature names
  warnings.warn(
/home/deamonpog/miniconda3/envs/doi/lib/python3.8/site-packages/sklearn/base.py:450: UserWarning: X does not have valid feature names, but RandomForestRegressor was fitted with feature names
  warnings.warn(
/home/deamonpog/miniconda3/envs/doi/lib/python3.8/site-packages/sklearn/base.py:450: UserWarning: X does not have valid feature names, but RandomForestRegressor was fitted with feature names
  warnings.warn(
/home/deamonpog/miniconda3/envs/doi/lib/python3.8/site-packages/sklearn/base.py:450: UserWarning: X does not have valid feature names, but RandomForestRegressor was fitted with feature names
  warnings.warn(
/home/deamonpog/miniconda3/envs/doi/lib/python3.8/site-packages/sklearn/base.py:450: UserWarning: X does not have valid feature names, but RandomForestRegressor was fitted with feature names
  warnings.warn(
/home/deamonpog/miniconda3/envs/doi/lib/python3.8/site-packages/sklearn/base.py:450: UserWarning: X does not have valid feature names, but RandomForestRegressor was fitted with feature names
  warnings.warn(
/home/deamonpog/miniconda3/envs/doi/lib/python3.8/site-packages/sklearn/base.py:450: UserWarning: X does not have valid feature names, but RandomForestRegressor was fitted with feature names
  warnings.warn(
/home/deamonpog/miniconda3/envs/doi/lib/python3.8/site-packages/sklearn/base.py:450: UserWarning: X does not have valid feature names, but RandomForestRegressor was fitted with feature names
  warnings.warn(
/home/deamonpog/miniconda3/envs/doi/lib/python3.8/site-packages/sklearn/base.py:450: UserWarning: X does not have valid feature names, but RandomForestRegressor was fitted with feature names
  warnings.warn(
/home/deamonpog/miniconda3/envs/doi/lib/python3.8/site-packages/sklearn/base.py:450: UserWarning: X does not have valid feature names, but RandomForestRegressor was fitted with feature names
  warnings.warn(
/home/deamonpog/miniconda3/envs/doi/lib/python3.8/site-packages/sklearn/base.py:450: UserWarning: X does not have valid feature names, but RandomForestRegressor was fitted with feature names
  warnings.warn(
/home/deamonpog/miniconda3/envs/doi/lib/python3.8/site-packages/sklearn/base.py:450: UserWarning: X does not have valid feature names, but RandomForestRegressor was fitted with feature names
  warnings.warn(
/home/deamonpog/miniconda3/envs/doi/lib/python3.8/site-packages/sklearn/base.py:450: UserWarning: X does not have valid feature names, but RandomForestRegressor was fitted with feature names
  warnings.warn(
/home/deamonpog/miniconda3/envs/doi/lib/python3.8/site-packages/sklearn/base.py:450: UserWarning: X does not have valid feature names, but RandomForestRegressor was fitted with feature names
  warnings.warn(
/home/deamonpog/miniconda3/envs/doi/lib/python3.8/site-packages/sklearn/base.py:450: UserWarning: X does not have valid feature names, but RandomForestRegressor was fitted with feature names
  warnings.warn(
/home/deamonpog/miniconda3/envs/doi/lib/python3.8/site-packages/sklearn/base.py:450: UserWarning: X does not have valid feature names, but RandomForestRegressor was fitted with feature names
  warnings.warn(
/home/deamonpog/miniconda3/envs/doi/lib/python3.8/site-packages/sklearn/base.py:450: UserWarning: X does not have valid feature names, but RandomForestRegressor was fitted with feature names
  warnings.warn(
/home/deamonpog/miniconda3/envs/doi/lib/python3.8/site-packages/sklearn/base.py:450: UserWarning: X does not have valid feature names, but RandomForestRegressor was fitted with feature names
  warnings.warn(
/home/deamonpog/miniconda3/envs/doi/lib/python3.8/site-packages/sklearn/base.py:450: UserWarning: X does not have valid feature names, but RandomForestRegressor was fitted with feature names
  warnings.warn(
/home/deamonpog/miniconda3/envs/doi/lib/python3.8/site-packages/sklearn/base.py:450: UserWarning: X does not have valid feature names, but RandomForestRegressor was fitted with feature names
  warnings.warn(
/home/deamonpog/miniconda3/envs/doi/lib/python3.8/site-packages/sklearn/base.py:450: UserWarning: X does not have valid feature names, but RandomForestRegressor was fitted with feature names
  warnings.warn(
/home/deamonpog/miniconda3/envs/doi/lib/python3.8/site-packages/sklearn/base.py:450: UserWarning: X does not have valid feature names, but RandomForestRegressor was fitted with feature names
  warnings.warn(
/home/deamonpog/miniconda3/envs/doi/lib/python3.8/site-packages/sklearn/base.py:450: UserWarning: X does not have valid feature names, but RandomForestRegressor was fitted with feature names
  warnings.warn(
/home/deamonpog/miniconda3/envs/doi/lib/python3.8/site-packages/sklearn/base.py:450: UserWarning: X does not have valid feature names, but RandomForestRegressor was fitted with feature names
  warnings.warn(
/home/deamonpog/miniconda3/envs/doi/lib/python3.8/site-packages/sklearn/base.py:450: UserWarning: X does not have valid feature names, but RandomForestRegressor was fitted with feature names
  warnings.warn(
/home/deamonpog/miniconda3/envs/doi/lib/python3.8/site-packages/sklearn/base.py:450: UserWarning: X does not have valid feature names, but RandomForestRegressor was fitted with feature names
  warnings.warn(
/home/deamonpog/miniconda3/envs/doi/lib/python3.8/site-packages/sklearn/base.py:450: UserWarning: X does not have valid feature names, but RandomForestRegressor was fitted with feature names
  warnings.warn(
/home/deamonpog/miniconda3/envs/doi/lib/python3.8/site-packages/sklearn/base.py:450: UserWarning: X does not have valid feature names, but RandomForestRegressor was fitted with feature names
  warnings.warn(
/home/deamonpog/miniconda3/envs/doi/lib/python3.8/site-packages/sklearn/base.py:450: UserWarning: X does not have valid feature names, but RandomForestRegressor was fitted with feature names
  warnings.warn(
/home/deamonpog/miniconda3/envs/doi/lib/python3.8/site-packages/sklearn/base.py:450: UserWarning: X does not have valid feature names, but RandomForestRegressor was fitted with feature names
  warnings.warn(
/home/deamonpog/miniconda3/envs/doi/lib/python3.8/site-packages/sklearn/base.py:450: UserWarning: X does not have valid feature names, but RandomForestRegressor was fitted with feature names
  warnings.warn(
/home/deamonpog/miniconda3/envs/doi/lib/python3.8/site-packages/sklearn/base.py:450: UserWarning: X does not have valid feature names, but RandomForestRegressor was fitted with feature names
  warnings.warn(
/home/deamonpog/miniconda3/envs/doi/lib/python3.8/site-packages/sklearn/base.py:450: UserWarning: X does not have valid feature names, but RandomForestRegressor was fitted with feature names
  warnings.warn(
/home/deamonpog/miniconda3/envs/doi/lib/python3.8/site-packages/sklearn/base.py:450: UserWarning: X does not have valid feature names, but RandomForestRegressor was fitted with feature names
  warnings.warn(
/home/deamonpog/miniconda3/envs/doi/lib/python3.8/site-packages/sklearn/base.py:450: UserWarning: X does not have valid feature names, but RandomForestRegressor was fitted with feature names
  warnings.warn(
/home/deamonpog/miniconda3/envs/doi/lib/python3.8/site-packages/sklearn/base.py:450: UserWarning: X does not have valid feature names, but RandomForestRegressor was fitted with feature names
  warnings.warn(
/home/deamonpog/miniconda3/envs/doi/lib/python3.8/site-packages/sklearn/base.py:450: UserWarning: X does not have valid feature names, but RandomForestRegressor was fitted with feature names
  warnings.warn(
/home/deamonpog/miniconda3/envs/doi/lib/python3.8/site-packages/sklearn/base.py:450: UserWarning: X does not have valid feature names, but RandomForestRegressor was fitted with feature names
  warnings.warn(
/home/deamonpog/miniconda3/envs/doi/lib/python3.8/site-packages/sklearn/base.py:450: UserWarning: X does not have valid feature names, but RandomForestRegressor was fitted with feature names
  warnings.warn(
/home/deamonpog/miniconda3/envs/doi/lib/python3.8/site-packages/sklearn/base.py:450: UserWarning: X does not have valid feature names, but RandomForestRegressor was fitted with feature names
  warnings.warn(
/home/deamonpog/miniconda3/envs/doi/lib/python3.8/site-packages/sklearn/base.py:450: UserWarning: X does not have valid feature names, but RandomForestRegressor was fitted with feature names
  warnings.warn(
/home/deamonpog/miniconda3/envs/doi/lib/python3.8/site-packages/sklearn/base.py:450: UserWarning: X does not have valid feature names, but RandomForestRegressor was fitted with feature names
  warnings.warn(
/home/deamonpog/miniconda3/envs/doi/lib/python3.8/site-packages/sklearn/base.py:450: UserWarning: X does not have valid feature names, but RandomForestRegressor was fitted with feature names
  warnings.warn(
/home/deamonpog/miniconda3/envs/doi/lib/python3.8/site-packages/sklearn/base.py:450: UserWarning: X does not have valid feature names, but RandomForestRegressor was fitted with feature names
  warnings.warn(
/home/deamonpog/miniconda3/envs/doi/lib/python3.8/site-packages/sklearn/base.py:450: UserWarning: X does not have valid feature names, but RandomForestRegressor was fitted with feature names
  warnings.warn(
/home/deamonpog/miniconda3/envs/doi/lib/python3.8/site-packages/sklearn/base.py:450: UserWarning: X does not have valid feature names, but RandomForestRegressor was fitted with feature names
  warnings.warn(
/home/deamonpog/miniconda3/envs/doi/lib/python3.8/site-packages/sklearn/base.py:450: UserWarning: X does not have valid feature names, but RandomForestRegressor was fitted with feature names
  warnings.warn(
/home/deamonpog/miniconda3/envs/doi/lib/python3.8/site-packages/sklearn/base.py:450: UserWarning: X does not have valid feature names, but RandomForestRegressor was fitted with feature names
  warnings.warn(
/home/deamonpog/miniconda3/envs/doi/lib/python3.8/site-packages/sklearn/base.py:450: UserWarning: X does not have valid feature names, but RandomForestRegressor was fitted with feature names
  warnings.warn(
/home/deamonpog/miniconda3/envs/doi/lib/python3.8/site-packages/sklearn/base.py:450: UserWarning: X does not have valid feature names, but RandomForestRegressor was fitted with feature names
  warnings.warn(
Processing : ./outputs/10x10CSV/infrastructure_pro_142_of_163__binned_10x10.csv
Unknown args : []
Beta : 0.59
Initial Infects : 0.05
GT:
    timebinMid  valbinMid
0        0.05       0.05
1        0.15       0.15
2        0.25       0.15
3        0.35       0.35
4        0.45       0.45
5        0.55       0.55
6        0.65       0.65
7        0.75       0.75
8        0.85       0.85
9        0.95       0.95
setting meta values
Seting up took :0.0031330148379007977 minutes
Starting evolve
--- Starting GP Run 0 ---
gen	nevals	avg    	std     	min     	max    
0  	50    	0.84595	0.562591	0.121027	2.78502
1  	50    	0.590226	0.208407	0.145088	1.23802
2  	50    	0.531213	0.231102	0.12094 	1.17209
3  	50    	0.471713	0.168303	0.124886	1.00145
4  	50    	0.544235	0.238869	0.248343	1.4278 
5  	50    	0.528877	0.422657	0.233511	2.8591 
6  	50    	0.402068	0.148914	0.124886	0.785194
7  	50    	0.420525	0.230196	0.0760463	1.36534 
8  	50    	0.443316	0.225771	0.141229 	1.34969 
9  	50    	0.41167 	0.197268	0.164393 	1.52253 
10 	50    	0.455394	0.313743	0.184671 	2.50636 
11 	50    	0.466323	0.177957	0.197666 	1.1098  
12 	50    	0.412063	0.158748	0.174812 	0.785194
13 	50    	0.424061	0.169361	0.107792 	0.785194
14 	50    	0.437595	0.177176	0.16978  	1.07805 
15 	50    	0.404748	0.13447 	0.132647 	0.831059
16 	50    	0.380272	0.134568	0.164469 	0.832348
17 	50    	0.384246	0.14439 	0.177616 	0.785194
18 	50    	0.396462	0.120156	0.133392 	0.695983
19 	50    	0.418178	0.149413	0.174812 	0.887573
20 	50    	0.428385	0.151898	0.152925 	0.785194
21 	50    	0.407965	0.137294	0.0931403	0.785194
22 	50    	0.400295	0.123041	0.149578 	0.785194
23 	50    	0.406843	0.149652	0.0931403	0.785194
24 	50    	0.391012	0.116385	0.206558 	0.713229
25 	50    	0.391566	0.11369 	0.128157 	0.646513
26 	50    	0.404817	0.144317	0.196139 	0.819352
27 	50    	0.397639	0.147158	0.12094  	0.785194
28 	50    	0.419978	0.148476	0.197666 	0.785194
29 	50    	0.394129	0.137816	0.157414 	0.816244
30 	50    	0.402148	0.145183	0.191906 	1.0161  
31 	50    	0.365327	0.104405	0.196139 	0.705153
32 	50    	0.39568 	0.106379	0.181324 	0.679931
33 	50    	0.414383	0.13451 	0.21862  	0.819352
34 	50    	0.394645	0.144787	0.117832 	0.831136
35 	50    	0.378128	0.114048	0.193928 	0.752811
36 	50    	0.376027	0.102847	0.141741 	0.785194
37 	50    	0.4053  	0.124062	0.221815 	0.785194
38 	50    	0.383708	0.112537	0.134973 	0.785194
39 	50    	0.374858	0.0792358	0.174812 	0.498061
40 	50    	0.445236	0.336418 	0.184671 	2.5628  
41 	50    	0.385389	0.127586 	0.182233 	0.785194
42 	50    	0.387067	0.139169 	0.206558 	0.750007
43 	50    	0.35617 	0.0930284	0.181324 	0.550639
44 	50    	0.361795	0.118879 	0.15974  	0.785194
45 	50    	0.370022	0.107113 	0.19896  	0.682988
46 	50    	0.375954	0.123133 	0.181324 	0.761318
47 	50    	0.366538	0.118529 	0.132484 	0.785194
48 	50    	0.405075	0.150024 	0.174812 	1.02442 
49 	50    	0.392824	0.119176 	0.145088 	0.752811
50 	50    	0.427458	0.267478 	0.233511 	2.18986 
--- Genetic program runs finished, output written to outputs/EMD/infrastructure_pro_FactorScores.csv ---
EMD.Evolve up took :30.03380670150121 minutes
Factor Importance Calc took :1802.0344731807709 seconds
     intasconstantprobabilityovertotalinfected  ...  constasnx
0                                     0.008776  ...   0.166002
1                                     0.008367  ...   0.150961
2                                     0.008602  ...   0.175543
3                                     0.008580  ...   0.165499
4                                     0.008367  ...   0.160502
..                                         ...  ...        ...
515                                   0.008345  ...   0.156324
516                                   0.008580  ...   0.160502
517                                   0.008345  ...   0.156324
518                                   0.008776  ...   0.160502
519                                   0.008345  ...   0.166367

[520 rows x 12 columns]
   intasconstantprobabilityovertotalinfected  ...  constasnx
0                                   0.012404  ...   2.920375
1                                   0.010343  ...   3.021688
2                                   0.006978  ...   2.941447
3                                   0.006953  ...   3.028637
4                                   0.006986  ...   3.207544
5                                   0.006978  ...   2.731942
6                                   0.008941  ...   3.006349
7                                   0.007178  ...   2.764529
8                                   0.008546  ...   2.994786
9                                   0.006978  ...   3.189202

[10 rows x 12 columns]
