/home/deamonpog/miniconda3/envs/doi/lib/python3.8/site-packages/sklearn/base.py:450: UserWarning: X does not have valid feature names, but RandomForestRegressor was fitted with feature names
  warnings.warn(
/home/deamonpog/miniconda3/envs/doi/lib/python3.8/site-packages/sklearn/base.py:450: UserWarning: X does not have valid feature names, but RandomForestRegressor was fitted with feature names
  warnings.warn(
/home/deamonpog/miniconda3/envs/doi/lib/python3.8/site-packages/sklearn/base.py:450: UserWarning: X does not have valid feature names, but RandomForestRegressor was fitted with feature names
  warnings.warn(
/home/deamonpog/miniconda3/envs/doi/lib/python3.8/site-packages/sklearn/base.py:450: UserWarning: X does not have valid feature names, but RandomForestRegressor was fitted with feature names
  warnings.warn(
/home/deamonpog/miniconda3/envs/doi/lib/python3.8/site-packages/sklearn/base.py:450: UserWarning: X does not have valid feature names, but RandomForestRegressor was fitted with feature names
  warnings.warn(
/home/deamonpog/miniconda3/envs/doi/lib/python3.8/site-packages/sklearn/base.py:450: UserWarning: X does not have valid feature names, but RandomForestRegressor was fitted with feature names
  warnings.warn(
/home/deamonpog/miniconda3/envs/doi/lib/python3.8/site-packages/sklearn/base.py:450: UserWarning: X does not have valid feature names, but RandomForestRegressor was fitted with feature names
  warnings.warn(
/home/deamonpog/miniconda3/envs/doi/lib/python3.8/site-packages/sklearn/base.py:450: UserWarning: X does not have valid feature names, but RandomForestRegressor was fitted with feature names
  warnings.warn(
/home/deamonpog/miniconda3/envs/doi/lib/python3.8/site-packages/sklearn/base.py:450: UserWarning: X does not have valid feature names, but RandomForestRegressor was fitted with feature names
  warnings.warn(
/home/deamonpog/miniconda3/envs/doi/lib/python3.8/site-packages/sklearn/base.py:450: UserWarning: X does not have valid feature names, but RandomForestRegressor was fitted with feature names
  warnings.warn(
/home/deamonpog/miniconda3/envs/doi/lib/python3.8/site-packages/sklearn/base.py:450: UserWarning: X does not have valid feature names, but RandomForestRegressor was fitted with feature names
  warnings.warn(
/home/deamonpog/miniconda3/envs/doi/lib/python3.8/site-packages/sklearn/base.py:450: UserWarning: X does not have valid feature names, but RandomForestRegressor was fitted with feature names
  warnings.warn(
/home/deamonpog/miniconda3/envs/doi/lib/python3.8/site-packages/sklearn/base.py:450: UserWarning: X does not have valid feature names, but RandomForestRegressor was fitted with feature names
  warnings.warn(
/home/deamonpog/miniconda3/envs/doi/lib/python3.8/site-packages/sklearn/base.py:450: UserWarning: X does not have valid feature names, but RandomForestRegressor was fitted with feature names
  warnings.warn(
/home/deamonpog/miniconda3/envs/doi/lib/python3.8/site-packages/sklearn/base.py:450: UserWarning: X does not have valid feature names, but RandomForestRegressor was fitted with feature names
  warnings.warn(
/home/deamonpog/miniconda3/envs/doi/lib/python3.8/site-packages/sklearn/base.py:450: UserWarning: X does not have valid feature names, but RandomForestRegressor was fitted with feature names
  warnings.warn(
/home/deamonpog/miniconda3/envs/doi/lib/python3.8/site-packages/sklearn/base.py:450: UserWarning: X does not have valid feature names, but RandomForestRegressor was fitted with feature names
  warnings.warn(
/home/deamonpog/miniconda3/envs/doi/lib/python3.8/site-packages/sklearn/base.py:450: UserWarning: X does not have valid feature names, but RandomForestRegressor was fitted with feature names
  warnings.warn(
/home/deamonpog/miniconda3/envs/doi/lib/python3.8/site-packages/sklearn/base.py:450: UserWarning: X does not have valid feature names, but RandomForestRegressor was fitted with feature names
  warnings.warn(
/home/deamonpog/miniconda3/envs/doi/lib/python3.8/site-packages/sklearn/base.py:450: UserWarning: X does not have valid feature names, but RandomForestRegressor was fitted with feature names
  warnings.warn(
/home/deamonpog/miniconda3/envs/doi/lib/python3.8/site-packages/sklearn/base.py:450: UserWarning: X does not have valid feature names, but RandomForestRegressor was fitted with feature names
  warnings.warn(
/home/deamonpog/miniconda3/envs/doi/lib/python3.8/site-packages/sklearn/base.py:450: UserWarning: X does not have valid feature names, but RandomForestRegressor was fitted with feature names
  warnings.warn(
/home/deamonpog/miniconda3/envs/doi/lib/python3.8/site-packages/sklearn/base.py:450: UserWarning: X does not have valid feature names, but RandomForestRegressor was fitted with feature names
  warnings.warn(
/home/deamonpog/miniconda3/envs/doi/lib/python3.8/site-packages/sklearn/base.py:450: UserWarning: X does not have valid feature names, but RandomForestRegressor was fitted with feature names
  warnings.warn(
/home/deamonpog/miniconda3/envs/doi/lib/python3.8/site-packages/sklearn/base.py:450: UserWarning: X does not have valid feature names, but RandomForestRegressor was fitted with feature names
  warnings.warn(
/home/deamonpog/miniconda3/envs/doi/lib/python3.8/site-packages/sklearn/base.py:450: UserWarning: X does not have valid feature names, but RandomForestRegressor was fitted with feature names
  warnings.warn(
/home/deamonpog/miniconda3/envs/doi/lib/python3.8/site-packages/sklearn/base.py:450: UserWarning: X does not have valid feature names, but RandomForestRegressor was fitted with feature names
  warnings.warn(
/home/deamonpog/miniconda3/envs/doi/lib/python3.8/site-packages/sklearn/base.py:450: UserWarning: X does not have valid feature names, but RandomForestRegressor was fitted with feature names
  warnings.warn(
/home/deamonpog/miniconda3/envs/doi/lib/python3.8/site-packages/sklearn/base.py:450: UserWarning: X does not have valid feature names, but RandomForestRegressor was fitted with feature names
  warnings.warn(
/home/deamonpog/miniconda3/envs/doi/lib/python3.8/site-packages/sklearn/base.py:450: UserWarning: X does not have valid feature names, but RandomForestRegressor was fitted with feature names
  warnings.warn(
/home/deamonpog/miniconda3/envs/doi/lib/python3.8/site-packages/sklearn/base.py:450: UserWarning: X does not have valid feature names, but RandomForestRegressor was fitted with feature names
  warnings.warn(
/home/deamonpog/miniconda3/envs/doi/lib/python3.8/site-packages/sklearn/base.py:450: UserWarning: X does not have valid feature names, but RandomForestRegressor was fitted with feature names
  warnings.warn(
/home/deamonpog/miniconda3/envs/doi/lib/python3.8/site-packages/sklearn/base.py:450: UserWarning: X does not have valid feature names, but RandomForestRegressor was fitted with feature names
  warnings.warn(
/home/deamonpog/miniconda3/envs/doi/lib/python3.8/site-packages/sklearn/base.py:450: UserWarning: X does not have valid feature names, but RandomForestRegressor was fitted with feature names
  warnings.warn(
/home/deamonpog/miniconda3/envs/doi/lib/python3.8/site-packages/sklearn/base.py:450: UserWarning: X does not have valid feature names, but RandomForestRegressor was fitted with feature names
  warnings.warn(
/home/deamonpog/miniconda3/envs/doi/lib/python3.8/site-packages/sklearn/base.py:450: UserWarning: X does not have valid feature names, but RandomForestRegressor was fitted with feature names
  warnings.warn(
/home/deamonpog/miniconda3/envs/doi/lib/python3.8/site-packages/sklearn/base.py:450: UserWarning: X does not have valid feature names, but RandomForestRegressor was fitted with feature names
  warnings.warn(
/home/deamonpog/miniconda3/envs/doi/lib/python3.8/site-packages/sklearn/base.py:450: UserWarning: X does not have valid feature names, but RandomForestRegressor was fitted with feature names
  warnings.warn(
/home/deamonpog/miniconda3/envs/doi/lib/python3.8/site-packages/sklearn/base.py:450: UserWarning: X does not have valid feature names, but RandomForestRegressor was fitted with feature names
  warnings.warn(
/home/deamonpog/miniconda3/envs/doi/lib/python3.8/site-packages/sklearn/base.py:450: UserWarning: X does not have valid feature names, but RandomForestRegressor was fitted with feature names
  warnings.warn(
/home/deamonpog/miniconda3/envs/doi/lib/python3.8/site-packages/sklearn/base.py:450: UserWarning: X does not have valid feature names, but RandomForestRegressor was fitted with feature names
  warnings.warn(
/home/deamonpog/miniconda3/envs/doi/lib/python3.8/site-packages/sklearn/base.py:450: UserWarning: X does not have valid feature names, but RandomForestRegressor was fitted with feature names
  warnings.warn(
/home/deamonpog/miniconda3/envs/doi/lib/python3.8/site-packages/sklearn/base.py:450: UserWarning: X does not have valid feature names, but RandomForestRegressor was fitted with feature names
  warnings.warn(
/home/deamonpog/miniconda3/envs/doi/lib/python3.8/site-packages/sklearn/base.py:450: UserWarning: X does not have valid feature names, but RandomForestRegressor was fitted with feature names
  warnings.warn(
/home/deamonpog/miniconda3/envs/doi/lib/python3.8/site-packages/sklearn/base.py:450: UserWarning: X does not have valid feature names, but RandomForestRegressor was fitted with feature names
  warnings.warn(
/home/deamonpog/miniconda3/envs/doi/lib/python3.8/site-packages/sklearn/base.py:450: UserWarning: X does not have valid feature names, but RandomForestRegressor was fitted with feature names
  warnings.warn(
/home/deamonpog/miniconda3/envs/doi/lib/python3.8/site-packages/sklearn/base.py:450: UserWarning: X does not have valid feature names, but RandomForestRegressor was fitted with feature names
  warnings.warn(
/home/deamonpog/miniconda3/envs/doi/lib/python3.8/site-packages/sklearn/base.py:450: UserWarning: X does not have valid feature names, but RandomForestRegressor was fitted with feature names
  warnings.warn(
/home/deamonpog/miniconda3/envs/doi/lib/python3.8/site-packages/sklearn/base.py:450: UserWarning: X does not have valid feature names, but RandomForestRegressor was fitted with feature names
  warnings.warn(
/home/deamonpog/miniconda3/envs/doi/lib/python3.8/site-packages/sklearn/base.py:450: UserWarning: X does not have valid feature names, but RandomForestRegressor was fitted with feature names
  warnings.warn(
/home/deamonpog/miniconda3/envs/doi/lib/python3.8/site-packages/sklearn/base.py:450: UserWarning: X does not have valid feature names, but RandomForestRegressor was fitted with feature names
  warnings.warn(
/home/deamonpog/miniconda3/envs/doi/lib/python3.8/site-packages/sklearn/base.py:450: UserWarning: X does not have valid feature names, but RandomForestRegressor was fitted with feature names
  warnings.warn(
/home/deamonpog/miniconda3/envs/doi/lib/python3.8/site-packages/sklearn/base.py:450: UserWarning: X does not have valid feature names, but RandomForestRegressor was fitted with feature names
  warnings.warn(
/home/deamonpog/miniconda3/envs/doi/lib/python3.8/site-packages/sklearn/base.py:450: UserWarning: X does not have valid feature names, but RandomForestRegressor was fitted with feature names
  warnings.warn(
/home/deamonpog/miniconda3/envs/doi/lib/python3.8/site-packages/sklearn/base.py:450: UserWarning: X does not have valid feature names, but RandomForestRegressor was fitted with feature names
  warnings.warn(
/home/deamonpog/miniconda3/envs/doi/lib/python3.8/site-packages/sklearn/base.py:450: UserWarning: X does not have valid feature names, but RandomForestRegressor was fitted with feature names
  warnings.warn(
/home/deamonpog/miniconda3/envs/doi/lib/python3.8/site-packages/sklearn/base.py:450: UserWarning: X does not have valid feature names, but RandomForestRegressor was fitted with feature names
  warnings.warn(
/home/deamonpog/miniconda3/envs/doi/lib/python3.8/site-packages/sklearn/base.py:450: UserWarning: X does not have valid feature names, but RandomForestRegressor was fitted with feature names
  warnings.warn(
/home/deamonpog/miniconda3/envs/doi/lib/python3.8/site-packages/sklearn/base.py:450: UserWarning: X does not have valid feature names, but RandomForestRegressor was fitted with feature names
  warnings.warn(
/home/deamonpog/miniconda3/envs/doi/lib/python3.8/site-packages/sklearn/base.py:450: UserWarning: X does not have valid feature names, but RandomForestRegressor was fitted with feature names
  warnings.warn(
/home/deamonpog/miniconda3/envs/doi/lib/python3.8/site-packages/sklearn/base.py:450: UserWarning: X does not have valid feature names, but RandomForestRegressor was fitted with feature names
  warnings.warn(
/home/deamonpog/miniconda3/envs/doi/lib/python3.8/site-packages/sklearn/base.py:450: UserWarning: X does not have valid feature names, but RandomForestRegressor was fitted with feature names
  warnings.warn(
/home/deamonpog/miniconda3/envs/doi/lib/python3.8/site-packages/sklearn/base.py:450: UserWarning: X does not have valid feature names, but RandomForestRegressor was fitted with feature names
  warnings.warn(
/home/deamonpog/miniconda3/envs/doi/lib/python3.8/site-packages/sklearn/base.py:450: UserWarning: X does not have valid feature names, but RandomForestRegressor was fitted with feature names
  warnings.warn(
/home/deamonpog/miniconda3/envs/doi/lib/python3.8/site-packages/sklearn/base.py:450: UserWarning: X does not have valid feature names, but RandomForestRegressor was fitted with feature names
  warnings.warn(
/home/deamonpog/miniconda3/envs/doi/lib/python3.8/site-packages/sklearn/base.py:450: UserWarning: X does not have valid feature names, but RandomForestRegressor was fitted with feature names
  warnings.warn(
/home/deamonpog/miniconda3/envs/doi/lib/python3.8/site-packages/sklearn/base.py:450: UserWarning: X does not have valid feature names, but RandomForestRegressor was fitted with feature names
  warnings.warn(
/home/deamonpog/miniconda3/envs/doi/lib/python3.8/site-packages/sklearn/base.py:450: UserWarning: X does not have valid feature names, but RandomForestRegressor was fitted with feature names
  warnings.warn(
/home/deamonpog/miniconda3/envs/doi/lib/python3.8/site-packages/sklearn/base.py:450: UserWarning: X does not have valid feature names, but RandomForestRegressor was fitted with feature names
  warnings.warn(
/home/deamonpog/miniconda3/envs/doi/lib/python3.8/site-packages/sklearn/base.py:450: UserWarning: X does not have valid feature names, but RandomForestRegressor was fitted with feature names
  warnings.warn(
/home/deamonpog/miniconda3/envs/doi/lib/python3.8/site-packages/sklearn/base.py:450: UserWarning: X does not have valid feature names, but RandomForestRegressor was fitted with feature names
  warnings.warn(
/home/deamonpog/miniconda3/envs/doi/lib/python3.8/site-packages/sklearn/base.py:450: UserWarning: X does not have valid feature names, but RandomForestRegressor was fitted with feature names
  warnings.warn(
/home/deamonpog/miniconda3/envs/doi/lib/python3.8/site-packages/sklearn/base.py:450: UserWarning: X does not have valid feature names, but RandomForestRegressor was fitted with feature names
  warnings.warn(
/home/deamonpog/miniconda3/envs/doi/lib/python3.8/site-packages/sklearn/base.py:450: UserWarning: X does not have valid feature names, but RandomForestRegressor was fitted with feature names
  warnings.warn(
/home/deamonpog/miniconda3/envs/doi/lib/python3.8/site-packages/sklearn/base.py:450: UserWarning: X does not have valid feature names, but RandomForestRegressor was fitted with feature names
  warnings.warn(
/home/deamonpog/miniconda3/envs/doi/lib/python3.8/site-packages/sklearn/base.py:450: UserWarning: X does not have valid feature names, but RandomForestRegressor was fitted with feature names
  warnings.warn(
/home/deamonpog/miniconda3/envs/doi/lib/python3.8/site-packages/sklearn/base.py:450: UserWarning: X does not have valid feature names, but RandomForestRegressor was fitted with feature names
  warnings.warn(
/home/deamonpog/miniconda3/envs/doi/lib/python3.8/site-packages/sklearn/base.py:450: UserWarning: X does not have valid feature names, but RandomForestRegressor was fitted with feature names
  warnings.warn(
/home/deamonpog/miniconda3/envs/doi/lib/python3.8/site-packages/sklearn/base.py:450: UserWarning: X does not have valid feature names, but RandomForestRegressor was fitted with feature names
  warnings.warn(
/home/deamonpog/miniconda3/envs/doi/lib/python3.8/site-packages/sklearn/base.py:450: UserWarning: X does not have valid feature names, but RandomForestRegressor was fitted with feature names
  warnings.warn(
/home/deamonpog/miniconda3/envs/doi/lib/python3.8/site-packages/sklearn/base.py:450: UserWarning: X does not have valid feature names, but RandomForestRegressor was fitted with feature names
  warnings.warn(
/home/deamonpog/miniconda3/envs/doi/lib/python3.8/site-packages/sklearn/base.py:450: UserWarning: X does not have valid feature names, but RandomForestRegressor was fitted with feature names
  warnings.warn(
/home/deamonpog/miniconda3/envs/doi/lib/python3.8/site-packages/sklearn/base.py:450: UserWarning: X does not have valid feature names, but RandomForestRegressor was fitted with feature names
  warnings.warn(
/home/deamonpog/miniconda3/envs/doi/lib/python3.8/site-packages/sklearn/base.py:450: UserWarning: X does not have valid feature names, but RandomForestRegressor was fitted with feature names
  warnings.warn(
/home/deamonpog/miniconda3/envs/doi/lib/python3.8/site-packages/sklearn/base.py:450: UserWarning: X does not have valid feature names, but RandomForestRegressor was fitted with feature names
  warnings.warn(
/home/deamonpog/miniconda3/envs/doi/lib/python3.8/site-packages/sklearn/base.py:450: UserWarning: X does not have valid feature names, but RandomForestRegressor was fitted with feature names
  warnings.warn(
/home/deamonpog/miniconda3/envs/doi/lib/python3.8/site-packages/sklearn/base.py:450: UserWarning: X does not have valid feature names, but RandomForestRegressor was fitted with feature names
  warnings.warn(
/home/deamonpog/miniconda3/envs/doi/lib/python3.8/site-packages/sklearn/base.py:450: UserWarning: X does not have valid feature names, but RandomForestRegressor was fitted with feature names
  warnings.warn(
/home/deamonpog/miniconda3/envs/doi/lib/python3.8/site-packages/sklearn/base.py:450: UserWarning: X does not have valid feature names, but RandomForestRegressor was fitted with feature names
  warnings.warn(
/home/deamonpog/miniconda3/envs/doi/lib/python3.8/site-packages/sklearn/base.py:450: UserWarning: X does not have valid feature names, but RandomForestRegressor was fitted with feature names
  warnings.warn(
/home/deamonpog/miniconda3/envs/doi/lib/python3.8/site-packages/sklearn/base.py:450: UserWarning: X does not have valid feature names, but RandomForestRegressor was fitted with feature names
  warnings.warn(
/home/deamonpog/miniconda3/envs/doi/lib/python3.8/site-packages/sklearn/base.py:450: UserWarning: X does not have valid feature names, but RandomForestRegressor was fitted with feature names
  warnings.warn(
/home/deamonpog/miniconda3/envs/doi/lib/python3.8/site-packages/sklearn/base.py:450: UserWarning: X does not have valid feature names, but RandomForestRegressor was fitted with feature names
  warnings.warn(
/home/deamonpog/miniconda3/envs/doi/lib/python3.8/site-packages/sklearn/base.py:450: UserWarning: X does not have valid feature names, but RandomForestRegressor was fitted with feature names
  warnings.warn(
/home/deamonpog/miniconda3/envs/doi/lib/python3.8/site-packages/sklearn/base.py:450: UserWarning: X does not have valid feature names, but RandomForestRegressor was fitted with feature names
  warnings.warn(
/home/deamonpog/miniconda3/envs/doi/lib/python3.8/site-packages/sklearn/base.py:450: UserWarning: X does not have valid feature names, but RandomForestRegressor was fitted with feature names
  warnings.warn(
/home/deamonpog/miniconda3/envs/doi/lib/python3.8/site-packages/sklearn/base.py:450: UserWarning: X does not have valid feature names, but RandomForestRegressor was fitted with feature names
  warnings.warn(
/home/deamonpog/miniconda3/envs/doi/lib/python3.8/site-packages/sklearn/base.py:450: UserWarning: X does not have valid feature names, but RandomForestRegressor was fitted with feature names
  warnings.warn(
/home/deamonpog/miniconda3/envs/doi/lib/python3.8/site-packages/sklearn/base.py:450: UserWarning: X does not have valid feature names, but RandomForestRegressor was fitted with feature names
  warnings.warn(
/home/deamonpog/miniconda3/envs/doi/lib/python3.8/site-packages/sklearn/base.py:450: UserWarning: X does not have valid feature names, but RandomForestRegressor was fitted with feature names
  warnings.warn(
/home/deamonpog/miniconda3/envs/doi/lib/python3.8/site-packages/sklearn/base.py:450: UserWarning: X does not have valid feature names, but RandomForestRegressor was fitted with feature names
  warnings.warn(
/home/deamonpog/miniconda3/envs/doi/lib/python3.8/site-packages/sklearn/base.py:450: UserWarning: X does not have valid feature names, but RandomForestRegressor was fitted with feature names
  warnings.warn(
/home/deamonpog/miniconda3/envs/doi/lib/python3.8/site-packages/sklearn/base.py:450: UserWarning: X does not have valid feature names, but RandomForestRegressor was fitted with feature names
  warnings.warn(
/home/deamonpog/miniconda3/envs/doi/lib/python3.8/site-packages/sklearn/base.py:450: UserWarning: X does not have valid feature names, but RandomForestRegressor was fitted with feature names
  warnings.warn(
/home/deamonpog/miniconda3/envs/doi/lib/python3.8/site-packages/sklearn/base.py:450: UserWarning: X does not have valid feature names, but RandomForestRegressor was fitted with feature names
  warnings.warn(
/home/deamonpog/miniconda3/envs/doi/lib/python3.8/site-packages/sklearn/base.py:450: UserWarning: X does not have valid feature names, but RandomForestRegressor was fitted with feature names
  warnings.warn(
/home/deamonpog/miniconda3/envs/doi/lib/python3.8/site-packages/sklearn/base.py:450: UserWarning: X does not have valid feature names, but RandomForestRegressor was fitted with feature names
  warnings.warn(
/home/deamonpog/miniconda3/envs/doi/lib/python3.8/site-packages/sklearn/base.py:450: UserWarning: X does not have valid feature names, but RandomForestRegressor was fitted with feature names
  warnings.warn(
/home/deamonpog/miniconda3/envs/doi/lib/python3.8/site-packages/sklearn/base.py:450: UserWarning: X does not have valid feature names, but RandomForestRegressor was fitted with feature names
  warnings.warn(
/home/deamonpog/miniconda3/envs/doi/lib/python3.8/site-packages/sklearn/base.py:450: UserWarning: X does not have valid feature names, but RandomForestRegressor was fitted with feature names
  warnings.warn(
/home/deamonpog/miniconda3/envs/doi/lib/python3.8/site-packages/sklearn/base.py:450: UserWarning: X does not have valid feature names, but RandomForestRegressor was fitted with feature names
  warnings.warn(
/home/deamonpog/miniconda3/envs/doi/lib/python3.8/site-packages/sklearn/base.py:450: UserWarning: X does not have valid feature names, but RandomForestRegressor was fitted with feature names
  warnings.warn(
/home/deamonpog/miniconda3/envs/doi/lib/python3.8/site-packages/sklearn/base.py:450: UserWarning: X does not have valid feature names, but RandomForestRegressor was fitted with feature names
  warnings.warn(
/home/deamonpog/miniconda3/envs/doi/lib/python3.8/site-packages/sklearn/base.py:450: UserWarning: X does not have valid feature names, but RandomForestRegressor was fitted with feature names
  warnings.warn(
/home/deamonpog/miniconda3/envs/doi/lib/python3.8/site-packages/sklearn/base.py:450: UserWarning: X does not have valid feature names, but RandomForestRegressor was fitted with feature names
  warnings.warn(
/home/deamonpog/miniconda3/envs/doi/lib/python3.8/site-packages/sklearn/base.py:450: UserWarning: X does not have valid feature names, but RandomForestRegressor was fitted with feature names
  warnings.warn(
/home/deamonpog/miniconda3/envs/doi/lib/python3.8/site-packages/sklearn/base.py:450: UserWarning: X does not have valid feature names, but RandomForestRegressor was fitted with feature names
  warnings.warn(
/home/deamonpog/miniconda3/envs/doi/lib/python3.8/site-packages/sklearn/base.py:450: UserWarning: X does not have valid feature names, but RandomForestRegressor was fitted with feature names
  warnings.warn(
/home/deamonpog/miniconda3/envs/doi/lib/python3.8/site-packages/sklearn/base.py:450: UserWarning: X does not have valid feature names, but RandomForestRegressor was fitted with feature names
  warnings.warn(
/home/deamonpog/miniconda3/envs/doi/lib/python3.8/site-packages/sklearn/base.py:450: UserWarning: X does not have valid feature names, but RandomForestRegressor was fitted with feature names
  warnings.warn(
/home/deamonpog/miniconda3/envs/doi/lib/python3.8/site-packages/sklearn/base.py:450: UserWarning: X does not have valid feature names, but RandomForestRegressor was fitted with feature names
  warnings.warn(
Processing : ./outputs/10x10CSV/anti_58_of_163__binned_10x10.csv
Unknown args : []
Beta : 0.59
Initial Infects : 0.05
GT:
    timebinMid  valbinMid
0        0.05       0.05
1        0.15       0.15
2        0.25       0.15
3        0.35       0.35
4        0.45       0.65
5        0.55       0.75
6        0.65       0.75
7        0.75       0.85
8        0.85       0.95
9        0.95       0.95
setting meta values
Seting up took :0.044799562295277914 minutes
Starting evolve
--- Starting GP Run 0 ---
gen	nevals	avg     	std     	min     	max    
0  	50    	0.919333	0.565747	0.246262	2.68446
1  	50    	0.830993	0.640933	0.246262	2.90668
2  	50    	0.609936	0.416498	0.236327	2.68446
3  	50    	0.594923	0.50238 	0.243983	2.90668
4  	50    	0.576291	0.411653	0.243983	2.20393
5  	50    	0.505625	0.33209 	0.241045	1.46319
6  	50    	0.432585	0.302734	0.243983	1.70267
7  	50    	0.5035  	0.368721	0.243983	1.92489
8  	50    	0.389916	0.262338	0.243983	1.40637
9  	50    	0.43835 	0.427736	0.243983	2.68446
10 	50    	0.364174	0.214127	0.243983	1.1524 
11 	50    	0.435188	0.414239	0.243983	2.68446
12 	50    	0.460077	0.451295	0.243983	2.90668
13 	50    	0.389525	0.25459 	0.243983	1.40637
14 	50    	0.392181	0.248716	0.243983	1.30055
15 	50    	0.352195	0.200654	0.243983	1.2662 
16 	50    	0.378072	0.28206 	0.243983	1.63658
17 	50    	0.367238	0.246709	0.243983	1.6169 
18 	50    	0.43752 	0.336001	0.243983	1.65367
19 	50    	0.466187	0.455603	0.243983	2.90668
20 	50    	0.438673	0.302791	0.243983	1.40637
21 	50    	0.533354	0.428127	0.243983	1.98171
22 	50    	0.456207	0.43205 	0.243983	2.90668
23 	50    	0.457151	0.354681	0.243983	1.62859
24 	50    	0.459778	0.384604	0.243983	1.90764
25 	50    	0.384812	0.229774	0.243983	1.13287
26 	50    	0.375917	0.271607	0.246262	1.68542
27 	50    	0.360368	0.226171	0.243983	1.41435
28 	50    	0.375562	0.265641	0.243983	1.69097
29 	50    	0.361301	0.209132	0.243983	1.11594
30 	50    	0.395955	0.29169 	0.243983	1.62859
31 	50    	0.461768	0.312498	0.243983	1.43442
32 	50    	0.439653	0.307656	0.243983	1.40637
33 	50    	0.488576	0.415136	0.243983	1.90764
34 	50    	0.391742	0.254389	0.243983	1.3323 
35 	50    	0.355685	0.360032	0.243983	2.68446
36 	50    	0.515291	0.436977	0.243983	2.90668
37 	50    	0.464912	0.331551	0.243983	1.65367
38 	50    	0.40197 	0.266455	0.234566	1.21296
39 	50    	0.396022	0.321042	0.243983	1.65367
40 	50    	0.419767	0.418321	0.243983	2.90668
41 	50    	0.460722	0.337702	0.243983	1.59213
42 	50    	0.355929	0.261464	0.234566	1.91319
43 	50    	0.337796	0.18179 	0.243983	1.1524 
44 	50    	0.35918 	0.215739	0.243983	1.13515
45 	50    	0.379919	0.281952	0.243983	1.92489
46 	50    	0.366977	0.240299	0.243983	1.57732
47 	50    	0.433673	0.423437	0.243983	2.90668
48 	50    	0.374807	0.214654	0.241045	1.16076
49 	50    	0.454275	0.320281	0.243983	1.69097
50 	50    	0.303854	0.0875375	0.243983	0.72421
--- Genetic program runs finished, output written to outputs/EMD/anti_FactorScores.csv ---
EMD.Evolve up took :30.181262616316477 minutes
Factor Importance Calc took :1810.8822977542877 seconds
     intasrelativeprobabilityovertotalinfected  ...  fractbyrand
0                                     0.000797  ...     0.524622
1                                     0.000797  ...     0.514813
2                                     0.000161  ...     0.514858
3                                     0.000161  ...     0.514845
4                                     0.000161  ...     0.514826
..                                         ...  ...          ...
515                                   0.000161  ...     0.524653
516                                   0.000157  ...     0.514814
517                                   0.000161  ...     0.514845
518                                   0.000157  ...     0.514813
519                                   0.000788  ...     0.514814

[520 rows x 12 columns]
   intasrelativeprobabilityovertotalinfected  ...  constasmaxnx
0                                   0.000279  ...      1.305998
1                                   0.000305  ...      1.278733
2                                   0.000336  ...      1.228477
3                                   0.000278  ...      1.254877
4                                   0.000312  ...      1.219965
5                                   0.000278  ...      1.263474
6                                   0.000487  ...      1.330443
7                                   0.000289  ...      1.293458
8                                   0.000278  ...      1.183568
9                                   0.000278  ...      1.324419

[10 rows x 12 columns]
