/home/deamonpog/miniconda3/envs/doi/lib/python3.8/site-packages/sklearn/base.py:450: UserWarning: X does not have valid feature names, but RandomForestRegressor was fitted with feature names
  warnings.warn(
/home/deamonpog/miniconda3/envs/doi/lib/python3.8/site-packages/sklearn/base.py:450: UserWarning: X does not have valid feature names, but RandomForestRegressor was fitted with feature names
  warnings.warn(
/home/deamonpog/miniconda3/envs/doi/lib/python3.8/site-packages/sklearn/base.py:450: UserWarning: X does not have valid feature names, but RandomForestRegressor was fitted with feature names
  warnings.warn(
/home/deamonpog/miniconda3/envs/doi/lib/python3.8/site-packages/sklearn/base.py:450: UserWarning: X does not have valid feature names, but RandomForestRegressor was fitted with feature names
  warnings.warn(
/home/deamonpog/miniconda3/envs/doi/lib/python3.8/site-packages/sklearn/base.py:450: UserWarning: X does not have valid feature names, but RandomForestRegressor was fitted with feature names
  warnings.warn(
/home/deamonpog/miniconda3/envs/doi/lib/python3.8/site-packages/sklearn/base.py:450: UserWarning: X does not have valid feature names, but RandomForestRegressor was fitted with feature names
  warnings.warn(
/home/deamonpog/miniconda3/envs/doi/lib/python3.8/site-packages/sklearn/base.py:450: UserWarning: X does not have valid feature names, but RandomForestRegressor was fitted with feature names
  warnings.warn(
/home/deamonpog/miniconda3/envs/doi/lib/python3.8/site-packages/sklearn/base.py:450: UserWarning: X does not have valid feature names, but RandomForestRegressor was fitted with feature names
  warnings.warn(
/home/deamonpog/miniconda3/envs/doi/lib/python3.8/site-packages/sklearn/base.py:450: UserWarning: X does not have valid feature names, but RandomForestRegressor was fitted with feature names
  warnings.warn(
/home/deamonpog/miniconda3/envs/doi/lib/python3.8/site-packages/sklearn/base.py:450: UserWarning: X does not have valid feature names, but RandomForestRegressor was fitted with feature names
  warnings.warn(
/home/deamonpog/miniconda3/envs/doi/lib/python3.8/site-packages/sklearn/base.py:450: UserWarning: X does not have valid feature names, but RandomForestRegressor was fitted with feature names
  warnings.warn(
/home/deamonpog/miniconda3/envs/doi/lib/python3.8/site-packages/sklearn/base.py:450: UserWarning: X does not have valid feature names, but RandomForestRegressor was fitted with feature names
  warnings.warn(
/home/deamonpog/miniconda3/envs/doi/lib/python3.8/site-packages/sklearn/base.py:450: UserWarning: X does not have valid feature names, but RandomForestRegressor was fitted with feature names
  warnings.warn(
/home/deamonpog/miniconda3/envs/doi/lib/python3.8/site-packages/sklearn/base.py:450: UserWarning: X does not have valid feature names, but RandomForestRegressor was fitted with feature names
  warnings.warn(
/home/deamonpog/miniconda3/envs/doi/lib/python3.8/site-packages/sklearn/base.py:450: UserWarning: X does not have valid feature names, but RandomForestRegressor was fitted with feature names
  warnings.warn(
/home/deamonpog/miniconda3/envs/doi/lib/python3.8/site-packages/sklearn/base.py:450: UserWarning: X does not have valid feature names, but RandomForestRegressor was fitted with feature names
  warnings.warn(
/home/deamonpog/miniconda3/envs/doi/lib/python3.8/site-packages/sklearn/base.py:450: UserWarning: X does not have valid feature names, but RandomForestRegressor was fitted with feature names
  warnings.warn(
/home/deamonpog/miniconda3/envs/doi/lib/python3.8/site-packages/sklearn/base.py:450: UserWarning: X does not have valid feature names, but RandomForestRegressor was fitted with feature names
  warnings.warn(
/home/deamonpog/miniconda3/envs/doi/lib/python3.8/site-packages/sklearn/base.py:450: UserWarning: X does not have valid feature names, but RandomForestRegressor was fitted with feature names
  warnings.warn(
/home/deamonpog/miniconda3/envs/doi/lib/python3.8/site-packages/sklearn/base.py:450: UserWarning: X does not have valid feature names, but RandomForestRegressor was fitted with feature names
  warnings.warn(
/home/deamonpog/miniconda3/envs/doi/lib/python3.8/site-packages/sklearn/base.py:450: UserWarning: X does not have valid feature names, but RandomForestRegressor was fitted with feature names
  warnings.warn(
/home/deamonpog/miniconda3/envs/doi/lib/python3.8/site-packages/sklearn/base.py:450: UserWarning: X does not have valid feature names, but RandomForestRegressor was fitted with feature names
  warnings.warn(
/home/deamonpog/miniconda3/envs/doi/lib/python3.8/site-packages/sklearn/base.py:450: UserWarning: X does not have valid feature names, but RandomForestRegressor was fitted with feature names
  warnings.warn(
/home/deamonpog/miniconda3/envs/doi/lib/python3.8/site-packages/sklearn/base.py:450: UserWarning: X does not have valid feature names, but RandomForestRegressor was fitted with feature names
  warnings.warn(
/home/deamonpog/miniconda3/envs/doi/lib/python3.8/site-packages/sklearn/base.py:450: UserWarning: X does not have valid feature names, but RandomForestRegressor was fitted with feature names
  warnings.warn(
/home/deamonpog/miniconda3/envs/doi/lib/python3.8/site-packages/sklearn/base.py:450: UserWarning: X does not have valid feature names, but RandomForestRegressor was fitted with feature names
  warnings.warn(
/home/deamonpog/miniconda3/envs/doi/lib/python3.8/site-packages/sklearn/base.py:450: UserWarning: X does not have valid feature names, but RandomForestRegressor was fitted with feature names
  warnings.warn(
/home/deamonpog/miniconda3/envs/doi/lib/python3.8/site-packages/sklearn/base.py:450: UserWarning: X does not have valid feature names, but RandomForestRegressor was fitted with feature names
  warnings.warn(
/home/deamonpog/miniconda3/envs/doi/lib/python3.8/site-packages/sklearn/base.py:450: UserWarning: X does not have valid feature names, but RandomForestRegressor was fitted with feature names
  warnings.warn(
/home/deamonpog/miniconda3/envs/doi/lib/python3.8/site-packages/sklearn/base.py:450: UserWarning: X does not have valid feature names, but RandomForestRegressor was fitted with feature names
  warnings.warn(
/home/deamonpog/miniconda3/envs/doi/lib/python3.8/site-packages/sklearn/base.py:450: UserWarning: X does not have valid feature names, but RandomForestRegressor was fitted with feature names
  warnings.warn(
/home/deamonpog/miniconda3/envs/doi/lib/python3.8/site-packages/sklearn/base.py:450: UserWarning: X does not have valid feature names, but RandomForestRegressor was fitted with feature names
  warnings.warn(
/home/deamonpog/miniconda3/envs/doi/lib/python3.8/site-packages/sklearn/base.py:450: UserWarning: X does not have valid feature names, but RandomForestRegressor was fitted with feature names
  warnings.warn(
/home/deamonpog/miniconda3/envs/doi/lib/python3.8/site-packages/sklearn/base.py:450: UserWarning: X does not have valid feature names, but RandomForestRegressor was fitted with feature names
  warnings.warn(
/home/deamonpog/miniconda3/envs/doi/lib/python3.8/site-packages/sklearn/base.py:450: UserWarning: X does not have valid feature names, but RandomForestRegressor was fitted with feature names
  warnings.warn(
/home/deamonpog/miniconda3/envs/doi/lib/python3.8/site-packages/sklearn/base.py:450: UserWarning: X does not have valid feature names, but RandomForestRegressor was fitted with feature names
  warnings.warn(
/home/deamonpog/miniconda3/envs/doi/lib/python3.8/site-packages/sklearn/base.py:450: UserWarning: X does not have valid feature names, but RandomForestRegressor was fitted with feature names
  warnings.warn(
/home/deamonpog/miniconda3/envs/doi/lib/python3.8/site-packages/sklearn/base.py:450: UserWarning: X does not have valid feature names, but RandomForestRegressor was fitted with feature names
  warnings.warn(
/home/deamonpog/miniconda3/envs/doi/lib/python3.8/site-packages/sklearn/base.py:450: UserWarning: X does not have valid feature names, but RandomForestRegressor was fitted with feature names
  warnings.warn(
/home/deamonpog/miniconda3/envs/doi/lib/python3.8/site-packages/sklearn/base.py:450: UserWarning: X does not have valid feature names, but RandomForestRegressor was fitted with feature names
  warnings.warn(
/home/deamonpog/miniconda3/envs/doi/lib/python3.8/site-packages/sklearn/base.py:450: UserWarning: X does not have valid feature names, but RandomForestRegressor was fitted with feature names
  warnings.warn(
/home/deamonpog/miniconda3/envs/doi/lib/python3.8/site-packages/sklearn/base.py:450: UserWarning: X does not have valid feature names, but RandomForestRegressor was fitted with feature names
  warnings.warn(
/home/deamonpog/miniconda3/envs/doi/lib/python3.8/site-packages/sklearn/base.py:450: UserWarning: X does not have valid feature names, but RandomForestRegressor was fitted with feature names
  warnings.warn(
/home/deamonpog/miniconda3/envs/doi/lib/python3.8/site-packages/sklearn/base.py:450: UserWarning: X does not have valid feature names, but RandomForestRegressor was fitted with feature names
  warnings.warn(
/home/deamonpog/miniconda3/envs/doi/lib/python3.8/site-packages/sklearn/base.py:450: UserWarning: X does not have valid feature names, but RandomForestRegressor was fitted with feature names
  warnings.warn(
/home/deamonpog/miniconda3/envs/doi/lib/python3.8/site-packages/sklearn/base.py:450: UserWarning: X does not have valid feature names, but RandomForestRegressor was fitted with feature names
  warnings.warn(
/home/deamonpog/miniconda3/envs/doi/lib/python3.8/site-packages/sklearn/base.py:450: UserWarning: X does not have valid feature names, but RandomForestRegressor was fitted with feature names
  warnings.warn(
/home/deamonpog/miniconda3/envs/doi/lib/python3.8/site-packages/sklearn/base.py:450: UserWarning: X does not have valid feature names, but RandomForestRegressor was fitted with feature names
  warnings.warn(
/home/deamonpog/miniconda3/envs/doi/lib/python3.8/site-packages/sklearn/base.py:450: UserWarning: X does not have valid feature names, but RandomForestRegressor was fitted with feature names
  warnings.warn(
/home/deamonpog/miniconda3/envs/doi/lib/python3.8/site-packages/sklearn/base.py:450: UserWarning: X does not have valid feature names, but RandomForestRegressor was fitted with feature names
  warnings.warn(
/home/deamonpog/miniconda3/envs/doi/lib/python3.8/site-packages/sklearn/base.py:450: UserWarning: X does not have valid feature names, but RandomForestRegressor was fitted with feature names
  warnings.warn(
/home/deamonpog/miniconda3/envs/doi/lib/python3.8/site-packages/sklearn/base.py:450: UserWarning: X does not have valid feature names, but RandomForestRegressor was fitted with feature names
  warnings.warn(
/home/deamonpog/miniconda3/envs/doi/lib/python3.8/site-packages/sklearn/base.py:450: UserWarning: X does not have valid feature names, but RandomForestRegressor was fitted with feature names
  warnings.warn(
/home/deamonpog/miniconda3/envs/doi/lib/python3.8/site-packages/sklearn/base.py:450: UserWarning: X does not have valid feature names, but RandomForestRegressor was fitted with feature names
  warnings.warn(
/home/deamonpog/miniconda3/envs/doi/lib/python3.8/site-packages/sklearn/base.py:450: UserWarning: X does not have valid feature names, but RandomForestRegressor was fitted with feature names
  warnings.warn(
/home/deamonpog/miniconda3/envs/doi/lib/python3.8/site-packages/sklearn/base.py:450: UserWarning: X does not have valid feature names, but RandomForestRegressor was fitted with feature names
  warnings.warn(
/home/deamonpog/miniconda3/envs/doi/lib/python3.8/site-packages/sklearn/base.py:450: UserWarning: X does not have valid feature names, but RandomForestRegressor was fitted with feature names
  warnings.warn(
/home/deamonpog/miniconda3/envs/doi/lib/python3.8/site-packages/sklearn/base.py:450: UserWarning: X does not have valid feature names, but RandomForestRegressor was fitted with feature names
  warnings.warn(
/home/deamonpog/miniconda3/envs/doi/lib/python3.8/site-packages/sklearn/base.py:450: UserWarning: X does not have valid feature names, but RandomForestRegressor was fitted with feature names
  warnings.warn(
/home/deamonpog/miniconda3/envs/doi/lib/python3.8/site-packages/sklearn/base.py:450: UserWarning: X does not have valid feature names, but RandomForestRegressor was fitted with feature names
  warnings.warn(
/home/deamonpog/miniconda3/envs/doi/lib/python3.8/site-packages/sklearn/base.py:450: UserWarning: X does not have valid feature names, but RandomForestRegressor was fitted with feature names
  warnings.warn(
/home/deamonpog/miniconda3/envs/doi/lib/python3.8/site-packages/sklearn/base.py:450: UserWarning: X does not have valid feature names, but RandomForestRegressor was fitted with feature names
  warnings.warn(
/home/deamonpog/miniconda3/envs/doi/lib/python3.8/site-packages/sklearn/base.py:450: UserWarning: X does not have valid feature names, but RandomForestRegressor was fitted with feature names
  warnings.warn(
/home/deamonpog/miniconda3/envs/doi/lib/python3.8/site-packages/sklearn/base.py:450: UserWarning: X does not have valid feature names, but RandomForestRegressor was fitted with feature names
  warnings.warn(
/home/deamonpog/miniconda3/envs/doi/lib/python3.8/site-packages/sklearn/base.py:450: UserWarning: X does not have valid feature names, but RandomForestRegressor was fitted with feature names
  warnings.warn(
/home/deamonpog/miniconda3/envs/doi/lib/python3.8/site-packages/sklearn/base.py:450: UserWarning: X does not have valid feature names, but RandomForestRegressor was fitted with feature names
  warnings.warn(
/home/deamonpog/miniconda3/envs/doi/lib/python3.8/site-packages/sklearn/base.py:450: UserWarning: X does not have valid feature names, but RandomForestRegressor was fitted with feature names
  warnings.warn(
/home/deamonpog/miniconda3/envs/doi/lib/python3.8/site-packages/sklearn/base.py:450: UserWarning: X does not have valid feature names, but RandomForestRegressor was fitted with feature names
  warnings.warn(
/home/deamonpog/miniconda3/envs/doi/lib/python3.8/site-packages/sklearn/base.py:450: UserWarning: X does not have valid feature names, but RandomForestRegressor was fitted with feature names
  warnings.warn(
/home/deamonpog/miniconda3/envs/doi/lib/python3.8/site-packages/sklearn/base.py:450: UserWarning: X does not have valid feature names, but RandomForestRegressor was fitted with feature names
  warnings.warn(
/home/deamonpog/miniconda3/envs/doi/lib/python3.8/site-packages/sklearn/base.py:450: UserWarning: X does not have valid feature names, but RandomForestRegressor was fitted with feature names
  warnings.warn(
/home/deamonpog/miniconda3/envs/doi/lib/python3.8/site-packages/sklearn/base.py:450: UserWarning: X does not have valid feature names, but RandomForestRegressor was fitted with feature names
  warnings.warn(
/home/deamonpog/miniconda3/envs/doi/lib/python3.8/site-packages/sklearn/base.py:450: UserWarning: X does not have valid feature names, but RandomForestRegressor was fitted with feature names
  warnings.warn(
/home/deamonpog/miniconda3/envs/doi/lib/python3.8/site-packages/sklearn/base.py:450: UserWarning: X does not have valid feature names, but RandomForestRegressor was fitted with feature names
  warnings.warn(
/home/deamonpog/miniconda3/envs/doi/lib/python3.8/site-packages/sklearn/base.py:450: UserWarning: X does not have valid feature names, but RandomForestRegressor was fitted with feature names
  warnings.warn(
/home/deamonpog/miniconda3/envs/doi/lib/python3.8/site-packages/sklearn/base.py:450: UserWarning: X does not have valid feature names, but RandomForestRegressor was fitted with feature names
  warnings.warn(
/home/deamonpog/miniconda3/envs/doi/lib/python3.8/site-packages/sklearn/base.py:450: UserWarning: X does not have valid feature names, but RandomForestRegressor was fitted with feature names
  warnings.warn(
/home/deamonpog/miniconda3/envs/doi/lib/python3.8/site-packages/sklearn/base.py:450: UserWarning: X does not have valid feature names, but RandomForestRegressor was fitted with feature names
  warnings.warn(
/home/deamonpog/miniconda3/envs/doi/lib/python3.8/site-packages/sklearn/base.py:450: UserWarning: X does not have valid feature names, but RandomForestRegressor was fitted with feature names
  warnings.warn(
/home/deamonpog/miniconda3/envs/doi/lib/python3.8/site-packages/sklearn/base.py:450: UserWarning: X does not have valid feature names, but RandomForestRegressor was fitted with feature names
  warnings.warn(
/home/deamonpog/miniconda3/envs/doi/lib/python3.8/site-packages/sklearn/base.py:450: UserWarning: X does not have valid feature names, but RandomForestRegressor was fitted with feature names
  warnings.warn(
/home/deamonpog/miniconda3/envs/doi/lib/python3.8/site-packages/sklearn/base.py:450: UserWarning: X does not have valid feature names, but RandomForestRegressor was fitted with feature names
  warnings.warn(
/home/deamonpog/miniconda3/envs/doi/lib/python3.8/site-packages/sklearn/base.py:450: UserWarning: X does not have valid feature names, but RandomForestRegressor was fitted with feature names
  warnings.warn(
/home/deamonpog/miniconda3/envs/doi/lib/python3.8/site-packages/sklearn/base.py:450: UserWarning: X does not have valid feature names, but RandomForestRegressor was fitted with feature names
  warnings.warn(
/home/deamonpog/miniconda3/envs/doi/lib/python3.8/site-packages/sklearn/base.py:450: UserWarning: X does not have valid feature names, but RandomForestRegressor was fitted with feature names
  warnings.warn(
/home/deamonpog/miniconda3/envs/doi/lib/python3.8/site-packages/sklearn/base.py:450: UserWarning: X does not have valid feature names, but RandomForestRegressor was fitted with feature names
  warnings.warn(
/home/deamonpog/miniconda3/envs/doi/lib/python3.8/site-packages/sklearn/base.py:450: UserWarning: X does not have valid feature names, but RandomForestRegressor was fitted with feature names
  warnings.warn(
/home/deamonpog/miniconda3/envs/doi/lib/python3.8/site-packages/sklearn/base.py:450: UserWarning: X does not have valid feature names, but RandomForestRegressor was fitted with feature names
  warnings.warn(
/home/deamonpog/miniconda3/envs/doi/lib/python3.8/site-packages/sklearn/base.py:450: UserWarning: X does not have valid feature names, but RandomForestRegressor was fitted with feature names
  warnings.warn(
/home/deamonpog/miniconda3/envs/doi/lib/python3.8/site-packages/sklearn/base.py:450: UserWarning: X does not have valid feature names, but RandomForestRegressor was fitted with feature names
  warnings.warn(
/home/deamonpog/miniconda3/envs/doi/lib/python3.8/site-packages/sklearn/base.py:450: UserWarning: X does not have valid feature names, but RandomForestRegressor was fitted with feature names
  warnings.warn(
/home/deamonpog/miniconda3/envs/doi/lib/python3.8/site-packages/sklearn/base.py:450: UserWarning: X does not have valid feature names, but RandomForestRegressor was fitted with feature names
  warnings.warn(
/home/deamonpog/miniconda3/envs/doi/lib/python3.8/site-packages/sklearn/base.py:450: UserWarning: X does not have valid feature names, but RandomForestRegressor was fitted with feature names
  warnings.warn(
/home/deamonpog/miniconda3/envs/doi/lib/python3.8/site-packages/sklearn/base.py:450: UserWarning: X does not have valid feature names, but RandomForestRegressor was fitted with feature names
  warnings.warn(
/home/deamonpog/miniconda3/envs/doi/lib/python3.8/site-packages/sklearn/base.py:450: UserWarning: X does not have valid feature names, but RandomForestRegressor was fitted with feature names
  warnings.warn(
/home/deamonpog/miniconda3/envs/doi/lib/python3.8/site-packages/sklearn/base.py:450: UserWarning: X does not have valid feature names, but RandomForestRegressor was fitted with feature names
  warnings.warn(
/home/deamonpog/miniconda3/envs/doi/lib/python3.8/site-packages/sklearn/base.py:450: UserWarning: X does not have valid feature names, but RandomForestRegressor was fitted with feature names
  warnings.warn(
/home/deamonpog/miniconda3/envs/doi/lib/python3.8/site-packages/sklearn/base.py:450: UserWarning: X does not have valid feature names, but RandomForestRegressor was fitted with feature names
  warnings.warn(
/home/deamonpog/miniconda3/envs/doi/lib/python3.8/site-packages/sklearn/base.py:450: UserWarning: X does not have valid feature names, but RandomForestRegressor was fitted with feature names
  warnings.warn(
/home/deamonpog/miniconda3/envs/doi/lib/python3.8/site-packages/sklearn/base.py:450: UserWarning: X does not have valid feature names, but RandomForestRegressor was fitted with feature names
  warnings.warn(
/home/deamonpog/miniconda3/envs/doi/lib/python3.8/site-packages/sklearn/base.py:450: UserWarning: X does not have valid feature names, but RandomForestRegressor was fitted with feature names
  warnings.warn(
/home/deamonpog/miniconda3/envs/doi/lib/python3.8/site-packages/sklearn/base.py:450: UserWarning: X does not have valid feature names, but RandomForestRegressor was fitted with feature names
  warnings.warn(
/home/deamonpog/miniconda3/envs/doi/lib/python3.8/site-packages/sklearn/base.py:450: UserWarning: X does not have valid feature names, but RandomForestRegressor was fitted with feature names
  warnings.warn(
/home/deamonpog/miniconda3/envs/doi/lib/python3.8/site-packages/sklearn/base.py:450: UserWarning: X does not have valid feature names, but RandomForestRegressor was fitted with feature names
  warnings.warn(
/home/deamonpog/miniconda3/envs/doi/lib/python3.8/site-packages/sklearn/base.py:450: UserWarning: X does not have valid feature names, but RandomForestRegressor was fitted with feature names
  warnings.warn(
/home/deamonpog/miniconda3/envs/doi/lib/python3.8/site-packages/sklearn/base.py:450: UserWarning: X does not have valid feature names, but RandomForestRegressor was fitted with feature names
  warnings.warn(
/home/deamonpog/miniconda3/envs/doi/lib/python3.8/site-packages/sklearn/base.py:450: UserWarning: X does not have valid feature names, but RandomForestRegressor was fitted with feature names
  warnings.warn(
/home/deamonpog/miniconda3/envs/doi/lib/python3.8/site-packages/sklearn/base.py:450: UserWarning: X does not have valid feature names, but RandomForestRegressor was fitted with feature names
  warnings.warn(
/home/deamonpog/miniconda3/envs/doi/lib/python3.8/site-packages/sklearn/base.py:450: UserWarning: X does not have valid feature names, but RandomForestRegressor was fitted with feature names
  warnings.warn(
/home/deamonpog/miniconda3/envs/doi/lib/python3.8/site-packages/sklearn/base.py:450: UserWarning: X does not have valid feature names, but RandomForestRegressor was fitted with feature names
  warnings.warn(
/home/deamonpog/miniconda3/envs/doi/lib/python3.8/site-packages/sklearn/base.py:450: UserWarning: X does not have valid feature names, but RandomForestRegressor was fitted with feature names
  warnings.warn(
/home/deamonpog/miniconda3/envs/doi/lib/python3.8/site-packages/sklearn/base.py:450: UserWarning: X does not have valid feature names, but RandomForestRegressor was fitted with feature names
  warnings.warn(
/home/deamonpog/miniconda3/envs/doi/lib/python3.8/site-packages/sklearn/base.py:450: UserWarning: X does not have valid feature names, but RandomForestRegressor was fitted with feature names
  warnings.warn(
/home/deamonpog/miniconda3/envs/doi/lib/python3.8/site-packages/sklearn/base.py:450: UserWarning: X does not have valid feature names, but RandomForestRegressor was fitted with feature names
  warnings.warn(
/home/deamonpog/miniconda3/envs/doi/lib/python3.8/site-packages/sklearn/base.py:450: UserWarning: X does not have valid feature names, but RandomForestRegressor was fitted with feature names
  warnings.warn(
/home/deamonpog/miniconda3/envs/doi/lib/python3.8/site-packages/sklearn/base.py:450: UserWarning: X does not have valid feature names, but RandomForestRegressor was fitted with feature names
  warnings.warn(
/home/deamonpog/miniconda3/envs/doi/lib/python3.8/site-packages/sklearn/base.py:450: UserWarning: X does not have valid feature names, but RandomForestRegressor was fitted with feature names
  warnings.warn(
/home/deamonpog/miniconda3/envs/doi/lib/python3.8/site-packages/sklearn/base.py:450: UserWarning: X does not have valid feature names, but RandomForestRegressor was fitted with feature names
  warnings.warn(
/home/deamonpog/miniconda3/envs/doi/lib/python3.8/site-packages/sklearn/base.py:450: UserWarning: X does not have valid feature names, but RandomForestRegressor was fitted with feature names
  warnings.warn(
/home/deamonpog/miniconda3/envs/doi/lib/python3.8/site-packages/sklearn/base.py:450: UserWarning: X does not have valid feature names, but RandomForestRegressor was fitted with feature names
  warnings.warn(
/home/deamonpog/miniconda3/envs/doi/lib/python3.8/site-packages/sklearn/base.py:450: UserWarning: X does not have valid feature names, but RandomForestRegressor was fitted with feature names
  warnings.warn(
Processing : ./outputs/10x10CSV/anti_debt_infrastructure_29_of_163__binned_10x10.csv
Unknown args : []
Beta : 0.59
Initial Infects : 0.05
GT:
    timebinMid  valbinMid
0        0.05       0.05
1        0.15       0.15
2        0.25       0.15
3        0.35       0.25
4        0.45       0.45
5        0.55       0.55
6        0.65       0.65
7        0.75       0.85
8        0.85       0.85
9        0.95       0.95
setting meta values
Seting up took :0.0022988200187683107 minutes
Starting evolve
--- Starting GP Run 0 ---
gen	nevals	avg    	std     	min     	max    
0  	50    	0.70483	0.405162	0.124671	2.74095
1  	50    	0.528694	0.209895	0.150815	1.17753
2  	50    	0.482426	0.188026	0.150815	0.829714
3  	50    	0.445896	0.149149	0.149363	0.779716
4  	50    	0.527688	0.225461	0.175506	1.50823 
5  	50    	0.546318	0.376586	0.162511	2.14563 
6  	50    	0.461433	0.137512	0.206955	0.882886
7  	50    	0.486856	0.200086	0.199731	1.40575 
8  	50    	0.493773	0.289606	0.181651	2.20663 
9  	50    	0.55924 	0.3414  	0.224889	2.54836 
10 	50    	0.526776	0.341836	0.212354	2.57754 
11 	50    	0.438213	0.196158	0.179605	1.22363 
12 	50    	0.432648	0.168531	0.203235	0.779716
13 	50    	0.468962	0.358873	0.18621 	2.74095 
14 	50    	0.426149	0.309449	0.173605	2.32614 
15 	50    	0.40607 	0.14262 	0.181651	0.82379 
16 	50    	0.409914	0.139661	0.130613	0.779716
17 	50    	0.413026	0.175122	0.206879	1.17653 
18 	50    	0.384903	0.172314	0.156511	1.13429 
19 	50    	0.403711	0.141998	0.205817	0.781013
20 	50    	0.410131	0.124655	0.178543	0.700706
21 	50    	0.408656	0.142648	0.206955	0.82379 
22 	50    	0.460158	0.388417	0.150815	2.96317 
23 	50    	0.409242	0.116475	0.173605	0.749716
24 	50    	0.431101	0.146877	0.224889	0.784121
25 	50    	0.396886	0.144434	0.18621 	0.813156
26 	50    	0.416056	0.180139	0.124146	0.781013
27 	50    	0.43546 	0.209525	0.215839	1.43415 
28 	50    	0.488688	0.337624	0.212354	2.57754 
29 	50    	0.412517	0.113076	0.173605	0.779716
30 	50    	0.413853	0.155631	0.162511	1.17918 
31 	50    	0.397751	0.145554	0.162511	0.922556
32 	50    	0.437738	0.185245	0.18621 	1.1014  
33 	50    	0.466001	0.212621	0.181651	1.36191 
34 	50    	0.378597	0.114206	0.173605	0.725474
35 	50    	0.437874	0.252438	0.162511	1.92341 
36 	50    	0.421131	0.196257	0.156511	1.25326 
37 	50    	0.407333	0.153423	0.18621 	0.886169
38 	50    	0.384478	0.12424 	0.173605	0.813156
39 	50    	0.480467	0.363201	0.173605	2.84465 
40 	50    	0.400775	0.149088	0.162511	0.779716
41 	50    	0.436233	0.138392	0.248741	0.807156
42 	50    	0.399579	0.120961	0.178543	0.749716
43 	50    	0.36584 	0.116223	0.0872989	0.583786
44 	50    	0.390474	0.140974	0.162511 	0.779716
45 	50    	0.403934	0.123597	0.182188 	0.784121
46 	50    	0.510776	0.465426	0.216307 	2.62243 
47 	50    	0.403452	0.146483	0.135765 	0.922556
48 	50    	0.397004	0.154911	0.178543 	0.780408
49 	50    	0.389863	0.116579	0.162435 	0.779716
50 	50    	0.372888	0.0760642	0.148914 	0.508803
--- Genetic program runs finished, output written to outputs/EMD/anti_debt_infrastructure_FactorScores.csv ---
EMD.Evolve up took :29.839277350902556 minutes
Factor Importance Calc took :1790.362453699112 seconds
     intasconstantprobabilityovertotalinfected  ...  constasnx
0                                     0.001583  ...   0.293244
1                                     0.001669  ...   0.293092
2                                     0.002082  ...   0.293092
3                                     0.002288  ...   0.293683
4                                     0.002288  ...   0.293170
..                                         ...  ...        ...
515                                   0.002082  ...   0.293100
516                                   0.002288  ...   0.293018
517                                   0.001669  ...   0.293092
518                                   0.001550  ...   0.293244
519                                   0.002288  ...   0.293092

[520 rows x 12 columns]
   intasconstantprobabilityovertotalinfected  ...  fractbyrand
0                                   0.001476  ...     9.534351
1                                   0.001428  ...     9.654609
2                                   0.001315  ...     9.972733
3                                   0.001315  ...     9.493868
4                                   0.001234  ...     9.864283
5                                   0.001840  ...     9.814065
6                                   0.001315  ...     9.735202
7                                   0.001315  ...     9.462295
8                                   0.001083  ...     9.704573
9                                   0.001614  ...     9.491002

[10 rows x 12 columns]
