ERROR:root:Exception while sending command.
Traceback (most recent call last):
  File "/home/deamonpog/miniconda3/envs/doi/lib/python3.8/site-packages/py4j/java_gateway.py", line 1217, in send_command
    answer = smart_decode(self.stream.readline()[:-1])
  File "/home/deamonpog/miniconda3/envs/doi/lib/python3.8/socket.py", line 669, in readinto
    return self._sock.recv_into(b)
ConnectionResetError: [Errno 104] Connection reset by peer

During handling of the above exception, another exception occurred:

Traceback (most recent call last):
  File "/home/deamonpog/miniconda3/envs/doi/lib/python3.8/site-packages/py4j/java_gateway.py", line 1038, in send_command
    response = connection.send_command(command)
  File "/home/deamonpog/miniconda3/envs/doi/lib/python3.8/site-packages/py4j/java_gateway.py", line 1228, in send_command
    raise Py4JNetworkError(
py4j.protocol.Py4JNetworkError: Error while receiving
ERROR:root:Exception while sending command.
Traceback (most recent call last):
  File "/home/deamonpog/miniconda3/envs/doi/lib/python3.8/site-packages/py4j/java_gateway.py", line 1217, in send_command
    answer = smart_decode(self.stream.readline()[:-1])
  File "/home/deamonpog/miniconda3/envs/doi/lib/python3.8/socket.py", line 669, in readinto
    return self._sock.recv_into(b)
ConnectionResetError: [Errno 104] Connection reset by peer

During handling of the above exception, another exception occurred:

Traceback (most recent call last):
  File "/home/deamonpog/miniconda3/envs/doi/lib/python3.8/site-packages/py4j/java_gateway.py", line 1038, in send_command
    response = connection.send_command(command)
  File "/home/deamonpog/miniconda3/envs/doi/lib/python3.8/site-packages/py4j/java_gateway.py", line 1228, in send_command
    raise Py4JNetworkError(
py4j.protocol.Py4JNetworkError: Error while receiving
ERROR:root:Exception while sending command.
Traceback (most recent call last):
  File "/home/deamonpog/miniconda3/envs/doi/lib/python3.8/site-packages/py4j/java_gateway.py", line 1217, in send_command
    answer = smart_decode(self.stream.readline()[:-1])
  File "/home/deamonpog/miniconda3/envs/doi/lib/python3.8/socket.py", line 669, in readinto
    return self._sock.recv_into(b)
ConnectionResetError: [Errno 104] Connection reset by peer

During handling of the above exception, another exception occurred:

Traceback (most recent call last):
  File "/home/deamonpog/miniconda3/envs/doi/lib/python3.8/site-packages/py4j/java_gateway.py", line 1038, in send_command
    response = connection.send_command(command)
  File "/home/deamonpog/miniconda3/envs/doi/lib/python3.8/site-packages/py4j/java_gateway.py", line 1228, in send_command
    raise Py4JNetworkError(
py4j.protocol.Py4JNetworkError: Error while receiving
ERROR:root:Exception while sending command.
Traceback (most recent call last):
  File "/home/deamonpog/miniconda3/envs/doi/lib/python3.8/site-packages/py4j/java_gateway.py", line 1217, in send_command
    answer = smart_decode(self.stream.readline()[:-1])
  File "/home/deamonpog/miniconda3/envs/doi/lib/python3.8/socket.py", line 669, in readinto
    return self._sock.recv_into(b)
ConnectionResetError: [Errno 104] Connection reset by peer

During handling of the above exception, another exception occurred:

Traceback (most recent call last):
  File "/home/deamonpog/miniconda3/envs/doi/lib/python3.8/site-packages/py4j/java_gateway.py", line 1038, in send_command
    response = connection.send_command(command)
  File "/home/deamonpog/miniconda3/envs/doi/lib/python3.8/site-packages/py4j/java_gateway.py", line 1228, in send_command
    raise Py4JNetworkError(
py4j.protocol.Py4JNetworkError: Error while receiving
ERROR:root:Exception while sending command.
Traceback (most recent call last):
  File "/home/deamonpog/miniconda3/envs/doi/lib/python3.8/site-packages/py4j/java_gateway.py", line 1217, in send_command
    answer = smart_decode(self.stream.readline()[:-1])
  File "/home/deamonpog/miniconda3/envs/doi/lib/python3.8/socket.py", line 669, in readinto
    return self._sock.recv_into(b)
ConnectionResetError: [Errno 104] Connection reset by peer

During handling of the above exception, another exception occurred:

Traceback (most recent call last):
  File "/home/deamonpog/miniconda3/envs/doi/lib/python3.8/site-packages/py4j/java_gateway.py", line 1038, in send_command
    response = connection.send_command(command)
  File "/home/deamonpog/miniconda3/envs/doi/lib/python3.8/site-packages/py4j/java_gateway.py", line 1228, in send_command
    raise Py4JNetworkError(
py4j.protocol.Py4JNetworkError: Error while receiving
ERROR:root:Exception while sending command.
Traceback (most recent call last):
  File "/home/deamonpog/miniconda3/envs/doi/lib/python3.8/site-packages/py4j/java_gateway.py", line 1217, in send_command
    answer = smart_decode(self.stream.readline()[:-1])
  File "/home/deamonpog/miniconda3/envs/doi/lib/python3.8/socket.py", line 669, in readinto
    return self._sock.recv_into(b)
ConnectionResetError: [Errno 104] Connection reset by peer

During handling of the above exception, another exception occurred:

Traceback (most recent call last):
  File "/home/deamonpog/miniconda3/envs/doi/lib/python3.8/site-packages/py4j/java_gateway.py", line 1038, in send_command
    response = connection.send_command(command)
  File "/home/deamonpog/miniconda3/envs/doi/lib/python3.8/site-packages/py4j/java_gateway.py", line 1228, in send_command
    raise Py4JNetworkError(
py4j.protocol.Py4JNetworkError: Error while receiving
Processing : ./outputs/10x10CSV/debt_pro_127_of_163__binned_10x10.csv
Unknown args : []
Beta : 0.59
Initial Infects : 0.05
GT:
    timebinMid  valbinMid
0        0.05       0.05
1        0.15       0.15
2        0.25       0.25
3        0.35       0.35
4        0.45       0.45
5        0.55       0.55
6        0.65       0.65
7        0.75       0.75
8        0.85       0.85
9        0.95       0.95
setting meta values
Seting up took :0.004424981276194255 minutes
Starting evolve
--- Starting GP Run 0 ---
Traceback (most recent call last):
  File "runemd_batch.py", line 134, in <module>
ERROR:root:Exception while sending command.
Traceback (most recent call last):
  File "/home/deamonpog/miniconda3/envs/doi/lib/python3.8/site-packages/py4j/java_gateway.py", line 1217, in send_command
    answer = smart_decode(self.stream.readline()[:-1])
  File "/home/deamonpog/miniconda3/envs/doi/lib/python3.8/socket.py", line 669, in readinto
    return self._sock.recv_into(b)
ConnectionResetError: [Errno 104] Connection reset by peer

During handling of the above exception, another exception occurred:

Traceback (most recent call last):
  File "/home/deamonpog/miniconda3/envs/doi/lib/python3.8/site-packages/py4j/java_gateway.py", line 1038, in send_command
    response = connection.send_command(command)
  File "/home/deamonpog/miniconda3/envs/doi/lib/python3.8/site-packages/py4j/java_gateway.py", line 1228, in send_command
    raise Py4JNetworkError(
py4j.protocol.Py4JNetworkError: Error while receiving
    emd.evolve()
  File "/home/deamonpog/miniconda3/envs/doi/lib/python3.8/site-packages/EvolutionaryModelDiscovery/__init__.py", line 141, in evolve
    self.population, self.logbook, self.factor_scores = self.gp.evolve(num_procs=num_procs)
  File "/home/deamonpog/miniconda3/envs/doi/lib/python3.8/site-packages/EvolutionaryModelDiscovery/SimpleDEAPGP.py", line 176, in evolve
ERROR:root:Exception while sending command.
Traceback (most recent call last):
  File "/home/deamonpog/miniconda3/envs/doi/lib/python3.8/site-packages/py4j/java_gateway.py", line 1217, in send_command
    answer = smart_decode(self.stream.readline()[:-1])
  File "/home/deamonpog/miniconda3/envs/doi/lib/python3.8/socket.py", line 669, in readinto
    return self._sock.recv_into(b)
ConnectionResetError: [Errno 104] Connection reset by peer

During handling of the above exception, another exception occurred:

Traceback (most recent call last):
  File "/home/deamonpog/miniconda3/envs/doi/lib/python3.8/site-packages/py4j/java_gateway.py", line 1038, in send_command
    response = connection.send_command(command)
  File "/home/deamonpog/miniconda3/envs/doi/lib/python3.8/site-packages/py4j/java_gateway.py", line 1228, in send_command
    raise Py4JNetworkError(
py4j.protocol.Py4JNetworkError: Error while receiving
ERROR:py4j.java_gateway:An error occurred while trying to connect to the Java server (127.0.0.1:25333)
Traceback (most recent call last):
  File "/home/deamonpog/miniconda3/envs/doi/lib/python3.8/site-packages/py4j/java_gateway.py", line 982, in _get_connection
    connection = self.deque.pop()
IndexError: pop from an empty deque

During handling of the above exception, another exception occurred:

Traceback (most recent call last):
  File "/home/deamonpog/miniconda3/envs/doi/lib/python3.8/site-packages/py4j/java_gateway.py", line 1132, in start
    self.socket.connect((self.address, self.port))
ConnectionRefusedError: [Errno 111] Connection refused
    results = list(pool.imap(evaluate, invalid_ind))
  File "/home/deamonpog/miniconda3/envs/doi/lib/python3.8/multiprocessing/pool.py", line 868, in next
ERROR:py4j.java_gateway:An error occurred while trying to connect to the Java server (127.0.0.1:25333)
Traceback (most recent call last):
  File "/home/deamonpog/miniconda3/envs/doi/lib/python3.8/site-packages/py4j/java_gateway.py", line 982, in _get_connection
    connection = self.deque.pop()
IndexError: pop from an empty deque

During handling of the above exception, another exception occurred:

Traceback (most recent call last):
  File "/home/deamonpog/miniconda3/envs/doi/lib/python3.8/site-packages/py4j/java_gateway.py", line 1132, in start
    self.socket.connect((self.address, self.port))
ConnectionRefusedError: [Errno 111] Connection refused
    raise value
  File "/home/deamonpog/miniconda3/envs/doi/lib/python3.8/multiprocessing/pool.py", line 125, in worker
ERROR:py4j.java_gateway:An error occurred while trying to connect to the Java server (127.0.0.1:25333)
Traceback (most recent call last):
  File "/home/deamonpog/miniconda3/envs/doi/lib/python3.8/site-packages/py4j/java_gateway.py", line 982, in _get_connection
    connection = self.deque.pop()
IndexError: pop from an empty deque

During handling of the above exception, another exception occurred:

Traceback (most recent call last):
  File "/home/deamonpog/miniconda3/envs/doi/lib/python3.8/site-packages/py4j/java_gateway.py", line 1132, in start
    self.socket.connect((self.address, self.port))
ConnectionRefusedError: [Errno 111] Connection refused
    result = (True, func(*args, **kwds))
  File "/home/deamonpog/miniconda3/envs/doi/lib/python3.8/site-packages/EvolutionaryModelDiscovery/ABMEvaluator.py", line 54, in evaluate
ERROR:py4j.java_gateway:An error occurred while trying to connect to the Java server (127.0.0.1:25333)
Traceback (most recent call last):
  File "/home/deamonpog/miniconda3/envs/doi/lib/python3.8/site-packages/py4j/java_gateway.py", line 982, in _get_connection
    connection = self.deque.pop()
IndexError: pop from an empty deque

During handling of the above exception, another exception occurred:

Traceback (most recent call last):
  File "/home/deamonpog/miniconda3/envs/doi/lib/python3.8/site-packages/py4j/java_gateway.py", line 1132, in start
    self.socket.connect((self.address, self.port))
ConnectionRefusedError: [Errno 111] Connection refused
    fitness = simulate(newModelPath, MODEL_INIT_DATA["setup_commands"], 
  File "/home/deamonpog/miniconda3/envs/doi/lib/python3.8/site-packages/EvolutionaryModelDiscovery/ABMEvaluator.py", line 77, in simulate
ERROR:py4j.java_gateway:An error occurred while trying to connect to the Java server (127.0.0.1:25333)
Traceback (most recent call last):
  File "/home/deamonpog/miniconda3/envs/doi/lib/python3.8/site-packages/py4j/java_gateway.py", line 982, in _get_connection
    connection = self.deque.pop()
IndexError: pop from an empty deque

During handling of the above exception, another exception occurred:

Traceback (most recent call last):
  File "/home/deamonpog/miniconda3/envs/doi/lib/python3.8/site-packages/py4j/java_gateway.py", line 1132, in start
    self.socket.connect((self.address, self.port))
ConnectionRefusedError: [Errno 111] Connection refused
    workspace = nl4py.create_headless_workspace()
  File "/home/deamonpog/miniconda3/envs/doi/lib/python3.8/site-packages/nl4py/__init__.py", line 48, in create_headless_workspace
    return netlogoWorkspaceFactory.newNetLogoHeadlessWorkspace()
  File "/home/deamonpog/miniconda3/envs/doi/lib/python3.8/site-packages/nl4py/NetLogoWorkspaceFactory.py", line 38, in newNetLogoHeadlessWorkspace
    n = NetLogoHeadlessWorkspace(self.server_port)
  File "/home/deamonpog/miniconda3/envs/doi/lib/python3.8/site-packages/nl4py/NetLogoHeadlessWorkspace.py", line 38, in __init__
    self.java_server = server_gateway.jvm.nl4py.server.NetLogoControllerServer()
  File "/home/deamonpog/miniconda3/envs/doi/lib/python3.8/site-packages/py4j/java_gateway.py", line 1722, in __getattr__
    raise Py4JError(message)
py4j.protocol.Py4JError: nl4py does not exist in the JVM
ERROR:root:Exception while sending command.
Traceback (most recent call last):
  File "/home/deamonpog/miniconda3/envs/doi/lib/python3.8/site-packages/py4j/java_gateway.py", line 1224, in send_command
    raise Py4JNetworkError("Answer from Java side is empty")
py4j.protocol.Py4JNetworkError: Answer from Java side is empty

During handling of the above exception, another exception occurred:

Traceback (most recent call last):
  File "/home/deamonpog/miniconda3/envs/doi/lib/python3.8/site-packages/py4j/java_gateway.py", line 1038, in send_command
    response = connection.send_command(command)
  File "/home/deamonpog/miniconda3/envs/doi/lib/python3.8/site-packages/py4j/java_gateway.py", line 1228, in send_command
    raise Py4JNetworkError(
py4j.protocol.Py4JNetworkError: Error while receiving
