timebin,valbin,timebinMid,valbinMid
"(0.0, 0.1]","(0.0, 0.1]",0.05,0.05
"(0.0, 0.1]","(0.0, 0.1]",0.05,0.05
"(0.0, 0.1]","(0.0, 0.1]",0.05,0.05
"(0.0, 0.1]","(0.0, 0.1]",0.05,0.05
"(0.0, 0.1]","(0.0, 0.1]",0.05,0.05
"(0.0, 0.1]","(0.0, 0.1]",0.05,0.05
"(0.0, 0.1]","(0.0, 0.1]",0.05,0.05
"(0.0, 0.1]","(0.0, 0.1]",0.05,0.05
"(0.0, 0.1]","(0.0, 0.1]",0.05,0.05
"(0.0, 0.1]","(0.0, 0.1]",0.05,0.05
"(0.0, 0.1]","(0.0, 0.1]",0.05,0.05
"(0.0, 0.1]","(0.0, 0.1]",0.05,0.05
"(0.0, 0.1]","(0.0, 0.1]",0.05,0.05
"(0.0, 0.1]","(0.0, 0.1]",0.05,0.05
"(0.0, 0.1]","(0.0, 0.1]",0.05,0.05
"(0.0, 0.1]","(0.0, 0.1]",0.05,0.05
"(0.0, 0.1]","(0.0, 0.1]",0.05,0.05
"(0.0, 0.1]","(0.0, 0.1]",0.05,0.05
"(0.0, 0.1]","(0.0, 0.1]",0.05,0.05
"(0.0, 0.1]","(0.0, 0.1]",0.05,0.05
"(0.0, 0.1]","(0.0, 0.1]",0.05,0.05
"(0.0, 0.1]","(0.0, 0.1]",0.05,0.05
"(0.0, 0.1]","(0.0, 0.1]",0.05,0.05
"(0.0, 0.1]","(0.0, 0.1]",0.05,0.05
"(0.0, 0.1]","(0.0, 0.1]",0.05,0.05
"(0.0, 0.1]","(0.0, 0.1]",0.05,0.05
"(0.0, 0.1]","(0.0, 0.1]",0.05,0.05
"(0.0, 0.1]","(0.0, 0.1]",0.05,0.05
"(0.0, 0.1]","(0.0, 0.1]",0.05,0.05
"(0.0, 0.1]","(0.0, 0.1]",0.05,0.05
"(0.0, 0.1]","(0.0, 0.1]",0.05,0.05
"(0.0, 0.1]","(0.0, 0.1]",0.05,0.05
"(0.0, 0.1]","(0.0, 0.1]",0.05,0.05
"(0.0, 0.1]","(0.0, 0.1]",0.05,0.05
"(0.0, 0.1]","(0.0, 0.1]",0.05,0.05
"(0.0, 0.1]","(0.0, 0.1]",0.05,0.05
"(0.0, 0.1]","(0.0, 0.1]",0.05,0.05
"(0.0, 0.1]","(0.0, 0.1]",0.05,0.05
"(0.0, 0.1]","(0.0, 0.1]",0.05,0.05
"(0.0, 0.1]","(0.0, 0.1]",0.05,0.05
"(0.0, 0.1]","(0.0, 0.1]",0.05,0.05
"(0.0, 0.1]","(0.0, 0.1]",0.05,0.05
"(0.0, 0.1]","(0.0, 0.1]",0.05,0.05
"(0.0, 0.1]","(0.0, 0.1]",0.05,0.05
"(0.0, 0.1]","(0.0, 0.1]",0.05,0.05
"(0.0, 0.1]","(0.0, 0.1]",0.05,0.05
"(0.0, 0.1]","(0.0, 0.1]",0.05,0.05
"(0.0, 0.1]","(0.0, 0.1]",0.05,0.05
"(0.0, 0.1]","(0.0, 0.1]",0.05,0.05
"(0.0, 0.1]","(0.0, 0.1]",0.05,0.05
"(0.0, 0.1]","(0.0, 0.1]",0.05,0.05
"(0.0, 0.1]","(0.0, 0.1]",0.05,0.05
"(0.0, 0.1]","(0.0, 0.1]",0.05,0.05
"(0.0, 0.1]","(0.0, 0.1]",0.05,0.05
"(0.0, 0.1]","(0.0, 0.1]",0.05,0.05
"(0.0, 0.1]","(0.0, 0.1]",0.05,0.05
"(0.0, 0.1]","(0.0, 0.1]",0.05,0.05
"(0.0, 0.1]","(0.0, 0.1]",0.05,0.05
"(0.0, 0.1]","(0.0, 0.1]",0.05,0.05
"(0.0, 0.1]","(0.0, 0.1]",0.05,0.05
"(0.0, 0.1]","(0.0, 0.1]",0.05,0.05
"(0.0, 0.1]","(0.0, 0.1]",0.05,0.05
"(0.0, 0.1]","(0.0, 0.1]",0.05,0.05
"(0.0, 0.1]","(0.0, 0.1]",0.05,0.05
"(0.0, 0.1]","(0.0, 0.1]",0.05,0.05
"(0.0, 0.1]","(0.0, 0.1]",0.05,0.05
"(0.0, 0.1]","(0.0, 0.1]",0.05,0.05
"(0.0, 0.1]","(0.0, 0.1]",0.05,0.05
"(0.0, 0.1]","(0.0, 0.1]",0.05,0.05
"(0.0, 0.1]","(0.0, 0.1]",0.05,0.05
"(0.0, 0.1]","(0.0, 0.1]",0.05,0.05
"(0.0, 0.1]","(0.0, 0.1]",0.05,0.05
"(0.0, 0.1]","(0.0, 0.1]",0.05,0.05
"(0.0, 0.1]","(0.0, 0.1]",0.05,0.05
"(0.0, 0.1]","(0.0, 0.1]",0.05,0.05
"(0.0, 0.1]","(0.0, 0.1]",0.05,0.05
"(0.0, 0.1]","(0.0, 0.1]",0.05,0.05
"(0.0, 0.1]","(0.0, 0.1]",0.05,0.05
"(0.0, 0.1]","(0.0, 0.1]",0.05,0.05
"(0.0, 0.1]","(0.0, 0.1]",0.05,0.05
"(0.0, 0.1]","(0.0, 0.1]",0.05,0.05
"(0.0, 0.1]","(0.0, 0.1]",0.05,0.05
"(0.0, 0.1]","(0.0, 0.1]",0.05,0.05
"(0.0, 0.1]","(0.1, 0.2]",0.05,0.15000000000000002
"(0.0, 0.1]","(0.1, 0.2]",0.05,0.15000000000000002
"(0.0, 0.1]","(0.1, 0.2]",0.05,0.15000000000000002
"(0.0, 0.1]","(0.1, 0.2]",0.05,0.15000000000000002
"(0.0, 0.1]","(0.1, 0.2]",0.05,0.15000000000000002
"(0.0, 0.1]","(0.1, 0.2]",0.05,0.15000000000000002
"(0.0, 0.1]","(0.1, 0.2]",0.05,0.15000000000000002
"(0.0, 0.1]","(0.1, 0.2]",0.05,0.15000000000000002
"(0.0, 0.1]","(0.1, 0.2]",0.05,0.15000000000000002
"(0.0, 0.1]","(0.1, 0.2]",0.05,0.15000000000000002
"(0.0, 0.1]","(0.1, 0.2]",0.05,0.15000000000000002
"(0.0, 0.1]","(0.1, 0.2]",0.05,0.15000000000000002
"(0.0, 0.1]","(0.1, 0.2]",0.05,0.15000000000000002
"(0.0, 0.1]","(0.1, 0.2]",0.05,0.15000000000000002
"(0.0, 0.1]","(0.1, 0.2]",0.05,0.15000000000000002
"(0.0, 0.1]","(0.1, 0.2]",0.05,0.15000000000000002
"(0.0, 0.1]","(0.1, 0.2]",0.05,0.15000000000000002
"(0.0, 0.1]","(0.1, 0.2]",0.05,0.15000000000000002
"(0.1, 0.2]","(0.1, 0.2]",0.15000000000000002,0.15000000000000002
"(0.1, 0.2]","(0.1, 0.2]",0.15000000000000002,0.15000000000000002
"(0.1, 0.2]","(0.1, 0.2]",0.15000000000000002,0.15000000000000002
"(0.1, 0.2]","(0.1, 0.2]",0.15000000000000002,0.15000000000000002
"(0.1, 0.2]","(0.1, 0.2]",0.15000000000000002,0.15000000000000002
"(0.1, 0.2]","(0.1, 0.2]",0.15000000000000002,0.15000000000000002
"(0.1, 0.2]","(0.1, 0.2]",0.15000000000000002,0.15000000000000002
"(0.1, 0.2]","(0.1, 0.2]",0.15000000000000002,0.15000000000000002
"(0.1, 0.2]","(0.1, 0.2]",0.15000000000000002,0.15000000000000002
"(0.1, 0.2]","(0.1, 0.2]",0.15000000000000002,0.15000000000000002
"(0.1, 0.2]","(0.1, 0.2]",0.15000000000000002,0.15000000000000002
"(0.1, 0.2]","(0.1, 0.2]",0.15000000000000002,0.15000000000000002
"(0.1, 0.2]","(0.1, 0.2]",0.15000000000000002,0.15000000000000002
"(0.1, 0.2]","(0.1, 0.2]",0.15000000000000002,0.15000000000000002
"(0.1, 0.2]","(0.1, 0.2]",0.15000000000000002,0.15000000000000002
"(0.1, 0.2]","(0.1, 0.2]",0.15000000000000002,0.15000000000000002
"(0.1, 0.2]","(0.1, 0.2]",0.15000000000000002,0.15000000000000002
"(0.1, 0.2]","(0.1, 0.2]",0.15000000000000002,0.15000000000000002
"(0.1, 0.2]","(0.1, 0.2]",0.15000000000000002,0.15000000000000002
"(0.1, 0.2]","(0.1, 0.2]",0.15000000000000002,0.15000000000000002
"(0.1, 0.2]","(0.1, 0.2]",0.15000000000000002,0.15000000000000002
"(0.1, 0.2]","(0.1, 0.2]",0.15000000000000002,0.15000000000000002
"(0.1, 0.2]","(0.1, 0.2]",0.15000000000000002,0.15000000000000002
"(0.1, 0.2]","(0.1, 0.2]",0.15000000000000002,0.15000000000000002
"(0.1, 0.2]","(0.1, 0.2]",0.15000000000000002,0.15000000000000002
"(0.1, 0.2]","(0.1, 0.2]",0.15000000000000002,0.15000000000000002
"(0.1, 0.2]","(0.1, 0.2]",0.15000000000000002,0.15000000000000002
"(0.1, 0.2]","(0.1, 0.2]",0.15000000000000002,0.15000000000000002
"(0.1, 0.2]","(0.1, 0.2]",0.15000000000000002,0.15000000000000002
"(0.1, 0.2]","(0.1, 0.2]",0.15000000000000002,0.15000000000000002
"(0.1, 0.2]","(0.1, 0.2]",0.15000000000000002,0.15000000000000002
"(0.1, 0.2]","(0.1, 0.2]",0.15000000000000002,0.15000000000000002
"(0.1, 0.2]","(0.1, 0.2]",0.15000000000000002,0.15000000000000002
"(0.1, 0.2]","(0.1, 0.2]",0.15000000000000002,0.15000000000000002
"(0.1, 0.2]","(0.1, 0.2]",0.15000000000000002,0.15000000000000002
"(0.1, 0.2]","(0.1, 0.2]",0.15000000000000002,0.15000000000000002
"(0.1, 0.2]","(0.1, 0.2]",0.15000000000000002,0.15000000000000002
"(0.1, 0.2]","(0.1, 0.2]",0.15000000000000002,0.15000000000000002
"(0.1, 0.2]","(0.1, 0.2]",0.15000000000000002,0.15000000000000002
"(0.1, 0.2]","(0.1, 0.2]",0.15000000000000002,0.15000000000000002
"(0.1, 0.2]","(0.1, 0.2]",0.15000000000000002,0.15000000000000002
"(0.1, 0.2]","(0.1, 0.2]",0.15000000000000002,0.15000000000000002
"(0.1, 0.2]","(0.1, 0.2]",0.15000000000000002,0.15000000000000002
"(0.1, 0.2]","(0.1, 0.2]",0.15000000000000002,0.15000000000000002
"(0.1, 0.2]","(0.1, 0.2]",0.15000000000000002,0.15000000000000002
"(0.1, 0.2]","(0.1, 0.2]",0.15000000000000002,0.15000000000000002
"(0.1, 0.2]","(0.1, 0.2]",0.15000000000000002,0.15000000000000002
"(0.1, 0.2]","(0.1, 0.2]",0.15000000000000002,0.15000000000000002
"(0.1, 0.2]","(0.1, 0.2]",0.15000000000000002,0.15000000000000002
"(0.1, 0.2]","(0.1, 0.2]",0.15000000000000002,0.15000000000000002
"(0.1, 0.2]","(0.1, 0.2]",0.15000000000000002,0.15000000000000002
"(0.1, 0.2]","(0.1, 0.2]",0.15000000000000002,0.15000000000000002
"(0.1, 0.2]","(0.1, 0.2]",0.15000000000000002,0.15000000000000002
"(0.1, 0.2]","(0.1, 0.2]",0.15000000000000002,0.15000000000000002
"(0.1, 0.2]","(0.1, 0.2]",0.15000000000000002,0.15000000000000002
"(0.1, 0.2]","(0.1, 0.2]",0.15000000000000002,0.15000000000000002
"(0.1, 0.2]","(0.1, 0.2]",0.15000000000000002,0.15000000000000002
"(0.1, 0.2]","(0.1, 0.2]",0.15000000000000002,0.15000000000000002
"(0.1, 0.2]","(0.1, 0.2]",0.15000000000000002,0.15000000000000002
"(0.1, 0.2]","(0.1, 0.2]",0.15000000000000002,0.15000000000000002
"(0.1, 0.2]","(0.1, 0.2]",0.15000000000000002,0.15000000000000002
"(0.1, 0.2]","(0.1, 0.2]",0.15000000000000002,0.15000000000000002
"(0.1, 0.2]","(0.1, 0.2]",0.15000000000000002,0.15000000000000002
"(0.1, 0.2]","(0.1, 0.2]",0.15000000000000002,0.15000000000000002
"(0.1, 0.2]","(0.1, 0.2]",0.15000000000000002,0.15000000000000002
"(0.1, 0.2]","(0.1, 0.2]",0.15000000000000002,0.15000000000000002
"(0.1, 0.2]","(0.1, 0.2]",0.15000000000000002,0.15000000000000002
"(0.1, 0.2]","(0.1, 0.2]",0.15000000000000002,0.15000000000000002
"(0.1, 0.2]","(0.1, 0.2]",0.15000000000000002,0.15000000000000002
"(0.1, 0.2]","(0.1, 0.2]",0.15000000000000002,0.15000000000000002
"(0.1, 0.2]","(0.2, 0.3]",0.15000000000000002,0.25
"(0.1, 0.2]","(0.2, 0.3]",0.15000000000000002,0.25
"(0.1, 0.2]","(0.2, 0.3]",0.15000000000000002,0.25
"(0.1, 0.2]","(0.2, 0.3]",0.15000000000000002,0.25
"(0.1, 0.2]","(0.2, 0.3]",0.15000000000000002,0.25
"(0.1, 0.2]","(0.2, 0.3]",0.15000000000000002,0.25
"(0.1, 0.2]","(0.2, 0.3]",0.15000000000000002,0.25
"(0.1, 0.2]","(0.2, 0.3]",0.15000000000000002,0.25
"(0.1, 0.2]","(0.2, 0.3]",0.15000000000000002,0.25
"(0.1, 0.2]","(0.2, 0.3]",0.15000000000000002,0.25
"(0.1, 0.2]","(0.2, 0.3]",0.15000000000000002,0.25
"(0.1, 0.2]","(0.2, 0.3]",0.15000000000000002,0.25
"(0.1, 0.2]","(0.2, 0.3]",0.15000000000000002,0.25
"(0.1, 0.2]","(0.2, 0.3]",0.15000000000000002,0.25
"(0.1, 0.2]","(0.2, 0.3]",0.15000000000000002,0.25
"(0.1, 0.2]","(0.2, 0.3]",0.15000000000000002,0.25
"(0.1, 0.2]","(0.2, 0.3]",0.15000000000000002,0.25
"(0.1, 0.2]","(0.2, 0.3]",0.15000000000000002,0.25
"(0.1, 0.2]","(0.2, 0.3]",0.15000000000000002,0.25
"(0.1, 0.2]","(0.2, 0.3]",0.15000000000000002,0.25
"(0.1, 0.2]","(0.2, 0.3]",0.15000000000000002,0.25
"(0.1, 0.2]","(0.2, 0.3]",0.15000000000000002,0.25
"(0.1, 0.2]","(0.2, 0.3]",0.15000000000000002,0.25
"(0.1, 0.2]","(0.2, 0.3]",0.15000000000000002,0.25
"(0.1, 0.2]","(0.2, 0.3]",0.15000000000000002,0.25
"(0.1, 0.2]","(0.2, 0.3]",0.15000000000000002,0.25
"(0.1, 0.2]","(0.2, 0.3]",0.15000000000000002,0.25
"(0.1, 0.2]","(0.2, 0.3]",0.15000000000000002,0.25
"(0.1, 0.2]","(0.2, 0.3]",0.15000000000000002,0.25
"(0.1, 0.2]","(0.2, 0.3]",0.15000000000000002,0.25
"(0.1, 0.2]","(0.2, 0.3]",0.15000000000000002,0.25
"(0.1, 0.2]","(0.2, 0.3]",0.15000000000000002,0.25
"(0.1, 0.2]","(0.2, 0.3]",0.15000000000000002,0.25
"(0.1, 0.2]","(0.2, 0.3]",0.15000000000000002,0.25
"(0.1, 0.2]","(0.2, 0.3]",0.15000000000000002,0.25
"(0.1, 0.2]","(0.2, 0.3]",0.15000000000000002,0.25
"(0.1, 0.2]","(0.2, 0.3]",0.15000000000000002,0.25
"(0.1, 0.2]","(0.2, 0.3]",0.15000000000000002,0.25
"(0.1, 0.2]","(0.2, 0.3]",0.15000000000000002,0.25
"(0.1, 0.2]","(0.2, 0.3]",0.15000000000000002,0.25
"(0.1, 0.2]","(0.2, 0.3]",0.15000000000000002,0.25
"(0.1, 0.2]","(0.2, 0.3]",0.15000000000000002,0.25
"(0.1, 0.2]","(0.2, 0.3]",0.15000000000000002,0.25
"(0.1, 0.2]","(0.2, 0.3]",0.15000000000000002,0.25
"(0.1, 0.2]","(0.2, 0.3]",0.15000000000000002,0.25
"(0.1, 0.2]","(0.2, 0.3]",0.15000000000000002,0.25
"(0.1, 0.2]","(0.2, 0.3]",0.15000000000000002,0.25
"(0.1, 0.2]","(0.2, 0.3]",0.15000000000000002,0.25
"(0.1, 0.2]","(0.2, 0.3]",0.15000000000000002,0.25
"(0.1, 0.2]","(0.2, 0.3]",0.15000000000000002,0.25
"(0.1, 0.2]","(0.2, 0.3]",0.15000000000000002,0.25
"(0.1, 0.2]","(0.2, 0.3]",0.15000000000000002,0.25
"(0.1, 0.2]","(0.2, 0.3]",0.15000000000000002,0.25
"(0.1, 0.2]","(0.2, 0.3]",0.15000000000000002,0.25
"(0.1, 0.2]","(0.2, 0.3]",0.15000000000000002,0.25
"(0.1, 0.2]","(0.2, 0.3]",0.15000000000000002,0.25
"(0.1, 0.2]","(0.2, 0.3]",0.15000000000000002,0.25
"(0.1, 0.2]","(0.2, 0.3]",0.15000000000000002,0.25
"(0.1, 0.2]","(0.2, 0.3]",0.15000000000000002,0.25
"(0.1, 0.2]","(0.2, 0.3]",0.15000000000000002,0.25
"(0.1, 0.2]","(0.2, 0.3]",0.15000000000000002,0.25
"(0.1, 0.2]","(0.2, 0.3]",0.15000000000000002,0.25
"(0.1, 0.2]","(0.2, 0.3]",0.15000000000000002,0.25
"(0.1, 0.2]","(0.2, 0.3]",0.15000000000000002,0.25
"(0.1, 0.2]","(0.2, 0.3]",0.15000000000000002,0.25
"(0.1, 0.2]","(0.2, 0.3]",0.15000000000000002,0.25
"(0.1, 0.2]","(0.2, 0.3]",0.15000000000000002,0.25
"(0.1, 0.2]","(0.2, 0.3]",0.15000000000000002,0.25
"(0.1, 0.2]","(0.2, 0.3]",0.15000000000000002,0.25
"(0.1, 0.2]","(0.2, 0.3]",0.15000000000000002,0.25
"(0.1, 0.2]","(0.2, 0.3]",0.15000000000000002,0.25
"(0.1, 0.2]","(0.2, 0.3]",0.15000000000000002,0.25
"(0.1, 0.2]","(0.2, 0.3]",0.15000000000000002,0.25
"(0.1, 0.2]","(0.2, 0.3]",0.15000000000000002,0.25
"(0.1, 0.2]","(0.2, 0.3]",0.15000000000000002,0.25
"(0.1, 0.2]","(0.2, 0.3]",0.15000000000000002,0.25
"(0.1, 0.2]","(0.2, 0.3]",0.15000000000000002,0.25
"(0.1, 0.2]","(0.2, 0.3]",0.15000000000000002,0.25
"(0.1, 0.2]","(0.2, 0.3]",0.15000000000000002,0.25
"(0.1, 0.2]","(0.2, 0.3]",0.15000000000000002,0.25
"(0.1, 0.2]","(0.2, 0.3]",0.15000000000000002,0.25
"(0.1, 0.2]","(0.2, 0.3]",0.15000000000000002,0.25
"(0.1, 0.2]","(0.2, 0.3]",0.15000000000000002,0.25
"(0.1, 0.2]","(0.2, 0.3]",0.15000000000000002,0.25
"(0.1, 0.2]","(0.2, 0.3]",0.15000000000000002,0.25
"(0.1, 0.2]","(0.3, 0.4]",0.15000000000000002,0.35
"(0.2, 0.3]","(0.3, 0.4]",0.25,0.35
"(0.2, 0.3]","(0.3, 0.4]",0.25,0.35
"(0.2, 0.3]","(0.3, 0.4]",0.25,0.35
"(0.2, 0.3]","(0.3, 0.4]",0.25,0.35
"(0.2, 0.3]","(0.3, 0.4]",0.25,0.35
"(0.2, 0.3]","(0.3, 0.4]",0.25,0.35
"(0.2, 0.3]","(0.3, 0.4]",0.25,0.35
"(0.2, 0.3]","(0.3, 0.4]",0.25,0.35
"(0.2, 0.3]","(0.3, 0.4]",0.25,0.35
"(0.2, 0.3]","(0.3, 0.4]",0.25,0.35
"(0.2, 0.3]","(0.3, 0.4]",0.25,0.35
"(0.2, 0.3]","(0.3, 0.4]",0.25,0.35
"(0.2, 0.3]","(0.3, 0.4]",0.25,0.35
"(0.2, 0.3]","(0.3, 0.4]",0.25,0.35
"(0.2, 0.3]","(0.3, 0.4]",0.25,0.35
"(0.2, 0.3]","(0.3, 0.4]",0.25,0.35
"(0.2, 0.3]","(0.3, 0.4]",0.25,0.35
"(0.2, 0.3]","(0.3, 0.4]",0.25,0.35
"(0.2, 0.3]","(0.3, 0.4]",0.25,0.35
"(0.2, 0.3]","(0.3, 0.4]",0.25,0.35
"(0.2, 0.3]","(0.3, 0.4]",0.25,0.35
"(0.2, 0.3]","(0.3, 0.4]",0.25,0.35
"(0.2, 0.3]","(0.3, 0.4]",0.25,0.35
"(0.2, 0.3]","(0.3, 0.4]",0.25,0.35
"(0.2, 0.3]","(0.3, 0.4]",0.25,0.35
"(0.2, 0.3]","(0.3, 0.4]",0.25,0.35
"(0.2, 0.3]","(0.3, 0.4]",0.25,0.35
"(0.2, 0.3]","(0.3, 0.4]",0.25,0.35
"(0.2, 0.3]","(0.3, 0.4]",0.25,0.35
"(0.2, 0.3]","(0.3, 0.4]",0.25,0.35
"(0.2, 0.3]","(0.3, 0.4]",0.25,0.35
"(0.2, 0.3]","(0.3, 0.4]",0.25,0.35
"(0.2, 0.3]","(0.3, 0.4]",0.25,0.35
"(0.2, 0.3]","(0.3, 0.4]",0.25,0.35
"(0.2, 0.3]","(0.3, 0.4]",0.25,0.35
"(0.2, 0.3]","(0.3, 0.4]",0.25,0.35
"(0.2, 0.3]","(0.3, 0.4]",0.25,0.35
"(0.2, 0.3]","(0.3, 0.4]",0.25,0.35
"(0.2, 0.3]","(0.3, 0.4]",0.25,0.35
"(0.2, 0.3]","(0.3, 0.4]",0.25,0.35
"(0.2, 0.3]","(0.3, 0.4]",0.25,0.35
"(0.2, 0.3]","(0.3, 0.4]",0.25,0.35
"(0.2, 0.3]","(0.3, 0.4]",0.25,0.35
"(0.2, 0.3]","(0.3, 0.4]",0.25,0.35
"(0.2, 0.3]","(0.3, 0.4]",0.25,0.35
"(0.2, 0.3]","(0.3, 0.4]",0.25,0.35
"(0.2, 0.3]","(0.3, 0.4]",0.25,0.35
"(0.2, 0.3]","(0.3, 0.4]",0.25,0.35
"(0.2, 0.3]","(0.3, 0.4]",0.25,0.35
"(0.2, 0.3]","(0.3, 0.4]",0.25,0.35
"(0.2, 0.3]","(0.3, 0.4]",0.25,0.35
"(0.2, 0.3]","(0.3, 0.4]",0.25,0.35
"(0.2, 0.3]","(0.3, 0.4]",0.25,0.35
"(0.2, 0.3]","(0.3, 0.4]",0.25,0.35
"(0.2, 0.3]","(0.3, 0.4]",0.25,0.35
"(0.2, 0.3]","(0.3, 0.4]",0.25,0.35
"(0.2, 0.3]","(0.3, 0.4]",0.25,0.35
"(0.2, 0.3]","(0.3, 0.4]",0.25,0.35
"(0.2, 0.3]","(0.3, 0.4]",0.25,0.35
"(0.2, 0.3]","(0.3, 0.4]",0.25,0.35
"(0.2, 0.3]","(0.3, 0.4]",0.25,0.35
"(0.2, 0.3]","(0.3, 0.4]",0.25,0.35
"(0.2, 0.3]","(0.3, 0.4]",0.25,0.35
"(0.2, 0.3]","(0.3, 0.4]",0.25,0.35
"(0.2, 0.3]","(0.3, 0.4]",0.25,0.35
"(0.2, 0.3]","(0.3, 0.4]",0.25,0.35
"(0.2, 0.3]","(0.3, 0.4]",0.25,0.35
"(0.2, 0.3]","(0.3, 0.4]",0.25,0.35
"(0.2, 0.3]","(0.3, 0.4]",0.25,0.35
"(0.2, 0.3]","(0.3, 0.4]",0.25,0.35
"(0.2, 0.3]","(0.3, 0.4]",0.25,0.35
"(0.2, 0.3]","(0.3, 0.4]",0.25,0.35
"(0.2, 0.3]","(0.3, 0.4]",0.25,0.35
"(0.2, 0.3]","(0.3, 0.4]",0.25,0.35
"(0.2, 0.3]","(0.3, 0.4]",0.25,0.35
"(0.2, 0.3]","(0.3, 0.4]",0.25,0.35
"(0.2, 0.3]","(0.3, 0.4]",0.25,0.35
"(0.2, 0.3]","(0.3, 0.4]",0.25,0.35
"(0.2, 0.3]","(0.3, 0.4]",0.25,0.35
"(0.2, 0.3]","(0.3, 0.4]",0.25,0.35
"(0.2, 0.3]","(0.3, 0.4]",0.25,0.35
"(0.2, 0.3]","(0.3, 0.4]",0.25,0.35
"(0.3, 0.4]","(0.3, 0.4]",0.35,0.35
"(0.3, 0.4]","(0.3, 0.4]",0.35,0.35
"(0.3, 0.4]","(0.3, 0.4]",0.35,0.35
"(0.3, 0.4]","(0.3, 0.4]",0.35,0.35
"(0.3, 0.4]","(0.4, 0.5]",0.35,0.45
"(0.3, 0.4]","(0.4, 0.5]",0.35,0.45
"(0.3, 0.4]","(0.4, 0.5]",0.35,0.45
"(0.3, 0.4]","(0.4, 0.5]",0.35,0.45
"(0.3, 0.4]","(0.4, 0.5]",0.35,0.45
"(0.3, 0.4]","(0.4, 0.5]",0.35,0.45
"(0.3, 0.4]","(0.4, 0.5]",0.35,0.45
"(0.3, 0.4]","(0.4, 0.5]",0.35,0.45
"(0.3, 0.4]","(0.4, 0.5]",0.35,0.45
"(0.3, 0.4]","(0.4, 0.5]",0.35,0.45
"(0.3, 0.4]","(0.4, 0.5]",0.35,0.45
"(0.3, 0.4]","(0.4, 0.5]",0.35,0.45
"(0.3, 0.4]","(0.4, 0.5]",0.35,0.45
"(0.3, 0.4]","(0.4, 0.5]",0.35,0.45
"(0.3, 0.4]","(0.4, 0.5]",0.35,0.45
"(0.3, 0.4]","(0.4, 0.5]",0.35,0.45
"(0.3, 0.4]","(0.4, 0.5]",0.35,0.45
"(0.3, 0.4]","(0.4, 0.5]",0.35,0.45
"(0.3, 0.4]","(0.4, 0.5]",0.35,0.45
"(0.3, 0.4]","(0.4, 0.5]",0.35,0.45
"(0.3, 0.4]","(0.4, 0.5]",0.35,0.45
"(0.3, 0.4]","(0.4, 0.5]",0.35,0.45
"(0.3, 0.4]","(0.4, 0.5]",0.35,0.45
"(0.3, 0.4]","(0.4, 0.5]",0.35,0.45
"(0.3, 0.4]","(0.4, 0.5]",0.35,0.45
"(0.3, 0.4]","(0.4, 0.5]",0.35,0.45
"(0.3, 0.4]","(0.4, 0.5]",0.35,0.45
"(0.3, 0.4]","(0.4, 0.5]",0.35,0.45
"(0.3, 0.4]","(0.4, 0.5]",0.35,0.45
"(0.3, 0.4]","(0.4, 0.5]",0.35,0.45
"(0.3, 0.4]","(0.4, 0.5]",0.35,0.45
"(0.3, 0.4]","(0.4, 0.5]",0.35,0.45
"(0.3, 0.4]","(0.4, 0.5]",0.35,0.45
"(0.3, 0.4]","(0.4, 0.5]",0.35,0.45
"(0.3, 0.4]","(0.4, 0.5]",0.35,0.45
"(0.3, 0.4]","(0.4, 0.5]",0.35,0.45
"(0.3, 0.4]","(0.4, 0.5]",0.35,0.45
"(0.3, 0.4]","(0.4, 0.5]",0.35,0.45
"(0.3, 0.4]","(0.4, 0.5]",0.35,0.45
"(0.3, 0.4]","(0.4, 0.5]",0.35,0.45
"(0.3, 0.4]","(0.4, 0.5]",0.35,0.45
"(0.3, 0.4]","(0.4, 0.5]",0.35,0.45
"(0.3, 0.4]","(0.4, 0.5]",0.35,0.45
"(0.3, 0.4]","(0.4, 0.5]",0.35,0.45
"(0.3, 0.4]","(0.4, 0.5]",0.35,0.45
"(0.3, 0.4]","(0.4, 0.5]",0.35,0.45
"(0.3, 0.4]","(0.4, 0.5]",0.35,0.45
"(0.3, 0.4]","(0.4, 0.5]",0.35,0.45
"(0.3, 0.4]","(0.4, 0.5]",0.35,0.45
"(0.3, 0.4]","(0.4, 0.5]",0.35,0.45
"(0.3, 0.4]","(0.4, 0.5]",0.35,0.45
"(0.3, 0.4]","(0.4, 0.5]",0.35,0.45
"(0.3, 0.4]","(0.4, 0.5]",0.35,0.45
"(0.3, 0.4]","(0.4, 0.5]",0.35,0.45
"(0.3, 0.4]","(0.4, 0.5]",0.35,0.45
"(0.3, 0.4]","(0.4, 0.5]",0.35,0.45
"(0.3, 0.4]","(0.4, 0.5]",0.35,0.45
"(0.3, 0.4]","(0.4, 0.5]",0.35,0.45
"(0.3, 0.4]","(0.4, 0.5]",0.35,0.45
"(0.3, 0.4]","(0.4, 0.5]",0.35,0.45
"(0.3, 0.4]","(0.4, 0.5]",0.35,0.45
"(0.3, 0.4]","(0.4, 0.5]",0.35,0.45
"(0.3, 0.4]","(0.4, 0.5]",0.35,0.45
"(0.3, 0.4]","(0.4, 0.5]",0.35,0.45
"(0.3, 0.4]","(0.4, 0.5]",0.35,0.45
"(0.3, 0.4]","(0.4, 0.5]",0.35,0.45
"(0.3, 0.4]","(0.4, 0.5]",0.35,0.45
"(0.3, 0.4]","(0.4, 0.5]",0.35,0.45
"(0.3, 0.4]","(0.4, 0.5]",0.35,0.45
"(0.3, 0.4]","(0.4, 0.5]",0.35,0.45
"(0.3, 0.4]","(0.4, 0.5]",0.35,0.45
"(0.3, 0.4]","(0.4, 0.5]",0.35,0.45
"(0.3, 0.4]","(0.4, 0.5]",0.35,0.45
"(0.3, 0.4]","(0.4, 0.5]",0.35,0.45
"(0.3, 0.4]","(0.4, 0.5]",0.35,0.45
"(0.3, 0.4]","(0.4, 0.5]",0.35,0.45
"(0.3, 0.4]","(0.4, 0.5]",0.35,0.45
"(0.3, 0.4]","(0.4, 0.5]",0.35,0.45
"(0.3, 0.4]","(0.4, 0.5]",0.35,0.45
"(0.3, 0.4]","(0.4, 0.5]",0.35,0.45
"(0.3, 0.4]","(0.4, 0.5]",0.35,0.45
"(0.3, 0.4]","(0.4, 0.5]",0.35,0.45
"(0.3, 0.4]","(0.4, 0.5]",0.35,0.45
"(0.3, 0.4]","(0.4, 0.5]",0.35,0.45
"(0.3, 0.4]","(0.4, 0.5]",0.35,0.45
"(0.3, 0.4]","(0.4, 0.5]",0.35,0.45
"(0.3, 0.4]","(0.4, 0.5]",0.35,0.45
"(0.3, 0.4]","(0.4, 0.5]",0.35,0.45
"(0.3, 0.4]","(0.5, 0.6]",0.35,0.55
"(0.3, 0.4]","(0.5, 0.6]",0.35,0.55
"(0.3, 0.4]","(0.5, 0.6]",0.35,0.55
"(0.3, 0.4]","(0.5, 0.6]",0.35,0.55
"(0.3, 0.4]","(0.5, 0.6]",0.35,0.55
"(0.3, 0.4]","(0.5, 0.6]",0.35,0.55
"(0.3, 0.4]","(0.5, 0.6]",0.35,0.55
"(0.3, 0.4]","(0.5, 0.6]",0.35,0.55
"(0.3, 0.4]","(0.5, 0.6]",0.35,0.55
"(0.3, 0.4]","(0.5, 0.6]",0.35,0.55
"(0.3, 0.4]","(0.5, 0.6]",0.35,0.55
"(0.3, 0.4]","(0.5, 0.6]",0.35,0.55
"(0.3, 0.4]","(0.5, 0.6]",0.35,0.55
"(0.3, 0.4]","(0.5, 0.6]",0.35,0.55
"(0.3, 0.4]","(0.5, 0.6]",0.35,0.55
"(0.3, 0.4]","(0.5, 0.6]",0.35,0.55
"(0.3, 0.4]","(0.5, 0.6]",0.35,0.55
"(0.3, 0.4]","(0.5, 0.6]",0.35,0.55
"(0.3, 0.4]","(0.5, 0.6]",0.35,0.55
"(0.3, 0.4]","(0.5, 0.6]",0.35,0.55
"(0.3, 0.4]","(0.5, 0.6]",0.35,0.55
"(0.3, 0.4]","(0.5, 0.6]",0.35,0.55
"(0.3, 0.4]","(0.5, 0.6]",0.35,0.55
"(0.3, 0.4]","(0.5, 0.6]",0.35,0.55
"(0.3, 0.4]","(0.5, 0.6]",0.35,0.55
"(0.3, 0.4]","(0.5, 0.6]",0.35,0.55
"(0.3, 0.4]","(0.5, 0.6]",0.35,0.55
"(0.3, 0.4]","(0.5, 0.6]",0.35,0.55
"(0.3, 0.4]","(0.5, 0.6]",0.35,0.55
"(0.3, 0.4]","(0.5, 0.6]",0.35,0.55
"(0.3, 0.4]","(0.5, 0.6]",0.35,0.55
"(0.3, 0.4]","(0.5, 0.6]",0.35,0.55
"(0.3, 0.4]","(0.5, 0.6]",0.35,0.55
"(0.3, 0.4]","(0.5, 0.6]",0.35,0.55
"(0.3, 0.4]","(0.5, 0.6]",0.35,0.55
"(0.3, 0.4]","(0.5, 0.6]",0.35,0.55
"(0.3, 0.4]","(0.5, 0.6]",0.35,0.55
"(0.3, 0.4]","(0.5, 0.6]",0.35,0.55
"(0.3, 0.4]","(0.5, 0.6]",0.35,0.55
"(0.3, 0.4]","(0.5, 0.6]",0.35,0.55
"(0.3, 0.4]","(0.5, 0.6]",0.35,0.55
"(0.3, 0.4]","(0.5, 0.6]",0.35,0.55
"(0.3, 0.4]","(0.5, 0.6]",0.35,0.55
"(0.3, 0.4]","(0.5, 0.6]",0.35,0.55
"(0.3, 0.4]","(0.5, 0.6]",0.35,0.55
"(0.3, 0.4]","(0.5, 0.6]",0.35,0.55
"(0.3, 0.4]","(0.5, 0.6]",0.35,0.55
"(0.3, 0.4]","(0.5, 0.6]",0.35,0.55
"(0.3, 0.4]","(0.5, 0.6]",0.35,0.55
"(0.3, 0.4]","(0.5, 0.6]",0.35,0.55
"(0.3, 0.4]","(0.5, 0.6]",0.35,0.55
"(0.3, 0.4]","(0.5, 0.6]",0.35,0.55
"(0.3, 0.4]","(0.5, 0.6]",0.35,0.55
"(0.3, 0.4]","(0.5, 0.6]",0.35,0.55
"(0.3, 0.4]","(0.5, 0.6]",0.35,0.55
"(0.3, 0.4]","(0.5, 0.6]",0.35,0.55
"(0.3, 0.4]","(0.5, 0.6]",0.35,0.55
"(0.3, 0.4]","(0.5, 0.6]",0.35,0.55
"(0.3, 0.4]","(0.5, 0.6]",0.35,0.55
"(0.3, 0.4]","(0.5, 0.6]",0.35,0.55
"(0.3, 0.4]","(0.5, 0.6]",0.35,0.55
"(0.3, 0.4]","(0.5, 0.6]",0.35,0.55
"(0.3, 0.4]","(0.5, 0.6]",0.35,0.55
"(0.3, 0.4]","(0.5, 0.6]",0.35,0.55
"(0.3, 0.4]","(0.5, 0.6]",0.35,0.55
"(0.3, 0.4]","(0.5, 0.6]",0.35,0.55
"(0.3, 0.4]","(0.5, 0.6]",0.35,0.55
"(0.3, 0.4]","(0.5, 0.6]",0.35,0.55
"(0.3, 0.4]","(0.5, 0.6]",0.35,0.55
"(0.3, 0.4]","(0.5, 0.6]",0.35,0.55
"(0.3, 0.4]","(0.5, 0.6]",0.35,0.55
"(0.3, 0.4]","(0.5, 0.6]",0.35,0.55
"(0.3, 0.4]","(0.5, 0.6]",0.35,0.55
"(0.3, 0.4]","(0.5, 0.6]",0.35,0.55
"(0.3, 0.4]","(0.5, 0.6]",0.35,0.55
"(0.3, 0.4]","(0.5, 0.6]",0.35,0.55
"(0.3, 0.4]","(0.5, 0.6]",0.35,0.55
"(0.3, 0.4]","(0.5, 0.6]",0.35,0.55
"(0.3, 0.4]","(0.5, 0.6]",0.35,0.55
"(0.3, 0.4]","(0.5, 0.6]",0.35,0.55
"(0.3, 0.4]","(0.5, 0.6]",0.35,0.55
"(0.3, 0.4]","(0.5, 0.6]",0.35,0.55
"(0.3, 0.4]","(0.5, 0.6]",0.35,0.55
"(0.3, 0.4]","(0.5, 0.6]",0.35,0.55
"(0.3, 0.4]","(0.5, 0.6]",0.35,0.55
"(0.3, 0.4]","(0.5, 0.6]",0.35,0.55
"(0.3, 0.4]","(0.6, 0.7]",0.35,0.6499999999999999
"(0.3, 0.4]","(0.6, 0.7]",0.35,0.6499999999999999
"(0.3, 0.4]","(0.6, 0.7]",0.35,0.6499999999999999
"(0.3, 0.4]","(0.6, 0.7]",0.35,0.6499999999999999
"(0.3, 0.4]","(0.6, 0.7]",0.35,0.6499999999999999
"(0.3, 0.4]","(0.6, 0.7]",0.35,0.6499999999999999
"(0.3, 0.4]","(0.6, 0.7]",0.35,0.6499999999999999
"(0.3, 0.4]","(0.6, 0.7]",0.35,0.6499999999999999
"(0.3, 0.4]","(0.6, 0.7]",0.35,0.6499999999999999
"(0.3, 0.4]","(0.6, 0.7]",0.35,0.6499999999999999
"(0.3, 0.4]","(0.6, 0.7]",0.35,0.6499999999999999
"(0.3, 0.4]","(0.6, 0.7]",0.35,0.6499999999999999
"(0.3, 0.4]","(0.6, 0.7]",0.35,0.6499999999999999
"(0.3, 0.4]","(0.6, 0.7]",0.35,0.6499999999999999
"(0.3, 0.4]","(0.6, 0.7]",0.35,0.6499999999999999
"(0.3, 0.4]","(0.6, 0.7]",0.35,0.6499999999999999
"(0.3, 0.4]","(0.6, 0.7]",0.35,0.6499999999999999
"(0.3, 0.4]","(0.6, 0.7]",0.35,0.6499999999999999
"(0.3, 0.4]","(0.6, 0.7]",0.35,0.6499999999999999
"(0.3, 0.4]","(0.6, 0.7]",0.35,0.6499999999999999
"(0.3, 0.4]","(0.6, 0.7]",0.35,0.6499999999999999
"(0.3, 0.4]","(0.6, 0.7]",0.35,0.6499999999999999
"(0.3, 0.4]","(0.6, 0.7]",0.35,0.6499999999999999
"(0.3, 0.4]","(0.6, 0.7]",0.35,0.6499999999999999
"(0.3, 0.4]","(0.6, 0.7]",0.35,0.6499999999999999
"(0.3, 0.4]","(0.6, 0.7]",0.35,0.6499999999999999
"(0.3, 0.4]","(0.6, 0.7]",0.35,0.6499999999999999
"(0.3, 0.4]","(0.6, 0.7]",0.35,0.6499999999999999
"(0.3, 0.4]","(0.6, 0.7]",0.35,0.6499999999999999
"(0.3, 0.4]","(0.6, 0.7]",0.35,0.6499999999999999
"(0.3, 0.4]","(0.6, 0.7]",0.35,0.6499999999999999
"(0.3, 0.4]","(0.6, 0.7]",0.35,0.6499999999999999
"(0.3, 0.4]","(0.6, 0.7]",0.35,0.6499999999999999
"(0.3, 0.4]","(0.6, 0.7]",0.35,0.6499999999999999
"(0.3, 0.4]","(0.6, 0.7]",0.35,0.6499999999999999
"(0.3, 0.4]","(0.6, 0.7]",0.35,0.6499999999999999
"(0.3, 0.4]","(0.6, 0.7]",0.35,0.6499999999999999
"(0.3, 0.4]","(0.6, 0.7]",0.35,0.6499999999999999
"(0.3, 0.4]","(0.6, 0.7]",0.35,0.6499999999999999
"(0.4, 0.5]","(0.6, 0.7]",0.45,0.6499999999999999
"(0.4, 0.5]","(0.6, 0.7]",0.45,0.6499999999999999
"(0.4, 0.5]","(0.6, 0.7]",0.45,0.6499999999999999
"(0.4, 0.5]","(0.6, 0.7]",0.45,0.6499999999999999
"(0.4, 0.5]","(0.6, 0.7]",0.45,0.6499999999999999
"(0.4, 0.5]","(0.6, 0.7]",0.45,0.6499999999999999
"(0.4, 0.5]","(0.6, 0.7]",0.45,0.6499999999999999
"(0.4, 0.5]","(0.6, 0.7]",0.45,0.6499999999999999
"(0.4, 0.5]","(0.6, 0.7]",0.45,0.6499999999999999
"(0.4, 0.5]","(0.6, 0.7]",0.45,0.6499999999999999
"(0.4, 0.5]","(0.6, 0.7]",0.45,0.6499999999999999
"(0.4, 0.5]","(0.6, 0.7]",0.45,0.6499999999999999
"(0.4, 0.5]","(0.6, 0.7]",0.45,0.6499999999999999
"(0.4, 0.5]","(0.6, 0.7]",0.45,0.6499999999999999
"(0.4, 0.5]","(0.6, 0.7]",0.45,0.6499999999999999
"(0.4, 0.5]","(0.6, 0.7]",0.45,0.6499999999999999
"(0.4, 0.5]","(0.6, 0.7]",0.45,0.6499999999999999
"(0.4, 0.5]","(0.6, 0.7]",0.45,0.6499999999999999
"(0.4, 0.5]","(0.6, 0.7]",0.45,0.6499999999999999
"(0.4, 0.5]","(0.6, 0.7]",0.45,0.6499999999999999
"(0.4, 0.5]","(0.6, 0.7]",0.45,0.6499999999999999
"(0.4, 0.5]","(0.6, 0.7]",0.45,0.6499999999999999
"(0.4, 0.5]","(0.6, 0.7]",0.45,0.6499999999999999
"(0.4, 0.5]","(0.6, 0.7]",0.45,0.6499999999999999
"(0.4, 0.5]","(0.6, 0.7]",0.45,0.6499999999999999
"(0.4, 0.5]","(0.6, 0.7]",0.45,0.6499999999999999
"(0.4, 0.5]","(0.6, 0.7]",0.45,0.6499999999999999
"(0.4, 0.5]","(0.6, 0.7]",0.45,0.6499999999999999
"(0.4, 0.5]","(0.6, 0.7]",0.45,0.6499999999999999
"(0.4, 0.5]","(0.6, 0.7]",0.45,0.6499999999999999
"(0.4, 0.5]","(0.6, 0.7]",0.45,0.6499999999999999
"(0.4, 0.5]","(0.6, 0.7]",0.45,0.6499999999999999
"(0.4, 0.5]","(0.6, 0.7]",0.45,0.6499999999999999
"(0.4, 0.5]","(0.6, 0.7]",0.45,0.6499999999999999
"(0.4, 0.5]","(0.6, 0.7]",0.45,0.6499999999999999
"(0.4, 0.5]","(0.6, 0.7]",0.45,0.6499999999999999
"(0.4, 0.5]","(0.6, 0.7]",0.45,0.6499999999999999
"(0.4, 0.5]","(0.6, 0.7]",0.45,0.6499999999999999
"(0.4, 0.5]","(0.6, 0.7]",0.45,0.6499999999999999
"(0.4, 0.5]","(0.6, 0.7]",0.45,0.6499999999999999
"(0.4, 0.5]","(0.6, 0.7]",0.45,0.6499999999999999
"(0.4, 0.5]","(0.6, 0.7]",0.45,0.6499999999999999
"(0.4, 0.5]","(0.6, 0.7]",0.45,0.6499999999999999
"(0.4, 0.5]","(0.6, 0.7]",0.45,0.6499999999999999
"(0.4, 0.5]","(0.6, 0.7]",0.45,0.6499999999999999
"(0.4, 0.5]","(0.6, 0.7]",0.45,0.6499999999999999
"(0.4, 0.5]","(0.6, 0.7]",0.45,0.6499999999999999
"(0.4, 0.5]","(0.6, 0.7]",0.45,0.6499999999999999
"(0.4, 0.5]","(0.6, 0.7]",0.45,0.6499999999999999
"(0.4, 0.5]","(0.7, 0.8]",0.45,0.75
"(0.4, 0.5]","(0.7, 0.8]",0.45,0.75
"(0.4, 0.5]","(0.7, 0.8]",0.45,0.75
"(0.4, 0.5]","(0.7, 0.8]",0.45,0.75
"(0.4, 0.5]","(0.7, 0.8]",0.45,0.75
"(0.4, 0.5]","(0.7, 0.8]",0.45,0.75
"(0.4, 0.5]","(0.7, 0.8]",0.45,0.75
"(0.4, 0.5]","(0.7, 0.8]",0.45,0.75
"(0.4, 0.5]","(0.7, 0.8]",0.45,0.75
"(0.4, 0.5]","(0.7, 0.8]",0.45,0.75
"(0.4, 0.5]","(0.7, 0.8]",0.45,0.75
"(0.4, 0.5]","(0.7, 0.8]",0.45,0.75
"(0.4, 0.5]","(0.7, 0.8]",0.45,0.75
"(0.4, 0.5]","(0.7, 0.8]",0.45,0.75
"(0.4, 0.5]","(0.7, 0.8]",0.45,0.75
"(0.4, 0.5]","(0.7, 0.8]",0.45,0.75
"(0.4, 0.5]","(0.7, 0.8]",0.45,0.75
"(0.4, 0.5]","(0.7, 0.8]",0.45,0.75
"(0.4, 0.5]","(0.7, 0.8]",0.45,0.75
"(0.4, 0.5]","(0.7, 0.8]",0.45,0.75
"(0.4, 0.5]","(0.7, 0.8]",0.45,0.75
"(0.4, 0.5]","(0.7, 0.8]",0.45,0.75
"(0.4, 0.5]","(0.7, 0.8]",0.45,0.75
"(0.4, 0.5]","(0.7, 0.8]",0.45,0.75
"(0.4, 0.5]","(0.7, 0.8]",0.45,0.75
"(0.4, 0.5]","(0.7, 0.8]",0.45,0.75
"(0.4, 0.5]","(0.7, 0.8]",0.45,0.75
"(0.4, 0.5]","(0.7, 0.8]",0.45,0.75
"(0.4, 0.5]","(0.7, 0.8]",0.45,0.75
"(0.4, 0.5]","(0.7, 0.8]",0.45,0.75
"(0.4, 0.5]","(0.7, 0.8]",0.45,0.75
"(0.4, 0.5]","(0.7, 0.8]",0.45,0.75
"(0.4, 0.5]","(0.7, 0.8]",0.45,0.75
"(0.4, 0.5]","(0.7, 0.8]",0.45,0.75
"(0.4, 0.5]","(0.7, 0.8]",0.45,0.75
"(0.4, 0.5]","(0.7, 0.8]",0.45,0.75
"(0.4, 0.5]","(0.7, 0.8]",0.45,0.75
"(0.4, 0.5]","(0.7, 0.8]",0.45,0.75
"(0.4, 0.5]","(0.7, 0.8]",0.45,0.75
"(0.4, 0.5]","(0.7, 0.8]",0.45,0.75
"(0.4, 0.5]","(0.7, 0.8]",0.45,0.75
"(0.4, 0.5]","(0.7, 0.8]",0.45,0.75
"(0.4, 0.5]","(0.7, 0.8]",0.45,0.75
"(0.4, 0.5]","(0.7, 0.8]",0.45,0.75
"(0.4, 0.5]","(0.7, 0.8]",0.45,0.75
"(0.4, 0.5]","(0.7, 0.8]",0.45,0.75
"(0.4, 0.5]","(0.7, 0.8]",0.45,0.75
"(0.4, 0.5]","(0.7, 0.8]",0.45,0.75
"(0.4, 0.5]","(0.7, 0.8]",0.45,0.75
"(0.4, 0.5]","(0.7, 0.8]",0.45,0.75
"(0.4, 0.5]","(0.7, 0.8]",0.45,0.75
"(0.4, 0.5]","(0.7, 0.8]",0.45,0.75
"(0.4, 0.5]","(0.7, 0.8]",0.45,0.75
"(0.4, 0.5]","(0.7, 0.8]",0.45,0.75
"(0.4, 0.5]","(0.7, 0.8]",0.45,0.75
"(0.4, 0.5]","(0.7, 0.8]",0.45,0.75
"(0.4, 0.5]","(0.7, 0.8]",0.45,0.75
"(0.4, 0.5]","(0.7, 0.8]",0.45,0.75
"(0.4, 0.5]","(0.7, 0.8]",0.45,0.75
"(0.4, 0.5]","(0.7, 0.8]",0.45,0.75
"(0.4, 0.5]","(0.7, 0.8]",0.45,0.75
"(0.4, 0.5]","(0.7, 0.8]",0.45,0.75
"(0.4, 0.5]","(0.7, 0.8]",0.45,0.75
"(0.4, 0.5]","(0.7, 0.8]",0.45,0.75
"(0.5, 0.6]","(0.7, 0.8]",0.55,0.75
"(0.5, 0.6]","(0.7, 0.8]",0.55,0.75
"(0.5, 0.6]","(0.7, 0.8]",0.55,0.75
"(0.5, 0.6]","(0.7, 0.8]",0.55,0.75
"(0.5, 0.6]","(0.7, 0.8]",0.55,0.75
"(0.5, 0.6]","(0.7, 0.8]",0.55,0.75
"(0.5, 0.6]","(0.7, 0.8]",0.55,0.75
"(0.5, 0.6]","(0.7, 0.8]",0.55,0.75
"(0.5, 0.6]","(0.7, 0.8]",0.55,0.75
"(0.5, 0.6]","(0.7, 0.8]",0.55,0.75
"(0.5, 0.6]","(0.7, 0.8]",0.55,0.75
"(0.5, 0.6]","(0.7, 0.8]",0.55,0.75
"(0.5, 0.6]","(0.7, 0.8]",0.55,0.75
"(0.5, 0.6]","(0.7, 0.8]",0.55,0.75
"(0.5, 0.6]","(0.7, 0.8]",0.55,0.75
"(0.5, 0.6]","(0.7, 0.8]",0.55,0.75
"(0.5, 0.6]","(0.7, 0.8]",0.55,0.75
"(0.5, 0.6]","(0.7, 0.8]",0.55,0.75
"(0.5, 0.6]","(0.7, 0.8]",0.55,0.75
"(0.5, 0.6]","(0.7, 0.8]",0.55,0.75
"(0.5, 0.6]","(0.7, 0.8]",0.55,0.75
"(0.5, 0.6]","(0.7, 0.8]",0.55,0.75
"(0.5, 0.6]","(0.8, 0.9]",0.55,0.8500000000000001
"(0.5, 0.6]","(0.8, 0.9]",0.55,0.8500000000000001
"(0.5, 0.6]","(0.8, 0.9]",0.55,0.8500000000000001
"(0.5, 0.6]","(0.8, 0.9]",0.55,0.8500000000000001
"(0.5, 0.6]","(0.8, 0.9]",0.55,0.8500000000000001
"(0.5, 0.6]","(0.8, 0.9]",0.55,0.8500000000000001
"(0.5, 0.6]","(0.8, 0.9]",0.55,0.8500000000000001
"(0.5, 0.6]","(0.8, 0.9]",0.55,0.8500000000000001
"(0.5, 0.6]","(0.8, 0.9]",0.55,0.8500000000000001
"(0.5, 0.6]","(0.8, 0.9]",0.55,0.8500000000000001
"(0.5, 0.6]","(0.8, 0.9]",0.55,0.8500000000000001
"(0.5, 0.6]","(0.8, 0.9]",0.55,0.8500000000000001
"(0.5, 0.6]","(0.8, 0.9]",0.55,0.8500000000000001
"(0.5, 0.6]","(0.8, 0.9]",0.55,0.8500000000000001
"(0.5, 0.6]","(0.8, 0.9]",0.55,0.8500000000000001
"(0.5, 0.6]","(0.8, 0.9]",0.55,0.8500000000000001
"(0.5, 0.6]","(0.8, 0.9]",0.55,0.8500000000000001
"(0.5, 0.6]","(0.8, 0.9]",0.55,0.8500000000000001
"(0.6, 0.7]","(0.8, 0.9]",0.6499999999999999,0.8500000000000001
"(0.6, 0.7]","(0.8, 0.9]",0.6499999999999999,0.8500000000000001
"(0.6, 0.7]","(0.8, 0.9]",0.6499999999999999,0.8500000000000001
"(0.6, 0.7]","(0.8, 0.9]",0.6499999999999999,0.8500000000000001
"(0.6, 0.7]","(0.8, 0.9]",0.6499999999999999,0.8500000000000001
"(0.6, 0.7]","(0.8, 0.9]",0.6499999999999999,0.8500000000000001
"(0.6, 0.7]","(0.8, 0.9]",0.6499999999999999,0.8500000000000001
"(0.6, 0.7]","(0.8, 0.9]",0.6499999999999999,0.8500000000000001
"(0.6, 0.7]","(0.8, 0.9]",0.6499999999999999,0.8500000000000001
"(0.6, 0.7]","(0.8, 0.9]",0.6499999999999999,0.8500000000000001
"(0.6, 0.7]","(0.8, 0.9]",0.6499999999999999,0.8500000000000001
"(0.6, 0.7]","(0.8, 0.9]",0.6499999999999999,0.8500000000000001
"(0.6, 0.7]","(0.8, 0.9]",0.6499999999999999,0.8500000000000001
"(0.6, 0.7]","(0.8, 0.9]",0.6499999999999999,0.8500000000000001
"(0.6, 0.7]","(0.8, 0.9]",0.6499999999999999,0.8500000000000001
"(0.6, 0.7]","(0.8, 0.9]",0.6499999999999999,0.8500000000000001
"(0.6, 0.7]","(0.8, 0.9]",0.6499999999999999,0.8500000000000001
"(0.6, 0.7]","(0.8, 0.9]",0.6499999999999999,0.8500000000000001
"(0.6, 0.7]","(0.8, 0.9]",0.6499999999999999,0.8500000000000001
"(0.6, 0.7]","(0.8, 0.9]",0.6499999999999999,0.8500000000000001
"(0.6, 0.7]","(0.8, 0.9]",0.6499999999999999,0.8500000000000001
"(0.6, 0.7]","(0.8, 0.9]",0.6499999999999999,0.8500000000000001
"(0.6, 0.7]","(0.8, 0.9]",0.6499999999999999,0.8500000000000001
"(0.6, 0.7]","(0.8, 0.9]",0.6499999999999999,0.8500000000000001
"(0.6, 0.7]","(0.8, 0.9]",0.6499999999999999,0.8500000000000001
"(0.6, 0.7]","(0.8, 0.9]",0.6499999999999999,0.8500000000000001
"(0.6, 0.7]","(0.8, 0.9]",0.6499999999999999,0.8500000000000001
"(0.6, 0.7]","(0.8, 0.9]",0.6499999999999999,0.8500000000000001
"(0.6, 0.7]","(0.8, 0.9]",0.6499999999999999,0.8500000000000001
"(0.6, 0.7]","(0.8, 0.9]",0.6499999999999999,0.8500000000000001
"(0.6, 0.7]","(0.8, 0.9]",0.6499999999999999,0.8500000000000001
"(0.6, 0.7]","(0.8, 0.9]",0.6499999999999999,0.8500000000000001
"(0.6, 0.7]","(0.8, 0.9]",0.6499999999999999,0.8500000000000001
"(0.6, 0.7]","(0.8, 0.9]",0.6499999999999999,0.8500000000000001
"(0.6, 0.7]","(0.8, 0.9]",0.6499999999999999,0.8500000000000001
"(0.6, 0.7]","(0.8, 0.9]",0.6499999999999999,0.8500000000000001
"(0.6, 0.7]","(0.8, 0.9]",0.6499999999999999,0.8500000000000001
"(0.6, 0.7]","(0.8, 0.9]",0.6499999999999999,0.8500000000000001
"(0.6, 0.7]","(0.8, 0.9]",0.6499999999999999,0.8500000000000001
"(0.6, 0.7]","(0.8, 0.9]",0.6499999999999999,0.8500000000000001
"(0.6, 0.7]","(0.8, 0.9]",0.6499999999999999,0.8500000000000001
"(0.6, 0.7]","(0.8, 0.9]",0.6499999999999999,0.8500000000000001
"(0.6, 0.7]","(0.8, 0.9]",0.6499999999999999,0.8500000000000001
"(0.7, 0.8]","(0.8, 0.9]",0.75,0.8500000000000001
"(0.7, 0.8]","(0.8, 0.9]",0.75,0.8500000000000001
"(0.7, 0.8]","(0.8, 0.9]",0.75,0.8500000000000001
"(0.7, 0.8]","(0.8, 0.9]",0.75,0.8500000000000001
"(0.7, 0.8]","(0.8, 0.9]",0.75,0.8500000000000001
"(0.7, 0.8]","(0.8, 0.9]",0.75,0.8500000000000001
"(0.7, 0.8]","(0.8, 0.9]",0.75,0.8500000000000001
"(0.7, 0.8]","(0.8, 0.9]",0.75,0.8500000000000001
"(0.7, 0.8]","(0.8, 0.9]",0.75,0.8500000000000001
"(0.7, 0.8]","(0.8, 0.9]",0.75,0.8500000000000001
"(0.7, 0.8]","(0.8, 0.9]",0.75,0.8500000000000001
"(0.7, 0.8]","(0.8, 0.9]",0.75,0.8500000000000001
"(0.7, 0.8]","(0.8, 0.9]",0.75,0.8500000000000001
"(0.7, 0.8]","(0.8, 0.9]",0.75,0.8500000000000001
"(0.7, 0.8]","(0.8, 0.9]",0.75,0.8500000000000001
"(0.7, 0.8]","(0.8, 0.9]",0.75,0.8500000000000001
"(0.7, 0.8]","(0.8, 0.9]",0.75,0.8500000000000001
"(0.7, 0.8]","(0.8, 0.9]",0.75,0.8500000000000001
"(0.7, 0.8]","(0.8, 0.9]",0.75,0.8500000000000001
"(0.7, 0.8]","(0.8, 0.9]",0.75,0.8500000000000001
"(0.7, 0.8]","(0.8, 0.9]",0.75,0.8500000000000001
"(0.7, 0.8]","(0.8, 0.9]",0.75,0.8500000000000001
"(0.7, 0.8]","(0.8, 0.9]",0.75,0.8500000000000001
"(0.7, 0.8]","(0.8, 0.9]",0.75,0.8500000000000001
"(0.7, 0.8]","(0.8, 0.9]",0.75,0.8500000000000001
"(0.7, 0.8]","(0.8, 0.9]",0.75,0.8500000000000001
"(0.7, 0.8]","(0.8, 0.9]",0.75,0.8500000000000001
"(0.7, 0.8]","(0.8, 0.9]",0.75,0.8500000000000001
"(0.7, 0.8]","(0.8, 0.9]",0.75,0.8500000000000001
"(0.7, 0.8]","(0.8, 0.9]",0.75,0.8500000000000001
"(0.7, 0.8]","(0.8, 0.9]",0.75,0.8500000000000001
"(0.7, 0.8]","(0.8, 0.9]",0.75,0.8500000000000001
"(0.7, 0.8]","(0.8, 0.9]",0.75,0.8500000000000001
"(0.7, 0.8]","(0.8, 0.9]",0.75,0.8500000000000001
"(0.7, 0.8]","(0.9, 1.0]",0.75,0.95
"(0.7, 0.8]","(0.9, 1.0]",0.75,0.95
"(0.7, 0.8]","(0.9, 1.0]",0.75,0.95
"(0.7, 0.8]","(0.9, 1.0]",0.75,0.95
"(0.7, 0.8]","(0.9, 1.0]",0.75,0.95
"(0.7, 0.8]","(0.9, 1.0]",0.75,0.95
"(0.7, 0.8]","(0.9, 1.0]",0.75,0.95
"(0.7, 0.8]","(0.9, 1.0]",0.75,0.95
"(0.7, 0.8]","(0.9, 1.0]",0.75,0.95
"(0.7, 0.8]","(0.9, 1.0]",0.75,0.95
"(0.7, 0.8]","(0.9, 1.0]",0.75,0.95
"(0.7, 0.8]","(0.9, 1.0]",0.75,0.95
"(0.7, 0.8]","(0.9, 1.0]",0.75,0.95
"(0.7, 0.8]","(0.9, 1.0]",0.75,0.95
"(0.7, 0.8]","(0.9, 1.0]",0.75,0.95
"(0.7, 0.8]","(0.9, 1.0]",0.75,0.95
"(0.7, 0.8]","(0.9, 1.0]",0.75,0.95
"(0.7, 0.8]","(0.9, 1.0]",0.75,0.95
"(0.7, 0.8]","(0.9, 1.0]",0.75,0.95
"(0.7, 0.8]","(0.9, 1.0]",0.75,0.95
"(0.7, 0.8]","(0.9, 1.0]",0.75,0.95
"(0.8, 0.9]","(0.9, 1.0]",0.8500000000000001,0.95
"(0.8, 0.9]","(0.9, 1.0]",0.8500000000000001,0.95
"(0.8, 0.9]","(0.9, 1.0]",0.8500000000000001,0.95
"(0.8, 0.9]","(0.9, 1.0]",0.8500000000000001,0.95
"(0.8, 0.9]","(0.9, 1.0]",0.8500000000000001,0.95
"(0.8, 0.9]","(0.9, 1.0]",0.8500000000000001,0.95
"(0.8, 0.9]","(0.9, 1.0]",0.8500000000000001,0.95
"(0.8, 0.9]","(0.9, 1.0]",0.8500000000000001,0.95
"(0.8, 0.9]","(0.9, 1.0]",0.8500000000000001,0.95
"(0.8, 0.9]","(0.9, 1.0]",0.8500000000000001,0.95
"(0.8, 0.9]","(0.9, 1.0]",0.8500000000000001,0.95
"(0.8, 0.9]","(0.9, 1.0]",0.8500000000000001,0.95
"(0.8, 0.9]","(0.9, 1.0]",0.8500000000000001,0.95
"(0.8, 0.9]","(0.9, 1.0]",0.8500000000000001,0.95
"(0.8, 0.9]","(0.9, 1.0]",0.8500000000000001,0.95
"(0.8, 0.9]","(0.9, 1.0]",0.8500000000000001,0.95
"(0.8, 0.9]","(0.9, 1.0]",0.8500000000000001,0.95
"(0.8, 0.9]","(0.9, 1.0]",0.8500000000000001,0.95
"(0.8, 0.9]","(0.9, 1.0]",0.8500000000000001,0.95
"(0.8, 0.9]","(0.9, 1.0]",0.8500000000000001,0.95
"(0.8, 0.9]","(0.9, 1.0]",0.8500000000000001,0.95
"(0.8, 0.9]","(0.9, 1.0]",0.8500000000000001,0.95
"(0.8, 0.9]","(0.9, 1.0]",0.8500000000000001,0.95
"(0.8, 0.9]","(0.9, 1.0]",0.8500000000000001,0.95
"(0.8, 0.9]","(0.9, 1.0]",0.8500000000000001,0.95
"(0.8, 0.9]","(0.9, 1.0]",0.8500000000000001,0.95
"(0.8, 0.9]","(0.9, 1.0]",0.8500000000000001,0.95
"(0.8, 0.9]","(0.9, 1.0]",0.8500000000000001,0.95
"(0.8, 0.9]","(0.9, 1.0]",0.8500000000000001,0.95
"(0.8, 0.9]","(0.9, 1.0]",0.8500000000000001,0.95
"(0.8, 0.9]","(0.9, 1.0]",0.8500000000000001,0.95
"(0.8, 0.9]","(0.9, 1.0]",0.8500000000000001,0.95
"(0.8, 0.9]","(0.9, 1.0]",0.8500000000000001,0.95
"(0.8, 0.9]","(0.9, 1.0]",0.8500000000000001,0.95
"(0.8, 0.9]","(0.9, 1.0]",0.8500000000000001,0.95
"(0.8, 0.9]","(0.9, 1.0]",0.8500000000000001,0.95
"(0.8, 0.9]","(0.9, 1.0]",0.8500000000000001,0.95
"(0.8, 0.9]","(0.9, 1.0]",0.8500000000000001,0.95
"(0.8, 0.9]","(0.9, 1.0]",0.8500000000000001,0.95
"(0.9, 1.0]","(0.9, 1.0]",0.95,0.95
"(0.9, 1.0]","(0.9, 1.0]",0.95,0.95
"(0.9, 1.0]","(0.9, 1.0]",0.95,0.95
"(0.9, 1.0]","(0.9, 1.0]",0.95,0.95
"(0.9, 1.0]","(0.9, 1.0]",0.95,0.95
"(0.9, 1.0]","(0.9, 1.0]",0.95,0.95
"(0.9, 1.0]","(0.9, 1.0]",0.95,0.95
"(0.9, 1.0]","(0.9, 1.0]",0.95,0.95
"(0.9, 1.0]","(0.9, 1.0]",0.95,0.95
"(0.9, 1.0]","(0.9, 1.0]",0.95,0.95
"(0.9, 1.0]","(0.9, 1.0]",0.95,0.95
"(0.9, 1.0]","(0.9, 1.0]",0.95,0.95
"(0.9, 1.0]","(0.9, 1.0]",0.95,0.95
"(0.9, 1.0]","(0.9, 1.0]",0.95,0.95
"(0.9, 1.0]","(0.9, 1.0]",0.95,0.95
"(0.9, 1.0]","(0.9, 1.0]",0.95,0.95
"(0.9, 1.0]","(0.9, 1.0]",0.95,0.95
"(0.9, 1.0]","(0.9, 1.0]",0.95,0.95
"(0.9, 1.0]","(0.9, 1.0]",0.95,0.95
"(0.9, 1.0]","(0.9, 1.0]",0.95,0.95
"(0.9, 1.0]","(0.9, 1.0]",0.95,0.95
"(0.9, 1.0]","(0.9, 1.0]",0.95,0.95
"(0.9, 1.0]","(0.9, 1.0]",0.95,0.95
"(0.9, 1.0]","(0.9, 1.0]",0.95,0.95
"(0.9, 1.0]","(0.9, 1.0]",0.95,0.95
"(0.9, 1.0]","(0.9, 1.0]",0.95,0.95
"(0.9, 1.0]","(0.9, 1.0]",0.95,0.95
"(0.9, 1.0]","(0.9, 1.0]",0.95,0.95
"(0.9, 1.0]","(0.9, 1.0]",0.95,0.95
"(0.9, 1.0]","(0.9, 1.0]",0.95,0.95
"(0.9, 1.0]","(0.9, 1.0]",0.95,0.95
