time,userID,adoption,cascadeSize
2020-02-01 18:58:18,-9iYiwaMAzh0vPasW3X0Cw,1,1
2020-02-02 19:12:11,x0dJbOQNxOQdcCgzTat3OQ,2,2
2020-02-02 22:18:32,x0dJbOQNxOQdcCgzTat3OQ,2,3
2020-02-03 05:28:57,gPPFxYyssRovLcS0-fN1iQ,3,4
2020-02-03 14:55:16,ivlf4qsaVLSI7477PzsHlw,4,5
2020-02-05 12:57:13,Nh2p89Oqo4dyWnv1Cnj6Dw,5,6
2020-02-07 14:17:41,-9iYiwaMAzh0vPasW3X0Cw,5,7
2020-02-07 15:35:35,R24zub8PO4S7mKsn2QphQg,6,8
2020-02-08 13:48:26,vqjwPri9hheVCILz1mXtyg,7,9
2020-02-09 02:30:17,KV2iZhNDGFQ5K9W7alPDmA,8,10
2020-02-09 13:40:26,Z02WNeikdefcrQ1fIVKf-w,9,11
2020-02-09 16:04:02,Usy86id6BoTp5_EHlO9ltg,10,12
2020-02-11 13:28:14,mnYjlB35o3flYRUEwNurbg,11,13
2020-02-11 14:03:07,5KgKooNlbbO167Z4DZ-9QQ,12,14
2020-02-11 14:03:10,5KgKooNlbbO167Z4DZ-9QQ,12,15
2020-02-12 01:13:40,SXrtKSOwjpwIbF75yHMlrQ,13,16
2020-02-13 19:13:15,nEHyhHdvBrcqq3Bcn9zehg,14,17
2020-02-13 23:08:14,BgrZJImUfUENiXR0B5wUdw,15,18
2020-02-14 02:40:32,tfDsy82fdfU5otRDJmlLWQ,16,19
2020-02-15 17:55:54,tBtyyxdsYvRYQU_KHMkYOg,17,20
2020-02-15 20:24:04,BgrZJImUfUENiXR0B5wUdw,17,21
2020-02-16 04:38:21,WFVgqHiFB3qwAckJ84fcrw,18,22
2020-02-16 10:54:46,tbqXokF45S_bfaOk8ilbtA,19,23
2020-02-16 12:47:26,PSiKmvx1LoynhnNL2CMRjw,20,24
2020-02-16 14:21:50,2mitk899wVlFd-BINT-_9g,21,25
2020-02-16 20:14:00,xI9aLVhcdPNcWr7pqBglWQ,22,26
2020-02-17 13:25:04,mJlMQ0kBW4WFd5vw6ltGGA,23,27
2020-02-17 13:45:05,x0tSdjeO071wy6N6OsRf6g,24,28
2020-02-17 13:59:59,Fiqr0FUyTqFMLQybaOynRw,25,29
2020-02-17 16:42:26,1BM7je5j63FRajzx8lNnGQ,26,30
2020-02-17 19:21:47,PpOHawvTXnAGCMONGOmH3A,27,31
2020-02-17 21:03:21,bOWQS7QPnuDqq08G_cuYjQ,28,32
2020-02-18 00:30:53,mnYjlB35o3flYRUEwNurbg,28,33
2020-02-18 07:36:53,szfoTeh1Kyfto6EjYxCegA,29,34
2020-02-20 07:26:37,oXIHTbQJYWYCRGKSjj5LDg,30,35
2020-02-20 18:16:51,HKgCf8wJhjKleRrHAMeZSQ,31,36
2020-02-28 10:28:13,t1zIXZSQLD_Y07bAlKo1Fg,32,37
2020-02-28 13:20:24,m3FgH_ChOE_miWMTyiSlJg,33,38
2020-02-28 17:34:27,yuyzhbbYZsr1IDuVGt-kaA,34,39
2020-02-29 00:56:12,CydkjNkXOKh6g_PA9TaoWw,35,40
2020-02-29 14:50:55,OQvkv868Z_EGdXc-mvNBig,36,41
2020-03-02 17:37:41,UGRAk8EXZhGNuQZ7uL4v0Q,37,42
2020-03-02 22:18:42,0kKnD1ArRa3pI7c6ItC7Bg,38,43
2020-03-03 02:07:03,5i0LywhVtshehh80eSuiVQ,39,44
2020-03-03 12:28:07,e0vUcbH-RFJB8-ZVORpzPA,40,45
2020-03-05 18:11:02,RBDXpynpzIDpUh9DNHAUeQ,41,46
2020-03-05 18:24:07,RBDXpynpzIDpUh9DNHAUeQ,41,47
2020-03-07 20:17:18,OEZqS04qvhnLXb7IlWW_zw,42,48
2020-03-08 23:33:49,WYzC0KwTLiAuR8CRN32O0Q,43,49
2020-03-09 23:20:24,8vLoZHqVDpq70d1_2yQ4Gg,44,50
2020-03-10 16:57:35,T9DtdwrQXVLmPl5t6oOF_A,45,51
2020-03-10 17:26:04,Pwgv7hLy0gjk08pgJH5Brg,46,52
2020-03-11 10:25:54,Pwgv7hLy0gjk08pgJH5Brg,46,53
2020-03-12 22:59:34,3jVEgp9n8MtHKIyRkwwqpA,47,54
2020-03-12 23:35:01,M1MUP5JDnRJ5X48rx-ycWA,48,55
2020-03-13 01:21:55,yR5HGsn6HxfVpsHEJ4vnFQ,49,56
2020-03-14 00:00:11,i4irMS5SZ5jCLEufTfSKgA,50,57
2020-03-15 13:58:37,10US1lcatfh4w6qlxA-JRg,51,58
2020-03-15 14:52:47,q0EUgd_1H7AAwJC5iyGiOA,52,59
2020-03-15 15:23:58,xmBLUqrHXHVt4R2rQTmrxQ,53,60
2020-03-16 06:36:45,vuLOXNDUwSMu_dHLMONEXQ,54,61
2020-03-18 05:50:46,QTv4CDEyZh40abr8a2-MiA,55,62
2020-03-19 16:05:31,gDlEUMASoUE9ajtF0BXG0A,56,63
2020-03-21 14:10:37,-9iYiwaMAzh0vPasW3X0Cw,56,64
2020-03-21 21:50:04,jy8z3kzBTVH42FyAGIPzIg,57,65
2020-03-22 12:33:28,nxwxQJgvwsjAmMw8dZxB1Q,58,66
2020-03-22 21:34:47,OQ919vPDoSZmayc2KSqYZQ,59,67
2020-03-23 17:17:23,10eUUkEY6jFIwNVQ6s6o5g,60,68
2020-03-26 09:55:06,ii1FICWaa0ULEWbPL5LEdA,61,69
2020-03-30 07:19:42,aBXMnnGuYZOceCTUxt60TA,62,70
2020-03-31 12:44:28,MhYh4rVxab3R-vvDLkyQUg,63,71
2020-03-31 16:50:59,59cmYpqtnBh7S6_S73LtYw,64,72
2020-04-01 18:50:31,1aFJTKG-LNfsMWnCViKWvg,65,73
2020-04-02 12:21:00,7e4SWHq0SLwf-T02_ZNkgA,66,74
2020-04-02 12:23:39,xqan-PbVvhhqbKIPIPy1Gw,67,75
2020-04-02 12:24:32,7e4SWHq0SLwf-T02_ZNkgA,67,76
2020-04-08 01:25:01,6vQq4uaBT1Sqb9k6O97-HQ,68,77
2020-04-08 02:25:49,9eZs173a26c5GD1mK583FA,69,78
2020-04-08 05:24:22,WtaA38S26N7Z_Wj7JuVJ7w,70,79
2020-04-08 11:57:54,CysN3eEmqQydS0KBlRFilg,71,80
2020-04-08 11:58:23,0xWZFkYPJ3DEGoljzDFK5A,72,81
2020-04-08 14:14:12,OGlR9cG35cfs7GOADVK_1Q,73,82
2020-04-08 21:57:46,U2wHpM-WQRTnFa-00C4jRw,74,83
2020-04-10 17:37:36,VVdwXwk_st6F42sXBSEhVA,75,84
2020-04-11 10:51:03,rTW3iXUbb08Z9c8JKmcV5A,76,85
2020-04-11 19:31:13,84lYt-atUHt_OjnkPkXfnA,77,86
2020-04-12 05:08:07,mtaq7VE7cxSLfUn3Cvz7Mg,78,87
2020-04-12 23:37:13,Q-MBYay9kl05403P3CoTCg,79,88
2020-04-13 02:23:42,AL_2_73hZhIDFZiVyOlexQ,80,89
2020-04-13 03:03:11,X0ALe8KPdMX0SdAfc0ornA,81,90
2020-04-13 10:45:32,nKpSKfqNIkDK7HkdOmwjqQ,82,91
2020-04-13 16:58:16,FR0Rk2PHdnSVZlyhOBhUWA,83,92
2020-04-13 17:53:08,sO4a1VodcmDt4PLwQ_3W6g,84,93
2020-04-13 17:57:36,Z-95u8P_mOYfF9ZDVkaANg,85,94
2020-04-13 21:08:16,FCxnYoPjR4U5ksrGI4Rk7A,86,95
2020-04-14 00:25:36,7emfRhzKoIZ1omDvV-4yMg,87,96
2020-04-14 07:08:59,Dj1EMsbgkbjLCsYucr5b5g,88,97
2020-04-14 08:35:04,dMR_xutncT-mHMAjLhYFUw,89,98
2020-04-14 09:47:50,MCpuBmDZHNeeluQszLGqYA,90,99
2020-04-14 21:05:46,Ju4E0anRo12S52LOKN7HDg,91,100
2020-04-15 00:40:42,l0RapIP9fv16APK9c6TJHg,92,101
2020-04-15 04:59:52,v4ObkG0d8vgVA0PbCc-CaQ,93,102
2020-04-15 05:52:22,9qA9E3Md3JcsmOVl9H5oWQ,94,103
2020-04-15 21:55:13,lFW3dMRQl5AEFHVyDQ6Xrw,95,104
2020-04-15 22:36:43,qJ2fJTREH_Lnt3erJue7Ew,96,105
2020-04-15 23:01:57,Q5eSXX8U-jYQ1e4LjHiIXg,97,106
2020-04-15 23:13:24,N1ekXtEEYX-O4Kv84DMuxA,98,107
2020-04-16 11:43:05,s8j0G7mlqz3ZM1DnJNFC2A,99,108
2020-04-16 13:08:48,bMipjZ8TOvHZ9hNDwNQmTg,100,109
2020-04-16 19:40:13,tAd4OvDmXnk6v0ywWpoztA,101,110
2020-04-16 21:52:16,v1Opc68eLTaa0nx7kGPDSw,102,111
2020-04-17 11:53:50,2iYVpobJvP1BCzUjnJNG7w,103,112
2020-04-17 12:04:15,Q5mYRz5cJYN6m9A2dtW_jw,104,113
2020-04-17 15:04:47,QaQurL_ITvPIinWi5JtLFA,105,114
2020-04-17 17:19:18,1oZ-70zACVlSIvE8i3NdiQ,106,115
2020-04-17 20:15:35,Ju4E0anRo12S52LOKN7HDg,106,116
2020-04-18 23:17:30,9Hq2lHorzYMitJJz2LS_EA,107,117
2020-04-19 05:00:43,3NoI7YMwwJ0Z988W2avKMA,108,118
2020-04-19 06:51:02,6SN9o_e6VNp0LpdhLRndlg,109,119
2020-04-19 10:45:34,gEeRhYqYlKNze6035G_Mog,110,120
2020-04-19 21:47:13,NZanSiKXJS_spQ3MDI5w0g,111,121
2020-04-20 04:30:56,ozImkRZH2r-MV5rNI9sMgQ,112,122
2020-04-20 22:27:17,EGQXwmLJorgKsiiwoSqWrQ,113,123
2020-04-21 08:43:26,TYBlxZGm_a6S073bqMEVCQ,114,124
2020-04-21 13:37:26,1fWj49p8ZdIi4uhNGHo25Q,115,125
2020-04-22 17:04:15,cKM3nrBnGupVBSnnhpqOiA,116,126
2020-04-23 02:13:59,D5d3dfPGEgZHJjL2ceOXdg,117,127
2020-04-23 10:38:08,cKn1lx80QPBQFLQoENmcFQ,118,128
2020-04-23 22:35:35,4qBCv4XHpKltBe7ECbzxFw,119,129
2020-04-24 08:32:26,f127InD2ofYYahLj0xnNjA,120,130
2020-04-24 16:42:47,YXgw88hnNkuVtGnDzzKwEQ,121,131
2020-04-24 19:07:34,MGlSV-zi_PFkBzAOmHBygA,122,132
2020-04-24 21:44:27,06TWBogh-Gc168zuCQjLFg,123,133
2020-04-24 21:47:27,GuAiGUTw9HXCJ4lCk_0WZw,124,134
2020-04-24 23:15:26,i9KwAdFHKEqYMjufxHFH0Q,125,135
2020-04-25 04:54:07,QIJBivFQBObr4EpZkqpXmQ,126,136
2020-04-25 09:29:29,t_w22zL5TftTnKy5X5WAHQ,127,137
2020-04-25 13:38:56,5gu5QQ5z5xHNmUMdLa4dJg,128,138
2020-04-25 13:56:44,D5d3dfPGEgZHJjL2ceOXdg,128,139
2020-04-25 16:18:23,3FZYzBZWcoi_e69LnQJA4g,129,140
2020-04-25 21:39:02,S9poiCF0q5AepjaMyS5_tg,130,141
2020-04-26 06:06:31,3DpDG0TLT3ns-qtksM003w,131,142
2020-04-26 19:54:28,-tOPDvWu6Xzdl4aFs9wvQA,132,143
2020-04-26 20:43:42,yhOxnjzUm2AXj6zBZJkZ7Q,133,144
2020-04-27 00:18:38,QUGniOdUjK730sNanvcbfQ,134,145
2020-04-27 03:06:03,2yy8aaaoyEyBsPaGhVmuQQ,135,146
2020-04-27 08:13:58,rv837IL2umdnHyqAA2waJg,136,147
2020-04-27 08:26:54,-t-NN_-WsDZWbx8Y0HxlMQ,137,148
2020-04-27 11:24:55,n8ShyX-NhN3pyFvithkG0w,138,149
2020-04-27 15:12:38,XCIs135ISXF6OY4o54XBiw,139,150
2020-04-27 19:21:40,-1yaeHukOjmItPvSdtbncQ,140,151
2020-04-28 00:12:33,tZ0lSSXW5SiPJ-GWCVXv5Q,141,152
2020-04-28 05:27:58,wE3HRbjKpuOx_exosbZQrQ,142,153
2020-04-28 16:51:17,tZ0lSSXW5SiPJ-GWCVXv5Q,142,154
2020-04-28 18:46:44,b7s61InJgvus0t0dbL1p9Q,143,155
2020-04-28 21:28:52,dZ7rDMupOo5pefCndkmR8Q,144,156
2020-04-29 00:32:24,zf-g9ZutKsQYxaG5NB75wQ,145,157
2020-04-29 07:23:26,TRh5uNGcqfrwPS1OL3XILA,146,158
2020-04-29 14:29:28,zf-g9ZutKsQYxaG5NB75wQ,146,159
2020-04-29 16:06:30,fl1zFG7CnCWT7fJSqH-P7Q,147,160
2020-04-29 16:27:26,v8WVshHaZwzyA_4PuT_ZLg,148,161
2020-04-29 19:28:33,r-skG68Jqe_jGucutRhTxQ,149,162
2020-04-29 21:55:12,nCEeDAqC0rIGqn3YnsqxIQ,150,163
2020-04-30 09:52:25,zf-g9ZutKsQYxaG5NB75wQ,150,164
2020-04-30 12:49:17,Mlp5uT8PoBFHP0fsb6NlWA,151,165
2020-04-30 14:43:13,TWaeTIvGY7dXRYuupj6FMQ,152,166
2020-04-30 20:07:11,hFsWvJwASo14Tn8uQHVAlw,153,167
2020-04-30 23:17:06,QKvYVGkuCX25cHUBHDSj5Q,154,168
2020-05-01 01:59:00,eI82cd5KKzrS1vM0z-zWVA,155,169
2020-05-01 18:29:48,cz7SZMyilKWTUuHLFu5Smg,156,170
2020-05-01 22:57:23,lvs0cnJYwW2qDMVWmm7riw,157,171
2020-05-02 12:40:34,ldXe243ZnBbm2n6UBjCdMA,158,172
2020-05-02 18:51:58,ltmdK3uNZ9gPppgnryfdTA,159,173
2020-05-02 23:16:08,nVevha55HbJmQVyQuN8LXg,160,174
2020-05-03 11:00:09,YuwVEQOfgp_SyUha0cvs-A,161,175
2020-05-03 13:12:58,Z2p8K-4J-N90FxWINLVI3g,162,176
2020-05-03 13:29:43,q86KiJW0EBiP6wsqBL0Kuw,163,177
2020-05-03 16:19:12,vU2h7MR0H7SrmIscZwkw7Q,164,178
2020-05-03 17:31:03,FzjiQ6uOo6qmogxDv56YlQ,165,179
2020-05-03 19:12:30,8bbHdtjMpxjfs72mCACwjA,166,180
2020-05-03 21:04:33,FzjiQ6uOo6qmogxDv56YlQ,166,181
2020-05-05 12:30:22,FpeTFuOuSG8_tn1O5DOz-Q,167,182
2020-05-05 13:01:30,9C2rCrcqOGLXXutGtc12Sg,168,183
2020-05-05 19:28:01,c2ly-lRreMz85K_HuojvqQ,169,184
2020-05-05 19:33:31,c2ly-lRreMz85K_HuojvqQ,169,185
2020-05-05 19:55:19,6zbbDyqUUSLQPUCwh4Ehdg,170,186
2020-05-06 02:04:04,3jVEgp9n8MtHKIyRkwwqpA,170,187
2020-05-07 19:33:29,CPPs3ViY9k6OcSRPl0I7NQ,171,188
2020-05-09 21:08:31,vRJOXUjDWic3v--qFsLCMQ,172,189
2020-05-10 03:23:15,pIc8AVzPYK20UnGxCk6GIA,173,190
2020-05-11 04:08:44,sH3JlfxmoWerJnjbnHrH0A,174,191
2020-05-11 10:59:19,SMNeqtBmNRc493RsdhfZMQ,175,192
2020-05-11 11:44:02,JnTDPT4v70IwHNizf1SZBA,176,193
2020-05-11 12:16:47,DcDzgwBLd1iQavvJLCZ-hg,177,194
2020-05-13 04:15:20,6Zmru1ugmElQLX0oydKSqw,178,195
2020-05-14 02:43:30,iJSbCYxqss18vuy7-NXqKA,179,196
2020-05-15 00:28:58,Jk3XOdZrajVtA9xVUl4x_A,180,197
2020-05-16 01:37:30,vHyMEu4UJXjICF38kVrzvg,181,198
2020-05-16 01:42:01,vHyMEu4UJXjICF38kVrzvg,181,199
2020-05-17 19:09:14,3egyke5MT3KCbT9FIJ-azQ,182,200
2020-05-18 08:02:01,CiUh8HawuPSxZ3pMX6xCDg,183,201
2020-05-18 08:54:18,UrJuBvTD2CZz97ivjWjMJA,184,202
2020-05-18 21:20:24,3yWvnDug6TrZB4U2HlU4ZQ,185,203
2020-05-19 02:17:57,zh5xTwHn4x9lur1HEwiFhg,186,204
2020-05-19 03:40:24,AhFB-jxVonJ17g_YZlj3FA,187,205
2020-05-19 04:52:07,p-Wh-BjDtSMY6Ts04Mnvgg,188,206
2020-05-19 04:52:13,8n_nOuYro2mE3_0NYnhHaQ,189,207
2020-05-19 06:17:49,y16L-8h5urOb9si3NNToXA,190,208
2020-05-19 06:59:46,p-Wh-BjDtSMY6Ts04Mnvgg,190,209
2020-05-19 10:40:32,60RBDhMHnKk10qBi4TbpLw,191,210
2020-05-19 16:10:34,FIcvnkhAyU5lu-67_pKQKQ,192,211
2020-05-19 19:05:25,i0siCloCdryEpHeT6pyRhA,193,212
2020-05-21 18:29:30,Lo4yyDo3Dt72tBOeKUggfA,194,213
2020-05-21 23:01:39,Ak9_RkWdJLWkG1rbNxQhqQ,195,214
2020-05-22 01:53:32,75FatgR2MAoNpOnTYy6DPA,196,215
2020-05-22 07:48:32,egbS3qlNKZBRvMxZfxyd_w,197,216
2020-05-22 21:38:35,fXWf46xxErbXLWY2xZxBUg,198,217
2020-05-23 09:15:47,zwQhVdqZqGtiuJEb_7wTVg,199,218
2020-05-23 20:56:17,byIp0V-ofIAFGrvqjmVVjw,200,219
2020-05-23 21:02:29,byIp0V-ofIAFGrvqjmVVjw,200,220
2020-05-23 21:03:14,byIp0V-ofIAFGrvqjmVVjw,200,221
2020-05-23 21:17:03,4RSQUYOl1vxobKhN1gCSXw,201,222
2020-05-24 17:09:27,CB2R7nm_zxnqROizSBVUrg,202,223
2020-05-24 21:03:24,CB2R7nm_zxnqROizSBVUrg,202,224
2020-05-24 22:55:45,3LaARnfyX9liQB7B6Wzvhg,203,225
2020-05-25 01:11:01,8AY6BoKDcUpkyGV6LYAZpA,204,226
2020-05-25 02:21:10,h9NROlKluky29q_5f553Vg,205,227
2020-05-25 12:24:30,4X3yYMF3dFUe8PhMXtWbqA,206,228
2020-05-26 13:08:28,fqa1TqAw7Zt43yVbX3OBPA,207,229
2020-05-27 08:48:37,JCChj9bbBgAJD7zfg3DCrg,208,230
2020-05-27 15:14:15,aOh1hx4lpOlYIn_exDObBQ,209,231
2020-05-27 16:29:31,_3iOn4Jkd11W9CXpVsUySQ,210,232
2020-05-27 17:18:55,hsvNFqthWFiyL6ETx7nv2g,211,233
2020-05-28 23:33:58,-V86OnRauaPEud0pdjbFHA,212,234
2020-05-30 09:23:42,8n47I5qLLHfAfLlVj-u0yw,213,235
2020-05-30 10:20:02,XkQkbcAfOc8j4EVXAOBANw,214,236
2020-05-30 18:20:18,XiLGA24n5kPT5G-OD32z0A,215,237
2020-05-31 02:35:30,rzgzjAOJA8G2KmbZb5MxpA,216,238
2020-05-31 14:35:03,OsqywbQO9hWJSeQJUZ-vLw,217,239
2020-06-01 02:55:50,AVN_yx_m8SL4Zt7qXNHeow,218,240
2020-06-04 06:28:29,MuXM8eapYx2adpx4twBu6Q,219,241
2020-06-04 19:06:00,2qg5SYBWICeoPNINSFXKKA,220,242
2020-06-05 02:19:20,CpBwM5ei154bxIRbhtcNyQ,221,243
2020-06-06 00:36:38,cqFG14kyWPHI4EMouamFyg,222,244
2020-06-07 18:49:47,ZRWvZ0M0-uziieZKX7uVfA,223,245
2020-06-07 18:52:32,SdtBMMoeWPqFVTXZeTm-Hw,224,246
2020-06-08 17:11:07,3yWvnDug6TrZB4U2HlU4ZQ,224,247
2020-06-08 21:56:35,F9izr_D23sj3JMkmuNa7fQ,225,248
2020-06-09 03:45:14,Wq1QnUmHZqJPxx6hXXTicA,226,249
2020-06-09 10:53:51,OTZNnEgYm_E4Mje3RXMC8w,227,250
2020-06-09 11:51:58,86PlWCfoG70r-YbeIwwoyQ,228,251
2020-06-10 08:38:13,-9iYiwaMAzh0vPasW3X0Cw,228,252
2020-06-10 10:09:38,e-0OoIuRmR2-3RdqpgnJlg,229,253
2020-06-10 17:29:39,x0dJbOQNxOQdcCgzTat3OQ,229,254
2020-06-11 05:14:48,M1MUP5JDnRJ5X48rx-ycWA,229,255
2020-06-11 23:03:44,rQJt_1QMmV0Zw4NSHbscOw,230,256
2020-06-12 11:55:01,yABAkZX2lecVUKfrRaoWng,231,257
2020-06-13 11:24:25,GV6acjpGx4P2lUayY3Pntg,232,258
2020-06-15 06:42:12,wGRfA9D4chjuk68hY0P5QA,233,259
2020-06-15 08:27:31,sH7by1zAaGOmqPvkGksKHg,234,260
2020-06-15 17:13:56,qDy6Kv3Of9MRHN9Fhiv29Q,235,261
2020-06-15 23:15:01,7ibSvic1gph6g4Mws4nrXg,236,262
2020-06-16 00:05:25,qDy6Kv3Of9MRHN9Fhiv29Q,236,263
2020-06-16 06:06:59,PcvtIXJQYfCi34BrCYq3OA,237,264
2020-06-16 13:08:30,x0dJbOQNxOQdcCgzTat3OQ,237,265
2020-06-16 23:13:27,Np5TTTHQjLb5-j9eB7ns3w,238,266
2020-06-17 02:18:16,FYp80EKRiFoL6FH6p4ES1Q,239,267
2020-06-17 06:22:58,e-jpf5aweBcA0x1ezEMNqg,240,268
2020-06-17 06:39:01,1U95Ks-WnlPemj5Ld-_MPw,241,269
2020-06-17 10:16:10,VRfnNzn9O-Wt1m-dHcRzcg,242,270
2020-06-17 11:13:30,iY5_Ol0btxryd3laEv4UPQ,243,271
2020-06-17 12:48:06,iBcLURCbzADWsA-EG5BLWQ,244,272
2020-06-17 20:48:43,GdXzN0BQbGBCUUHRX6Y1sQ,245,273
2020-06-18 13:31:47,1mpPvmLIoQbQGflX31vCMQ,246,274
2020-06-18 13:53:11,5l2iOSZyv6o4IxImPKzrnQ,247,275
2020-06-18 22:49:36,OBJ3t0zzx4qa3e7iVs7qTw,248,276
2020-06-19 05:52:50,Ph7ovgzV3I6ipiYguH7tAw,249,277
2020-06-19 17:32:41,uGM-m-bucEEeXwgcq0SeJQ,250,278
2020-06-20 03:20:44,gCmBvpubJn9gpFZAaflwLg,251,279
2020-06-20 18:17:51,7WeqLJOu_xxJqT1vLIaPvg,252,280
2020-06-20 18:21:00,7WeqLJOu_xxJqT1vLIaPvg,252,281
2020-06-20 18:21:31,7WeqLJOu_xxJqT1vLIaPvg,252,282
2020-06-20 18:22:32,7WeqLJOu_xxJqT1vLIaPvg,252,283
2020-06-20 18:28:18,7WeqLJOu_xxJqT1vLIaPvg,252,284
2020-06-20 18:30:49,7WeqLJOu_xxJqT1vLIaPvg,252,285
2020-06-20 18:31:28,7WeqLJOu_xxJqT1vLIaPvg,252,286
2020-06-20 18:56:26,7WeqLJOu_xxJqT1vLIaPvg,252,287
2020-06-22 18:22:36,YJpTsohCny5w-9r4108R2w,253,288
2020-06-22 20:54:24,RPi_6dmh4Iq6d2PKfEzWww,254,289
2020-06-22 22:55:27,F_UX-BowA2AOr1G3hugP3g,255,290
2020-06-23 03:17:22,x67DEr2V_KoxeWUvUwWgyA,256,291
2020-06-23 10:12:38,iJS1oepmj-VRmfntdtFogg,257,292
2020-06-23 13:44:26,3uqMSzeRJDaAQMBaMIZopg,258,293
2020-06-24 05:59:07,1He_igi6jDYRh6rbT1Lm7w,259,294
2020-06-24 06:05:06,1He_igi6jDYRh6rbT1Lm7w,259,295
2020-06-24 19:17:31,BMWerZDV2pikcngrbJVU5w,260,296
2020-06-25 06:32:54,EY_ZGfpr8CK3CfPaAcR23A,261,297
2020-06-25 10:20:19,-9iYiwaMAzh0vPasW3X0Cw,261,298
2020-06-25 13:36:01,4YFw4hQrTg-AGP_44coGcg,262,299
2020-06-25 14:15:32,DKDRpJMhqcOFyh6NQ_ecgw,263,300
2020-06-25 15:35:37,4dL2sMQyIHEoz8_ZB-xazw,264,301
2020-06-25 17:18:45,DB5UKXrvNxntzsVpCHIuwA,265,302
2020-06-26 11:40:19,1c04pLP4YCnumXddpqPIBQ,266,303
2020-06-26 17:29:21,bCj7eWthE3JDvhcb8a4atg,267,304
2020-06-27 18:08:57,Axdd-684dVA0SI84GyepjA,268,305
2020-06-28 12:11:55,9pfurDhlqGQckfP0V4vpWg,269,306
2020-06-28 15:25:10,OB0evb0I4joMolmVqZ1TlQ,270,307
2020-06-29 13:19:06,szfoTeh1Kyfto6EjYxCegA,270,308
2020-06-29 18:40:32,_ddMBdhS5aOqg-nTwG-P9g,271,309
2020-06-29 18:57:39,f8S29xHkPevKvhzzu-n4tw,272,310
2020-06-29 21:29:37,ksCesbBQq4OMnWqxLstIXw,273,311
2020-06-29 23:59:02,Wu2yuq8WmSfmMb_kGF1ThA,274,312
2020-06-30 00:05:58,Wu2yuq8WmSfmMb_kGF1ThA,274,313
2020-06-30 17:28:24,sdBgE22mwQ9QW_NaWLfhHQ,275,314
2020-06-30 18:46:21,ckdUAAGT8d2xSZgCfmUy_g,276,315
2020-07-01 22:12:00,XshxutWFKH5CoLch2mMVbA,277,316
2020-07-02 10:54:36,IozyEb2VpSi2pBw2UNhyOw,278,317
2020-07-02 11:32:20,hSZb3c_3URCVbHpD1E1_0Q,279,318
2020-07-02 18:13:32,QKsEUlUL_OcABKQ4uFcgCg,280,319
2020-07-02 21:58:41,pvt-aDm77cqoMdSSRBR_Jg,281,320
2020-07-03 15:49:08,BqyvSvlbCyVdVwxc8PMDRA,282,321
2020-07-03 16:02:30,LChf2JjSw1jfQnVuD-sVVQ,283,322
2020-07-03 16:30:49,LChf2JjSw1jfQnVuD-sVVQ,283,323
2020-07-04 01:05:41,f7CT0LkCcKOgdtgfrzuF2Q,284,324
2020-07-04 01:53:01,FCQdE5BdP3oUHp0h957hkg,285,325
2020-07-04 15:55:10,lx9L-Qul05Jt42dICYxk5w,286,326
2020-07-04 20:01:21,iqA-P12ZlEgTXzPXkkfhGQ,287,327
2020-07-05 15:51:55,z7cj0CEjwV4Mft5GBJWIdQ,288,328
2020-07-05 18:19:03,-wQJIEnBp7d4YFdDkbNkgg,289,329
2020-07-05 21:46:37,f6r1WDLA9GlTdZWFDx9BBg,290,330
2020-07-05 22:33:25,2X4VYCH-XjVHXG4MCGp7Pg,291,331
2020-07-06 12:57:51,U9sWO8BAfTqItbjtzmv3Ow,292,332
2020-07-06 14:00:43,74OilARMa8e344tXHIYg_w,293,333
2020-07-06 20:00:03,MBMNMW2JU3ZjrEtVj1dctA,294,334
2020-07-06 23:36:01,AxWHwPP0hXi9Y1KYOKR1qg,295,335
2020-07-08 14:13:13,Igo3C6EMzvXUQyiLFgb8RA,296,336
2020-07-09 06:30:57,E0PjbTW8nIJv3zxH1Kp3dg,297,337
2020-07-09 13:42:12,E0PjbTW8nIJv3zxH1Kp3dg,297,338
2020-07-09 14:14:56,D8U02469sb_q33hoCFCzHw,298,339
2020-07-09 19:34:47,dTMqStgDPglYkp229IZyvw,299,340
2020-07-09 23:26:38,9pndoOR8jSEpwVXCPeXagQ,300,341
2020-07-10 02:18:23,fXAXx7Kyy7RHCtAebwyaHQ,301,342
2020-07-10 04:05:17,0HLyb_qXf1ZXAYl4GCBQnw,302,343
2020-07-10 06:09:27,fXAXx7Kyy7RHCtAebwyaHQ,302,344
2020-07-10 09:10:37,0SeiC6L1vUUyQBGlFpsK3Q,303,345
2020-07-10 09:24:12,CHWXssiKMAsBIxc-X3NbYw,304,346
2020-07-11 01:13:22,JEFr9ZcabwhLaqJ-FsXraw,305,347
2020-07-11 10:33:12,H9Q9bgflZbC_s7qShrmyng,306,348
2020-07-11 10:42:25,4QGFOHjfoH8idvtGDxupYw,307,349
2020-07-12 01:11:18,USuQbiBb4TYJ6uSPEO8UNQ,308,350
2020-07-12 05:45:07,eFOHup7i6HyCMsx2HhymRg,309,351
2020-07-12 21:30:04,1He_igi6jDYRh6rbT1Lm7w,309,352
2020-07-13 04:18:33,Z5q5eIJ8CHDG0r9Tvgj8wg,310,353
2020-07-13 15:23:56,_s4AtFBbedZzJlvwNsmpgw,311,354
2020-07-13 15:41:52,vN8bjvoNC2p92yIcVwVWDg,312,355
2020-07-13 19:03:06,NAXipf7J_FW6iShoX5n9WQ,313,356
2020-07-14 22:17:46,ziI23ywjj8wOiFvNOp5qOA,314,357
2020-07-15 01:42:04,owlmbmjDaYvReDhB7wk9IQ,315,358
2020-07-15 09:27:22,dIVd_cCmAbaDkuDqNTxYLQ,316,359
2020-07-15 11:54:40,CPPabS7IMkXOyeAqrNdRSw,317,360
2020-07-15 12:04:46,aUtBxXaJILO0oCwJ1Ab4Ug,318,361
2020-07-15 12:41:25,7I8cBaRLB9oiKVE0UIShQw,319,362
2020-07-15 12:59:59,7I8cBaRLB9oiKVE0UIShQw,319,363
2020-07-15 18:48:11,w8FXcBOz0mJzqkzCzKy-XA,320,364
2020-07-15 20:28:15,KPURudL-Niq-dhtiJ-8nrQ,321,365
2020-07-15 21:33:31,Sja8i8MJtR9F5Y6tEi2mbA,322,366
2020-07-15 21:36:51,EIl8fn2z_lcWP8e7YfgJtg,323,367
2020-07-16 08:24:22,NMKcGVvSU7Rtj4malP50cg,324,368
2020-07-16 12:40:51,sW3Mm57sriEfuIZ8PjWlrA,325,369
2020-07-17 08:37:32,g3eSdfvn055owigj_w1o4w,326,370
2020-07-18 14:31:19,w3NBSMLjTmf1vSIceURlOQ,327,371
2020-07-18 15:12:30,1c1cFpHyR0CbOCMTriXPOw,328,372
2020-07-18 16:29:05,OdiC4qApaHK5fW1IGWyztA,329,373
2020-07-18 18:01:19,m3s_brvPA7PUaGqa7TJEYg,330,374
2020-07-18 23:28:50,WomJ0iC33VnFBi3wM5pXVw,331,375
2020-07-19 10:41:56,qzHUNn2srt0zE36-MFf7Yw,332,376
2020-07-19 14:09:35,Wj-gfmloj3svJTLIhgSVWA,333,377
2020-07-19 17:55:08,f-bijwjv0Qs9BB2738GUsA,334,378
2020-07-20 15:57:35,H9Q9bgflZbC_s7qShrmyng,334,379
2020-07-21 06:26:22,UFskbMlHkXDb7Fbe1Rpb4Q,335,380
2020-07-21 21:42:13,mYdczfCFNgKbT3r1Z0Me-Q,336,381
2020-07-21 21:55:37,UFskbMlHkXDb7Fbe1Rpb4Q,336,382
2020-07-21 22:10:31,cCDMdxxdkB3RG9PKMTvs5g,337,383
2020-07-22 06:16:21,qzHUNn2srt0zE36-MFf7Yw,337,384
2020-07-23 03:10:24,HLICqurtvuUyGHLvozOwWA,338,385
2020-07-23 07:16:46,OoBpSdvEmpUeTscTR0NMTA,339,386
2020-07-23 16:26:26,4LgEWJWp9tKKqPDkXHiE_w,340,387
2020-07-24 17:44:07,sW3Mm57sriEfuIZ8PjWlrA,340,388
2020-07-25 05:46:26,z5gOB9Fyvb82jeUEXz3Dow,341,389
2020-07-25 07:00:56,xiBgBX1Kx6rvLDPs1fnnsA,342,390
2020-07-26 16:16:43,5hKOCUw3REJckgnJHRcqAg,343,391
2020-07-28 10:51:10,BBNgcP4gpexxyZgv106g-w,344,392
2020-07-28 11:08:20,5PfeU5L28_M3_EoN4fgOeQ,345,393
2020-07-29 00:22:42,zHss88R6rx4pHcv-ELVLnQ,346,394
2020-07-29 18:20:20,7mrGLYrSXQUnX8sXfQHTOw,347,395
2020-07-30 00:14:09,mECzJHERK2_8AK3nRehHyw,348,396
2020-07-30 23:04:48,N-q6UTDlw5OGxjBZmDzZoA,349,397
2020-07-31 01:38:28,w3NBSMLjTmf1vSIceURlOQ,349,398
2020-07-31 07:39:55,uOHArcfYkGCaLN3w2N2Low,350,399
2020-08-01 07:47:27,6zbbDyqUUSLQPUCwh4Ehdg,350,400
2020-08-02 06:36:52,hJcAQHV4Pz-EQYl02_PXlA,351,401
2020-08-02 13:30:35,rb86f6x0aPY2jfSE6t0qpQ,352,402
2020-08-02 17:07:26,hJcAQHV4Pz-EQYl02_PXlA,352,403
2020-08-03 03:59:30,hJcAQHV4Pz-EQYl02_PXlA,352,404
2020-08-03 14:29:29,1Q91juWkdARzCxELdGUgGg,353,405
2020-08-04 14:17:41,LD_fHruVuXPFvIUG1mX1nQ,354,406
2020-08-05 16:41:55,oOLIokZq9B9jSQuvMaDkEA,355,407
2020-08-05 18:46:38,L07kX4uOAc9HMChATOOOJA,356,408
2020-08-08 07:33:24,dFsJODIPMIQHDMUWjFNbrw,357,409
2020-08-08 10:32:54,SbdP4COR2Du4AA2asT5O7Q,358,410
2020-08-08 11:49:16,JYeIaZsR43k7XoZTEyvjBw,359,411
2020-08-08 15:35:18,oTx4hBVIhw7KNmJAIois7g,360,412
2020-08-08 19:29:11,SbdP4COR2Du4AA2asT5O7Q,360,413
2020-08-09 05:47:22,981StKYKr2Wi7nXNfuOEng,361,414
2020-08-10 09:13:42,1_EFVYII4zo9A5hUKNc4gg,362,415
2020-08-10 09:21:33,Q9zurrhmOxkU1jpCK03h9w,363,416
2020-08-10 09:23:32,Q9zurrhmOxkU1jpCK03h9w,363,417
2020-08-10 09:23:39,Q9zurrhmOxkU1jpCK03h9w,363,418
2020-08-10 09:24:00,Q9zurrhmOxkU1jpCK03h9w,363,419
2020-08-10 09:26:48,Q9zurrhmOxkU1jpCK03h9w,363,420
2020-08-10 09:27:40,Q9zurrhmOxkU1jpCK03h9w,363,421
2020-08-10 09:28:06,Q9zurrhmOxkU1jpCK03h9w,363,422
2020-08-10 09:32:14,vN8bjvoNC2p92yIcVwVWDg,363,423
2020-08-10 11:01:02,1_EFVYII4zo9A5hUKNc4gg,363,424
2020-08-13 14:24:51,qIZ5NBVmDibhEBT0Ituh_A,364,425
2020-08-13 14:43:09,1_EFVYII4zo9A5hUKNc4gg,364,426
2020-08-13 14:47:04,1_EFVYII4zo9A5hUKNc4gg,364,427
2020-08-16 00:17:17,WCDIrXPoCtblkBzRs7QhKw,365,428
2020-08-18 03:44:16,EgXZWm_hTjVjTJx9H-3GVg,366,429
2020-08-18 04:49:08,I6A3aiUnysGE0BAJRjLJHA,367,430
2020-08-18 17:03:24,rb86f6x0aPY2jfSE6t0qpQ,367,431
2020-08-18 17:10:59,0q6xERgkBBwRUZalErrf0A,368,432
2020-08-18 17:19:13,l3e4e3k2XZStP-cjGmJ-aA,369,433
2020-08-18 18:26:54,1bOOoGbXapveYYICWP9kBw,370,434
2020-08-18 18:45:13,rb86f6x0aPY2jfSE6t0qpQ,370,435
2020-08-18 19:23:29,rb86f6x0aPY2jfSE6t0qpQ,370,436
2020-08-20 02:44:35,LCRoA1G1U7fnZgUXfpeIiQ,371,437
2020-08-22 15:01:32,8UnBUfH7zjWx3orQL4T-EA,372,438
2020-08-23 17:04:55,DIqEeWLzdldgTV9-3qm6jA,373,439
2020-08-23 21:47:08,BgrZJImUfUENiXR0B5wUdw,373,440
2020-08-25 00:03:29,iSsOhY02jFookaMUYWOAqg,374,441
2020-08-25 02:31:29,McCkAkODHPFzo7RuigyQ-A,375,442
2020-08-25 10:45:39,3jVEgp9n8MtHKIyRkwwqpA,375,443
2020-08-25 10:59:51,3jVEgp9n8MtHKIyRkwwqpA,375,444
2020-08-25 11:12:22,sW3Mm57sriEfuIZ8PjWlrA,375,445
2020-08-25 13:58:57,dS66WppaqXu9vYGcBDGOSg,376,446
2020-08-25 16:49:42,UmcT_HSJMG23pQUHz_6sjg,377,447
2020-08-25 17:00:26,KwGIhAThVezqvroul-XJXQ,378,448
2020-08-25 23:06:41,JEDb7vroWcmnkrPJs0GeOQ,379,449
2020-08-26 06:25:53,g5DMEyD0_l44zZ_LuZc3QA,380,450
2020-08-27 09:19:56,7S7ybvh0MuGZmhnou6mkGg,381,451
2020-08-28 07:08:41,tHOMIN7QVJc4HdYbrJL3kg,382,452
2020-08-28 10:12:54,2Xq89m6o1YGOv16xKPDeEw,383,453
2020-08-29 01:05:47,ZMDUE2I4ViPcZeGxCwfVbA,384,454
2020-08-29 18:15:07,XpadUUQbZSKmpvHEXrt8cg,385,455
2020-08-30 17:13:48,mQRCzzHuNtmcrrkRuFiKxw,386,456
2020-08-30 17:36:36,JeBzzjKTCm8ndm-Hy6Hyyw,387,457
2020-08-30 18:13:55,Vh_0NdCc-9QaS1JKqXdYVw,388,458
2020-08-31 13:47:18,mQRCzzHuNtmcrrkRuFiKxw,388,459
2020-09-01 18:49:51,te6Uu-2FTurxyFxezHZohw,389,460
2020-09-03 10:27:06,pZ_DafrRPU9-9P-YVpRb9g,390,461
2020-09-03 11:00:07,Jh-pR3CN9fzKFhtQbfm__A,391,462
2020-09-03 14:24:46,8hiGsXCiijv-kT5bjWxnKw,392,463
2020-09-04 00:06:03,eS6Oh1UTStsuTxGxJ3ydxg,393,464
2020-09-04 05:52:38,T8S5j08Eg-j8iLzmpD0jJA,394,465
2020-09-04 09:14:26,H2FesslkiAMlfTb2uCnIJQ,395,466
2020-09-04 09:58:38,ry2SDXO84bDJmAOZxSy3nw,396,467
2020-09-04 11:18:03,98Mo29l62cbviPpOQWVomw,397,468
2020-09-05 17:40:56,e17hC3-_4MDbTmsdfGmq8w,398,469
2020-09-06 11:57:25,8pYXYmfjOHyAHpMlGlK4cA,399,470
2020-09-06 22:03:43,-M_uqttHqo7Kefemy4s1tg,400,471
2020-09-08 04:06:51,AHSFTvO8fBqH1peiTJLGqg,401,472
2020-09-08 06:10:42,YNtvSq-P5sweRAYlxyzKwA,402,473
2020-09-08 08:10:36,UVdzXwpvzZV6zeKJnyw5Tw,403,474
2020-09-08 09:36:31,5wpKXYh0aFnhxWD0kHwnVw,404,475
2020-09-08 13:01:59,5wpKXYh0aFnhxWD0kHwnVw,404,476
2020-09-08 16:03:31,kz83xLFpCbJjr9MebdjrNg,405,477
2020-09-08 17:16:22,I96mINVs4U7dgKV_96PiBA,406,478
2020-09-08 17:57:42,igKBYK6g6WmNko3EswtuaQ,407,479
2020-09-09 18:04:53,8bbHdtjMpxjfs72mCACwjA,407,480
2020-09-10 22:01:36,Z6VMrNilc0XzII8zdZCecQ,408,481
2020-09-11 02:34:49,Svpke37ObFpbdKWZNpkJvw,409,482
2020-09-11 14:46:12,e0wy4CGAOPADoamdvcp9Tg,410,483
2020-09-11 20:11:11,Svpke37ObFpbdKWZNpkJvw,410,484
2020-09-12 12:15:58,Vh_0NdCc-9QaS1JKqXdYVw,410,485
2020-09-12 23:38:47,8iavcSwRfuU-nFE47MUR9A,411,486
2020-09-12 23:48:27,dcNnOJh0590_fiADWelZag,412,487
2020-09-13 00:18:37,8iavcSwRfuU-nFE47MUR9A,412,488
2020-09-13 06:07:14,jUPBCo0h78WPrSOnS6h-nA,413,489
2020-09-13 07:22:37,8iavcSwRfuU-nFE47MUR9A,413,490
2020-09-13 16:53:14,8iavcSwRfuU-nFE47MUR9A,413,491
2020-09-13 17:14:11,n6ShHze5ooJkCcNQECFmUQ,414,492
2020-09-14 01:32:51,zL5X31o44wJqA7ZY9eY3kA,415,493
2020-09-14 02:11:23,jUPBCo0h78WPrSOnS6h-nA,415,494
2020-09-14 19:21:25,F9izr_D23sj3JMkmuNa7fQ,415,495
2020-09-14 19:46:14,HqIDZUcwPoc3QAmIiJ2q-A,416,496
2020-09-14 23:33:12,F9izr_D23sj3JMkmuNa7fQ,416,497
2020-09-14 23:51:01,HqIDZUcwPoc3QAmIiJ2q-A,416,498
2020-09-14 23:56:32,F9izr_D23sj3JMkmuNa7fQ,416,499
2020-09-15 12:18:49,zL5X31o44wJqA7ZY9eY3kA,416,500
2020-09-15 22:51:47,R2xDnHHvIvPOU_41pzViEg,417,501
2020-09-16 22:22:14,rZr1-Yfa-MyXqteLSg317g,418,502
2020-09-17 14:57:18,x0dJbOQNxOQdcCgzTat3OQ,418,503
2020-09-18 04:25:29,z0CbFaBM1zEZgZ9nPCW9eg,419,504
2020-09-18 22:10:37,x0dJbOQNxOQdcCgzTat3OQ,419,505
2020-09-19 05:15:38,iBKkPZHPKY9P7ISmCXaI5g,420,506
2020-09-19 07:31:59,M3Q0nUAF6lwiPP6mv7UX7g,421,507
2020-09-20 05:10:48,NNcieMvXfvdhlrbJHxz_Pw,422,508
2020-09-20 13:57:52,n_UivZNlKI3WUEbcyLzDMw,423,509
2020-09-20 21:30:07,uhOeDh6cFc1YGUE4FKPCfg,424,510
2020-09-20 21:32:23,ohDu9Wj2NOFYxkyD41e__Q,425,511
2020-09-21 18:04:47,QLQAtCpAwJ_LTzTYrj7Obg,426,512
2020-09-22 10:15:08,AmlnMVxX4ROBUGWgMx12qA,427,513
2020-09-23 23:12:41,x0dJbOQNxOQdcCgzTat3OQ,427,514
2020-09-24 17:39:18,pqmWxWgDcgQG7j8nsr2wuA,428,515
2020-09-25 15:12:33,vwOtlvVVLpfgKqiFb-sylw,429,516
2020-09-26 09:42:09,1Dscn3-Hft4N8KCN7TXEiQ,430,517
2020-09-27 17:21:28,ec8piWYEsrAdVzSu3t5i4Q,431,518
2020-09-28 08:17:29,xoacJ1TM8WcXMtPKVnVjBg,432,519
2020-09-28 22:58:18,pbDGaPY9WUzFEgZS2VisYA,433,520
2020-09-29 06:10:11,WFVgqHiFB3qwAckJ84fcrw,433,521
2020-09-29 06:33:10,tKr4Xaj25cUrdDZ5aImhFQ,434,522
2020-09-29 14:17:22,ibIyuNsNQj4pkrudy-saLQ,435,523
2020-09-29 15:07:18,fBQ41RnjJq9MZl2wz7ecag,436,524
2020-09-30 19:17:13,9VyjEro7zIjo6Pjjw-_R9Q,437,525
