timebin,valbin,timebinNo,valbinNo
"(0.0, 0.01]","(0.0, 0.01]",0.0,0.0
"(0.0, 0.01]","(0.01, 0.02]",0.0,0.010101010101010102
"(0.0, 0.01]","(0.02, 0.03]",0.0,0.020202020202020204
"(0.01, 0.02]","(0.02, 0.03]",0.010101010101010102,0.020202020202020204
"(0.01, 0.02]","(0.03, 0.04]",0.010101010101010102,0.030303030303030304
"(0.01, 0.02]","(0.04, 0.05]",0.010101010101010102,0.04040404040404041
"(0.02, 0.03]","(0.04, 0.05]",0.020202020202020204,0.04040404040404041
"(0.02, 0.03]","(0.05, 0.06]",0.020202020202020204,0.050505050505050504
"(0.03, 0.04]","(0.05, 0.06]",0.030303030303030304,0.050505050505050504
"(0.03, 0.04]","(0.06, 0.07]",0.030303030303030304,0.06060606060606061
"(0.04, 0.05]","(0.06, 0.07]",0.04040404040404041,0.06060606060606061
"(0.04, 0.05]","(0.07, 0.08]",0.04040404040404041,0.0707070707070707
"(0.05, 0.06]","(0.07, 0.08]",0.050505050505050504,0.0707070707070707
"(0.07, 0.08]","(0.07, 0.08]",0.0707070707070707,0.0707070707070707
"(0.09, 0.1]","(0.07, 0.08]",0.09090909090909091,0.0707070707070707
"(0.1, 0.11]","(0.07, 0.08]",0.10101010101010101,0.0707070707070707
"(0.1, 0.11]","(0.08, 0.09]",0.10101010101010101,0.08080808080808081
"(0.11, 0.12]","(0.08, 0.09]",0.1111111111111111,0.08080808080808081
"(0.12, 0.13]","(0.08, 0.09]",0.12121212121212122,0.08080808080808081
"(0.12, 0.13]","(0.09, 0.1]",0.12121212121212122,0.09090909090909091
"(0.13, 0.14]","(0.09, 0.1]",0.13131313131313133,0.09090909090909091
"(0.14, 0.15]","(0.09, 0.1]",0.1414141414141414,0.09090909090909091
"(0.15, 0.16]","(0.09, 0.1]",0.15151515151515152,0.09090909090909091
"(0.16, 0.17]","(0.1, 0.11]",0.16161616161616163,0.10101010101010101
"(0.16, 0.17]","(0.11, 0.12]",0.16161616161616163,0.1111111111111111
"(0.16, 0.17]","(0.12, 0.13]",0.16161616161616163,0.12121212121212122
"(0.17, 0.18]","(0.12, 0.13]",0.1717171717171717,0.12121212121212122
"(0.18, 0.19]","(0.12, 0.13]",0.18181818181818182,0.12121212121212122
"(0.18, 0.19]","(0.13, 0.14]",0.18181818181818182,0.13131313131313133
"(0.18, 0.19]","(0.14, 0.15]",0.18181818181818182,0.1414141414141414
"(0.19, 0.2]","(0.15, 0.16]",0.1919191919191919,0.15151515151515152
"(0.19, 0.2]","(0.16, 0.17]",0.1919191919191919,0.16161616161616163
"(0.19, 0.2]","(0.17, 0.18]",0.1919191919191919,0.1717171717171717
"(0.19, 0.2]","(0.18, 0.19]",0.1919191919191919,0.18181818181818182
"(0.19, 0.2]","(0.19, 0.2]",0.1919191919191919,0.1919191919191919
"(0.19, 0.2]","(0.2, 0.21]",0.1919191919191919,0.20202020202020202
"(0.2, 0.21]","(0.2, 0.21]",0.20202020202020202,0.20202020202020202
"(0.2, 0.21]","(0.21, 0.22]",0.20202020202020202,0.21212121212121213
"(0.2, 0.21]","(0.22, 0.23]",0.20202020202020202,0.2222222222222222
"(0.2, 0.21]","(0.23, 0.24]",0.20202020202020202,0.23232323232323232
"(0.2, 0.21]","(0.24, 0.25]",0.20202020202020202,0.24242424242424243
"(0.2, 0.21]","(0.25, 0.26]",0.20202020202020202,0.25252525252525254
"(0.2, 0.21]","(0.26, 0.27]",0.20202020202020202,0.26262626262626265
"(0.21, 0.22]","(0.26, 0.27]",0.21212121212121213,0.26262626262626265
"(0.21, 0.22]","(0.27, 0.28]",0.21212121212121213,0.2727272727272727
"(0.22, 0.23]","(0.27, 0.28]",0.2222222222222222,0.2727272727272727
"(0.22, 0.23]","(0.28, 0.29]",0.2222222222222222,0.2828282828282828
"(0.23, 0.24]","(0.28, 0.29]",0.23232323232323232,0.2828282828282828
"(0.23, 0.24]","(0.29, 0.3]",0.23232323232323232,0.29292929292929293
"(0.23, 0.24]","(0.3, 0.31]",0.23232323232323232,0.30303030303030304
"(0.24, 0.25]","(0.3, 0.31]",0.24242424242424243,0.30303030303030304
"(0.24, 0.25]","(0.31, 0.32]",0.24242424242424243,0.31313131313131315
"(0.24, 0.25]","(0.32, 0.33]",0.24242424242424243,0.32323232323232326
"(0.25, 0.26]","(0.32, 0.33]",0.25252525252525254,0.32323232323232326
"(0.25, 0.26]","(0.33, 0.34]",0.25252525252525254,0.3333333333333333
"(0.26, 0.27]","(0.33, 0.34]",0.26262626262626265,0.3333333333333333
"(0.26, 0.27]","(0.34, 0.35]",0.26262626262626265,0.3434343434343434
"(0.27, 0.28]","(0.34, 0.35]",0.2727272727272727,0.3434343434343434
"(0.27, 0.28]","(0.35, 0.36]",0.2727272727272727,0.35353535353535354
"(0.28, 0.29]","(0.36, 0.37]",0.2828282828282828,0.36363636363636365
"(0.28, 0.29]","(0.37, 0.38]",0.2828282828282828,0.37373737373737376
"(0.28, 0.29]","(0.38, 0.39]",0.2828282828282828,0.3838383838383838
"(0.28, 0.29]","(0.39, 0.4]",0.2828282828282828,0.3939393939393939
"(0.29, 0.3]","(0.39, 0.4]",0.29292929292929293,0.3939393939393939
"(0.29, 0.3]","(0.4, 0.41]",0.29292929292929293,0.40404040404040403
"(0.29, 0.3]","(0.41, 0.42]",0.29292929292929293,0.41414141414141414
"(0.29, 0.3]","(0.42, 0.43]",0.29292929292929293,0.42424242424242425
"(0.29, 0.3]","(0.43, 0.44]",0.29292929292929293,0.43434343434343436
"(0.29, 0.3]","(0.44, 0.45]",0.29292929292929293,0.4444444444444444
"(0.29, 0.3]","(0.45, 0.46]",0.29292929292929293,0.45454545454545453
"(0.3, 0.31]","(0.45, 0.46]",0.30303030303030304,0.45454545454545453
"(0.3, 0.31]","(0.46, 0.47]",0.30303030303030304,0.46464646464646464
"(0.3, 0.31]","(0.47, 0.48]",0.30303030303030304,0.47474747474747475
"(0.3, 0.31]","(0.48, 0.49]",0.30303030303030304,0.48484848484848486
"(0.3, 0.31]","(0.49, 0.5]",0.30303030303030304,0.494949494949495
"(0.3, 0.31]","(0.5, 0.51]",0.30303030303030304,0.5050505050505051
"(0.3, 0.31]","(0.51, 0.52]",0.30303030303030304,0.5151515151515151
"(0.3, 0.31]","(0.52, 0.53]",0.30303030303030304,0.5252525252525253
"(0.3, 0.31]","(0.53, 0.54]",0.30303030303030304,0.5353535353535354
"(0.3, 0.31]","(0.54, 0.55]",0.30303030303030304,0.5454545454545454
"(0.3, 0.31]","(0.55, 0.56]",0.30303030303030304,0.5555555555555556
"(0.31, 0.32]","(0.55, 0.56]",0.31313131313131315,0.5555555555555556
"(0.31, 0.32]","(0.56, 0.57]",0.31313131313131315,0.5656565656565656
"(0.31, 0.32]","(0.57, 0.58]",0.31313131313131315,0.5757575757575758
"(0.31, 0.32]","(0.58, 0.59]",0.31313131313131315,0.5858585858585859
"(0.31, 0.32]","(0.59, 0.6]",0.31313131313131315,0.5959595959595959
"(0.31, 0.32]","(0.6, 0.61]",0.31313131313131315,0.6060606060606061
"(0.31, 0.32]","(0.61, 0.62]",0.31313131313131315,0.6161616161616161
"(0.32, 0.33]","(0.61, 0.62]",0.32323232323232326,0.6161616161616161
"(0.32, 0.33]","(0.62, 0.63]",0.32323232323232326,0.6262626262626263
"(0.32, 0.33]","(0.63, 0.64]",0.32323232323232326,0.6363636363636364
"(0.32, 0.33]","(0.64, 0.65]",0.32323232323232326,0.6464646464646465
"(0.32, 0.33]","(0.65, 0.66]",0.32323232323232326,0.6565656565656566
"(0.33, 0.34]","(0.65, 0.66]",0.3333333333333333,0.6565656565656566
"(0.33, 0.34]","(0.66, 0.67]",0.3333333333333333,0.6666666666666666
"(0.33, 0.34]","(0.67, 0.68]",0.3333333333333333,0.6767676767676768
"(0.33, 0.34]","(0.68, 0.69]",0.3333333333333333,0.6868686868686869
"(0.34, 0.35]","(0.68, 0.69]",0.3434343434343434,0.6868686868686869
"(0.34, 0.35]","(0.69, 0.7]",0.3434343434343434,0.696969696969697
"(0.34, 0.35]","(0.7, 0.71]",0.3434343434343434,0.7070707070707071
"(0.34, 0.35]","(0.71, 0.72]",0.3434343434343434,0.7171717171717171
"(0.35, 0.36]","(0.71, 0.72]",0.35353535353535354,0.7171717171717171
"(0.35, 0.36]","(0.72, 0.73]",0.35353535353535354,0.7272727272727273
"(0.35, 0.36]","(0.73, 0.74]",0.35353535353535354,0.7373737373737373
"(0.35, 0.36]","(0.74, 0.75]",0.35353535353535354,0.7474747474747475
"(0.36, 0.37]","(0.74, 0.75]",0.36363636363636365,0.7474747474747475
"(0.36, 0.37]","(0.75, 0.76]",0.36363636363636365,0.7575757575757576
"(0.36, 0.37]","(0.76, 0.77]",0.36363636363636365,0.7676767676767676
"(0.37, 0.38]","(0.76, 0.77]",0.37373737373737376,0.7676767676767676
"(0.37, 0.38]","(0.77, 0.78]",0.37373737373737376,0.7777777777777778
"(0.38, 0.39]","(0.77, 0.78]",0.3838383838383838,0.7777777777777778
"(0.38, 0.39]","(0.78, 0.79]",0.3838383838383838,0.7878787878787878
"(0.38, 0.39]","(0.79, 0.8]",0.3838383838383838,0.797979797979798
"(0.39, 0.4]","(0.79, 0.8]",0.3939393939393939,0.797979797979798
"(0.39, 0.4]","(0.8, 0.81]",0.3939393939393939,0.8080808080808081
"(0.4, 0.41]","(0.8, 0.81]",0.40404040404040403,0.8080808080808081
"(0.4, 0.41]","(0.81, 0.82]",0.40404040404040403,0.8181818181818182
"(0.4, 0.41]","(0.82, 0.83]",0.40404040404040403,0.8282828282828283
"(0.41, 0.42]","(0.82, 0.83]",0.41414141414141414,0.8282828282828283
"(0.43, 0.44]","(0.83, 0.84]",0.43434343434343436,0.8383838383838383
"(0.44, 0.45]","(0.83, 0.84]",0.4444444444444444,0.8383838383838383
"(0.44, 0.45]","(0.84, 0.85]",0.4444444444444444,0.8484848484848485
"(0.45, 0.46]","(0.84, 0.85]",0.45454545454545453,0.8484848484848485
"(0.45, 0.46]","(0.85, 0.86]",0.45454545454545453,0.8585858585858586
"(0.45, 0.46]","(0.86, 0.87]",0.45454545454545453,0.8686868686868687
"(0.46, 0.47]","(0.86, 0.87]",0.46464646464646464,0.8686868686868687
"(0.46, 0.47]","(0.87, 0.88]",0.46464646464646464,0.8787878787878788
"(0.47, 0.48]","(0.87, 0.88]",0.47474747474747475,0.8787878787878788
"(0.48, 0.49]","(0.87, 0.88]",0.48484848484848486,0.8787878787878788
"(0.48, 0.49]","(0.88, 0.89]",0.48484848484848486,0.8888888888888888
"(0.49, 0.5]","(0.88, 0.89]",0.494949494949495,0.8888888888888888
"(0.5, 0.51]","(0.88, 0.89]",0.5050505050505051,0.8888888888888888
"(0.51, 0.52]","(0.89, 0.9]",0.5151515151515151,0.898989898989899
"(0.52, 0.53]","(0.89, 0.9]",0.5252525252525253,0.898989898989899
"(0.52, 0.53]","(0.9, 0.91]",0.5252525252525253,0.9090909090909091
"(0.53, 0.54]","(0.9, 0.91]",0.5353535353535354,0.9090909090909091
"(0.55, 0.56]","(0.9, 0.91]",0.5555555555555556,0.9090909090909091
"(0.55, 0.56]","(0.91, 0.92]",0.5555555555555556,0.9191919191919192
"(0.56, 0.57]","(0.91, 0.92]",0.5656565656565656,0.9191919191919192
"(0.57, 0.58]","(0.91, 0.92]",0.5757575757575758,0.9191919191919192
"(0.58, 0.59]","(0.91, 0.92]",0.5858585858585859,0.9191919191919192
"(0.59, 0.6]","(0.92, 0.93]",0.5959595959595959,0.9292929292929293
"(0.6, 0.61]","(0.92, 0.93]",0.6060606060606061,0.9292929292929293
"(0.62, 0.63]","(0.92, 0.93]",0.6262626262626263,0.9292929292929293
"(0.62, 0.63]","(0.93, 0.94]",0.6262626262626263,0.9393939393939394
"(0.65, 0.66]","(0.93, 0.94]",0.6565656565656566,0.9393939393939394
"(0.66, 0.67]","(0.93, 0.94]",0.6666666666666666,0.9393939393939394
"(0.66, 0.67]","(0.94, 0.95]",0.6666666666666666,0.9494949494949495
"(0.68, 0.69]","(0.94, 0.95]",0.6868686868686869,0.9494949494949495
"(0.7, 0.71]","(0.94, 0.95]",0.7070707070707071,0.9494949494949495
"(0.71, 0.72]","(0.95, 0.96]",0.7171717171717171,0.9595959595959596
"(0.72, 0.73]","(0.95, 0.96]",0.7272727272727273,0.9595959595959596
"(0.73, 0.74]","(0.95, 0.96]",0.7373737373737373,0.9595959595959596
"(0.74, 0.75]","(0.95, 0.96]",0.7474747474747475,0.9595959595959596
"(0.74, 0.75]","(0.96, 0.97]",0.7474747474747475,0.9696969696969697
"(0.75, 0.76]","(0.96, 0.97]",0.7575757575757576,0.9696969696969697
"(0.77, 0.78]","(0.96, 0.97]",0.7777777777777778,0.9696969696969697
"(0.78, 0.79]","(0.96, 0.97]",0.7878787878787878,0.9696969696969697
"(0.8, 0.81]","(0.96, 0.97]",0.8080808080808081,0.9696969696969697
"(0.82, 0.83]","(0.97, 0.98]",0.8282828282828283,0.9797979797979798
"(0.83, 0.84]","(0.97, 0.98]",0.8383838383838383,0.9797979797979798
"(0.84, 0.85]","(0.97, 0.98]",0.8484848484848485,0.9797979797979798
"(0.85, 0.86]","(0.97, 0.98]",0.8585858585858586,0.9797979797979798
"(0.85, 0.86]","(0.98, 0.99]",0.8585858585858586,0.98989898989899
"(0.87, 0.88]","(0.98, 0.99]",0.8787878787878788,0.98989898989899
"(0.88, 0.89]","(0.98, 0.99]",0.8888888888888888,0.98989898989899
"(0.91, 0.92]","(0.98, 0.99]",0.9191919191919192,0.98989898989899
"(0.91, 0.92]","(0.99, 1.0]",0.9191919191919192,1.0
"(0.94, 0.95]","(0.99, 1.0]",0.9494949494949495,1.0
"(0.95, 0.96]","(0.99, 1.0]",0.9595959595959596,1.0
"(0.96, 0.97]","(0.99, 1.0]",0.9696969696969697,1.0
"(0.97, 0.98]","(0.99, 1.0]",0.9797979797979798,1.0
"(0.98, 0.99]","(0.99, 1.0]",0.98989898989899,1.0
"(0.99, 1.0]","(0.99, 1.0]",1.0,1.0
