time,userID,adoption,cascadeSize
2020-02-01 21:40:46,vvKEvU3PCqMmpaVsw1YB7Q,1,1
2020-02-04 21:08:15,X3sJA7l6EZE4qVrNUT-_TA,2,2
2020-02-04 21:51:36,jV-1yfKNjDhzpINNrkTjVg,3,3
2020-02-05 06:53:52,5qjxM6_haLrJyw8IiNTysQ,4,4
2020-02-07 16:15:30,BPXqeL3GGGuTyQk0QJY8vg,5,5
2020-02-15 14:24:05,ENojvAUm9sGCT-K8ZUuFcg,6,6
2020-02-20 02:39:00,RBDXpynpzIDpUh9DNHAUeQ,7,7
2020-02-20 18:42:28,TYg4VNcuC2Boh4b4P86efQ,8,8
2020-02-21 19:12:31,NkY90ZfM9v6KEoZx-9UQfg,9,9
2020-02-23 16:13:53,kHRaF0rGUXOgMlvH4ZdTsg,10,10
2020-02-24 15:11:32,K6AcyaNTVQNiwQok-EBCcA,11,11
2020-02-26 15:15:53,bb-lbKiW9PrBq437bavDFQ,12,12
2020-02-29 10:15:37,NPd_1Y9MO1TY-qT02pWmqg,13,13
2020-03-03 14:55:34,3NoI7YMwwJ0Z988W2avKMA,14,14
2020-03-07 09:05:19,COXYBmiB6rGF0N6ds7Nsfw,15,15
2020-03-10 17:29:26,pQoiiXxETDhuTndRrn4aVQ,16,16
2020-03-11 10:37:55,XdVza7Y5f18TL_eeHDUjtA,17,17
2020-03-12 15:47:17,Wr0IBLjBskz78xgFNrtizQ,18,18
2020-03-20 20:32:40,D7U1dXJEXHm3hPdIAjrOZQ,19,19
2020-03-21 01:26:47,YQ-BVcVits3CumAjWAhTLw,20,20
2020-04-02 18:49:51,dc7JDH5KxS0-4HNzW0yS5w,21,21
2020-04-07 04:25:50,vrMeNTxC48gRsG3Dsbujow,22,22
2020-04-07 15:59:49,Qt_EyBsanexWahiMly9eZA,23,23
2020-04-09 05:14:31,AWfdhA2Wrt751y_ZbcLCiQ,24,24
2020-04-12 20:37:05,9QpsAqP8WjpdTZOR8F8-_A,25,25
2020-04-12 23:33:56,9J9FtrZ6wL2tSLyvOdp-dw,26,26
2020-04-13 08:17:19,rb86f6x0aPY2jfSE6t0qpQ,27,27
2020-04-13 19:40:53,tBFE9rc1qrVSmVT9BB7AAQ,28,28
2020-04-13 20:10:47,n4zIStRMYwNEaHrsdMNtHA,29,29
2020-04-13 22:18:07,qw_y5aex5bH82yPcd0g5yg,30,30
2020-04-13 23:04:46,LS742CszyC3xw0cB5rCX6A,31,31
2020-04-15 10:11:36,vRgFWVrnnZMPAJhnwwl_YA,32,32
2020-04-16 21:06:49,lFW3dMRQl5AEFHVyDQ6Xrw,33,33
2020-04-16 22:45:08,JMaFxQrMa2UTj53yw8RrlQ,34,34
2020-04-17 09:49:38,golgqraQah9wvQaCFAWlfw,35,35
2020-04-18 21:52:38,SrbU0m-nAImMJGEHWP86rA,36,36
2020-04-19 08:31:04,eNldSa1HDB6cZe5ArkJ4ag,37,37
2020-04-21 06:54:07,PoiELg3S3quWie8tSv5f8A,38,38
2020-04-23 01:50:48,BgrZJImUfUENiXR0B5wUdw,39,39
2020-04-23 12:10:04,Id4CwnvTwrKh_vRUXkEkSw,40,40
2020-04-25 16:42:23,WfvY3n2_sNAwcydfy1wHIg,41,41
2020-04-25 17:48:26,CdJ6Ovs6LY_MfRMuwS0VTw,42,42
2020-04-25 18:14:46,CdJ6Ovs6LY_MfRMuwS0VTw,42,43
2020-04-26 03:06:28,NRAV70wiUwt8ILT5kk4kNg,43,44
2020-04-26 11:40:34,EGoQjdhV4hrpUyT8PxKJUw,44,45
2020-04-28 11:48:39,Zg3PyvrADPSe2yaXj3stDA,45,46
2020-04-30 00:20:49,mx-jFnsKljF1gJnOZIQmSA,46,47
2020-05-02 19:25:12,11IU84eqCQxT1t1BYwyxeQ,47,48
2020-05-04 02:57:27,90PCJQGVpW_bbeeqVu7iAg,48,49
2020-05-05 08:12:33,xADVasyoqwE3UmPe440oAQ,49,50
2020-05-06 06:27:31,wiBm--JGO74jOFi6HI2qug,50,51
2020-05-06 06:31:37,wiBm--JGO74jOFi6HI2qug,50,52
2020-05-07 15:33:27,I5eG58wnRGC4icR_bc3C8w,51,53
2020-05-11 20:43:35,snWqXcHo1FSttYTMtnRCvQ,52,54
2020-05-15 17:22:51,-n1dzRCaJ7b6BXQS70VGJg,53,55
2020-05-17 18:50:02,_qrVxnoeHrC2MZSkUWY2Sg,54,56
2020-05-19 21:34:39,6ZX-tiTfkgyDCPKfje6zxg,55,57
2020-05-19 23:16:06,ENa-IMeHPbl3UokgnkB9ag,56,58
2020-05-21 08:43:29,bN_SncBzNjip0AqC0jzjHA,57,59
2020-05-21 18:16:41,PtrkRxlSaJ5BFAnfWV8ffQ,58,60
2020-05-23 00:36:59,HjRbG5SuT6WIAkYlZbJP9g,59,61
2020-05-28 07:18:00,KgxC0pbPHGeBedRzFpTmZw,60,62
2020-06-01 18:53:55,DoG2JWT5jJzbH811OSrPJw,61,63
2020-06-01 20:06:46,ePIDo-iyIJJKxz6GhO9y6w,62,64
2020-06-01 21:47:52,Stz5JgMMHskL21xUVVc2-g,63,65
2020-06-02 15:33:17,x0dJbOQNxOQdcCgzTat3OQ,64,66
2020-06-07 02:06:19,L5LMnpIpcnQbZxpmzCehmw,65,67
2020-06-07 05:13:06,7WCuO0r8oYS-YJE5I-VHDw,66,68
2020-06-08 11:57:20,l34ixyLzWpQE6QdmJaDHVA,67,69
2020-06-09 05:40:48,iYdArOMbyG6knmQU1lgPHg,68,70
2020-06-10 22:57:32,NDBfjnZ_T8_RGI5wGgOsuQ,69,71
2020-06-11 13:25:26,yR5HGsn6HxfVpsHEJ4vnFQ,70,72
2020-06-11 17:34:38,D8FT0jtwpxAoHwb_pliILQ,71,73
2020-06-18 09:56:33,m6LcMm0g41z5U9oaMvH1iw,72,74
2020-06-18 10:15:15,m6LcMm0g41z5U9oaMvH1iw,72,75
2020-06-18 15:08:13,noLUuloF7Uq2oMSBna4S5w,73,76
2020-06-18 15:09:27,noLUuloF7Uq2oMSBna4S5w,73,77
2020-06-23 18:15:01,hGevi-t5_atQI5LxEC47sQ,74,78
2020-06-25 05:55:21,foRNbdpTe5ha2Cqd2ihaaA,75,79
2020-06-26 11:30:52,A4HvRgQkX9RPuZIGAOVYaQ,76,80
2020-06-28 15:15:39,AU91TH2LGNjns7Ivlz2mzQ,77,81
2020-06-30 13:24:22,A4OqAGlVtn-12RELwlItjw,78,82
2020-07-03 17:55:19,Hw4kmdpEOvogJ1-sxGKSgQ,79,83
2020-07-03 19:36:31,KgxC0pbPHGeBedRzFpTmZw,79,84
2020-07-04 19:18:05,JMl1TDrIPsadvCo_gux0Cg,80,85
2020-07-08 18:32:06,8bbHdtjMpxjfs72mCACwjA,81,86
2020-07-10 11:45:51,z6LroOXAMeDXimtFKYgugA,82,87
2020-07-12 02:51:28,dG6W4Fz7V3IKDqImYP1oyQ,83,88
2020-07-13 16:23:32,pVGB4VH2cqS1jCRJcCkAlQ,84,89
2020-07-16 17:05:34,aP4z69d850bN1z1WEWiHXQ,85,90
2020-07-21 21:23:29,Hgfyl416vXJMTZNk8hqXnA,86,91
2020-07-28 10:07:06,cZ_wL2NOd_6UIFlKiUtqoQ,87,92
2020-07-29 05:44:04,0GW6AuXoTfSzmqMZb-w0Xw,88,93
2020-07-29 18:35:07,bHp6R4Mld3xTtd_5legeAg,89,94
2020-07-30 01:26:37,iD3RqQ4Aib6tV0WFojMZtg,90,95
2020-07-30 11:20:26,jzoK-QFepcdGFL5yYkVbZA,91,96
2020-08-03 19:17:51,HhmCZRSFBF8vW5cbPFo2FA,92,97
2020-08-05 17:09:41,hZ3wmxg04FoJQ2wg9THR5g,93,98
2020-08-09 15:11:42,X2Lcv86FPVHqaE1tTAkr5w,94,99
2020-08-10 19:36:11,05nAN-3Y9GTCqy7Lh0baNw,95,100
2020-08-13 23:01:48,sI0Oheg2ilvkIDCxmlV6sA,96,101
2020-08-14 20:15:56,cS49mq_-ySgMol11PZ0ACQ,97,102
2020-08-14 22:41:33,5Nzt14AmUZ_5VbGx4cNmWA,98,103
2020-08-15 09:56:06,A8BF95NshEtQv1LRNAqrEw,99,104
2020-08-17 18:09:19,WWufunS6GPFSzwka3Q8uWQ,100,105
2020-08-18 14:03:19,2RsUJJbvyKr4rg_w2kE2Yw,101,106
2020-08-19 20:22:50,rm2zJ86VbeMUnqTluEJ66Q,102,107
2020-08-20 05:49:04,ZoCOMn3HnRNboY4FFnPZBg,103,108
2020-08-21 19:15:17,WZ2TbCcjaXRpbNbwh3Fhfg,104,109
2020-08-25 08:10:48,yR5HGsn6HxfVpsHEJ4vnFQ,104,110
2020-08-27 00:01:53,w9MY-r4SXi3YZwBGEvsTfA,105,111
2020-08-29 21:12:17,AxoNi59-BOOOtVryyhVQvQ,106,112
2020-09-03 10:12:17,rVTwRi-W6ye1vOCbvZeaeQ,107,113
2020-09-06 15:40:47,-Rt7gKFqDTIAJj8TsKfgIQ,108,114
2020-09-07 23:43:01,8AKLgAwbgHhu0cdqO0mNdA,109,115
2020-09-08 14:25:05,NkY90ZfM9v6KEoZx-9UQfg,109,116
2020-09-08 16:08:14,oHF8ti04-xD261hZOJkdUA,110,117
2020-09-09 09:04:08,LrwpcGZ3XwIb4wSIMW4kBw,111,118
2020-09-10 00:13:11,7VJT-IPdrOqmUnP4RGexcw,112,119
2020-09-10 00:55:01,-XpBD3C14X3LeRc-zOuC5g,113,120
2020-09-12 10:48:47,l-DPzkO2oPxHh1k4LZ5LbA,114,121
2020-09-14 08:48:44,_5UMmQN1njaYBQ3F5GlRfg,115,122
2020-09-19 18:51:42,2UkWT-Fkoxrx38Chn17M0Q,116,123
2020-09-20 00:16:57,s4CzQTJmKn9hPzzBiEM0BQ,117,124
2020-09-20 12:11:44,uvIzHJTfFd-yvG4g7VG0tA,118,125
2020-09-21 08:16:08,NkY90ZfM9v6KEoZx-9UQfg,118,126
2020-09-22 19:06:31,IVpxoSdpsFbDwy5ymfHF7Q,119,127
2020-10-01 21:45:08,IOr74aVwsc9qST42U5DczQ,120,128
