time,userID,adoption,cascadeSize
2020-02-01 08:04:18,NxAVXSdrX3h7cxXuj8TM1Q,1,1
2020-02-01 09:47:15,yieN4SRWTQ2KPhsdhPk_sg,2,2
2020-02-01 15:02:32,hjW1_WvGdQM_ty6KPMwQoA,3,3
2020-02-02 08:41:29,x0dJbOQNxOQdcCgzTat3OQ,4,4
2020-02-02 23:35:14,yFJ52lNoVzAyLx13YoaqzA,5,5
2020-02-03 07:56:35,-9iYiwaMAzh0vPasW3X0Cw,6,6
2020-02-03 16:02:17,GRrb_iKm-rt7VLRnI4U-tg,7,7
2020-02-03 16:06:22,CdpFH6uO-WDSMqu4yWaCaA,8,8
2020-02-04 09:56:14,51zCykBYUkwT_WoUczJdAA,9,9
2020-02-04 12:50:33,iEVnrov0sv8hC7IUWptbcA,10,10
2020-02-05 19:10:34,BsBq979YEtj3IhNAUmbnGw,11,11
2020-02-07 07:09:34,bOWQS7QPnuDqq08G_cuYjQ,12,12
2020-02-07 09:10:10,x0dJbOQNxOQdcCgzTat3OQ,12,13
2020-02-07 10:07:48,-9iYiwaMAzh0vPasW3X0Cw,12,14
2020-02-07 12:47:02,-9iYiwaMAzh0vPasW3X0Cw,12,15
2020-02-07 13:39:37,AUyM1QtHHz90cUkwkfbj3w,13,16
2020-02-08 12:51:29,-9iYiwaMAzh0vPasW3X0Cw,13,17
2020-02-08 12:59:49,R24zub8PO4S7mKsn2QphQg,14,18
2020-02-08 15:22:21,UFyeyse88d5UcKqAqsi_kg,15,19
2020-02-09 19:48:36,X3sJA7l6EZE4qVrNUT-_TA,16,20
2020-02-13 17:21:55,R7SpVucONJXBnDmuGfF1Hg,17,21
2020-02-13 17:49:03,UyZZ1qi4_2Bd5t3B7h98Rg,18,22
2020-02-13 19:10:58,R24zub8PO4S7mKsn2QphQg,18,23
2020-02-13 19:57:17,vM1ieSLDrDl4LLZ17UwbzQ,19,24
2020-02-13 20:19:46,sbNQAc1Px7AptaIEGmhl9A,20,25
2020-02-13 22:07:15,QcPtz2rwelV4vbaLBcZ1ZA,21,26
2020-02-13 23:55:54,1BM7je5j63FRajzx8lNnGQ,22,27
2020-02-14 06:27:37,ZBL-EtOy9VkdfMf2EhqKAQ,23,28
2020-02-14 17:14:59,sB0zZdSOSPdVReMd6F2emg,24,29
2020-02-14 20:28:24,TzlCQjuzHNe_CG6A6Sficw,25,30
2020-02-15 05:31:37,c1vq7R1N8Sb58SFg71z6zw,26,31
2020-02-15 16:33:35,LmgYsqxFNuzlU1Wlb_26kA,27,32
2020-02-15 20:25:28,x0dJbOQNxOQdcCgzTat3OQ,27,33
2020-02-16 05:23:57,lZ0efS5hNTNgGOwWWvZOjA,28,34
2020-02-16 11:20:16,WdvtBKGXI-uMMBpyFkvKkQ,29,35
2020-02-16 11:29:16,BzewFHxsGgswpHbz2nKNXA,30,36
2020-02-16 16:09:30,rijX_zIbQAkGKU5AdZ5Xig,31,37
2020-02-16 23:41:24,QcPtz2rwelV4vbaLBcZ1ZA,31,38
2020-02-17 14:34:21,DEIbbrKRUah-t0u_ni-Lyg,32,39
2020-02-17 15:44:32,1BM7je5j63FRajzx8lNnGQ,32,40
2020-02-17 16:33:30,1BM7je5j63FRajzx8lNnGQ,32,41
2020-02-17 18:11:34,5l2iOSZyv6o4IxImPKzrnQ,33,42
2020-02-18 21:21:26,3robiqiHsTQrWwP48ZRUjw,34,43
2020-02-19 17:13:10,60zLWjOdp6HwG4-WiIlrZQ,35,44
2020-02-20 12:17:14,AxoNi59-BOOOtVryyhVQvQ,36,45
2020-02-21 17:59:53,_XYSRVFC0rCnAhuE59tCmQ,37,46
2020-02-22 04:40:01,wDYzspjomHMEpSPltDM-Xw,38,47
2020-02-22 17:26:08,qKTsHHEeFjHKTLTq6N9LGQ,39,48
2020-02-23 18:42:28,TKIIWvPjOOeBZE41CF0Tkw,40,49
2020-02-24 08:47:07,ZdiB-p9vEBL-Fa4EAuk2IA,41,50
2020-02-25 12:14:38,M6KE1Z0kYXLZNf0NJg6rrA,42,51
2020-02-26 17:06:52,M5SwYminhJSkTciObEZTWw,43,52
2020-02-26 19:58:43,hjW1_WvGdQM_ty6KPMwQoA,43,53
2020-02-27 23:30:14,tcw5n6S8-JiBU-N1N0x1iw,44,54
2020-02-28 08:41:37,sB_ZhA8-sCCRRrcc8sG5lQ,45,55
2020-02-28 11:47:58,YOBWjvpFhfWAHUus1xV4Zw,46,56
2020-02-28 16:01:52,KWRESgYyiwrtU1zm2L_6MQ,47,57
2020-02-29 15:37:37,z35wk4MVi2IRDaLjB5SL5A,48,58
2020-03-01 11:45:01,x0dJbOQNxOQdcCgzTat3OQ,48,59
2020-03-01 19:30:26,TYg4VNcuC2Boh4b4P86efQ,49,60
2020-03-03 07:20:12,M6KE1Z0kYXLZNf0NJg6rrA,49,61
2020-03-05 11:57:48,qKTsHHEeFjHKTLTq6N9LGQ,49,62
2020-03-07 16:23:43,x0dJbOQNxOQdcCgzTat3OQ,49,63
2020-03-07 18:21:02,OEZqS04qvhnLXb7IlWW_zw,50,64
2020-03-07 19:14:56,2Vc2Jxmb_Wgp6S5XRKALlg,51,65
2020-03-09 13:03:57,-9iYiwaMAzh0vPasW3X0Cw,51,66
2020-03-11 17:42:08,gfYQQtznNe7keJzxzgIz8w,52,67
2020-03-12 20:04:25,3PAuS5OJtkeKCONZPhA7Sw,53,68
2020-03-13 03:23:43,XCaL6urtSX9tezjthHRYlQ,54,69
2020-03-13 08:27:39,3jVEgp9n8MtHKIyRkwwqpA,55,70
2020-03-13 10:45:21,0kKnD1ArRa3pI7c6ItC7Bg,56,71
2020-03-13 13:17:16,NPd_1Y9MO1TY-qT02pWmqg,57,72
2020-03-13 14:00:55,y3zHvbSmZ_MS2vgW_14qLw,58,73
2020-03-13 16:36:06,3jVEgp9n8MtHKIyRkwwqpA,58,74
2020-03-13 17:06:00,MKOSlWRTOSsSD-zMnQR4fQ,59,75
2020-03-13 17:42:25,R7SpVucONJXBnDmuGfF1Hg,59,76
2020-03-13 18:39:42,rijX_zIbQAkGKU5AdZ5Xig,59,77
2020-03-15 22:54:10,_1uQsyRNO2hNhbQ4K59zoA,60,78
2020-03-17 22:37:51,6jE7E3OHySc6b69ae8CW0Q,61,79
2020-03-18 11:51:27,h2pFPxyNsZ4iKVfP9BHkbA,62,80
2020-03-20 19:44:08,LVgz_v43FSPpry5_knRoSg,63,81
2020-03-23 11:54:24,SHRYFc-fSs3H8eqiWNmXHg,64,82
2020-03-24 10:04:23,-9iYiwaMAzh0vPasW3X0Cw,64,83
2020-03-26 12:32:34,bj6tQ4D6Bu5iVOb8tWsz6w,65,84
2020-03-27 14:15:59,VmONrwmotAiAR6PDXimCdw,66,85
2020-03-29 13:47:53,w1MWnLADOqgT-jP8OhY7OQ,67,86
2020-03-29 21:42:04,VmONrwmotAiAR6PDXimCdw,67,87
2020-03-31 07:11:10,NJmYYYoPLS-KxOoc-5CybQ,68,88
2020-04-01 11:09:14,tBtyyxdsYvRYQU_KHMkYOg,69,89
2020-04-01 15:03:50,VmONrwmotAiAR6PDXimCdw,69,90
2020-04-01 20:59:12,_-SkD-zJD6ESAIjnBHEvsg,70,91
2020-04-03 05:42:52,GEjSgY0EK0aEckMxoaHsuw,71,92
2020-04-04 10:03:08,E49Dz4GoNZbvi3FFSJxauw,72,93
2020-04-06 02:02:40,hAUQRY9HcT_FhpBB29zttw,73,94
2020-04-06 10:01:51,5TRATBlPtDLkz3i5t4FvJw,74,95
2020-04-07 12:58:05,XFLkEd6_j9qf79F0QeN3SA,75,96
2020-04-08 12:54:16,MjidgQ0fszNc-56xjXB4mw,76,97
2020-04-08 19:53:22,U2wHpM-WQRTnFa-00C4jRw,77,98
2020-04-08 22:19:38,jMrWUlblq4MfkYHMzQirEQ,78,99
2020-04-08 22:51:18,0I4QcbVDXyXZH4f7Nj7IdA,79,100
2020-04-10 15:42:19,DTOZyNL03u_8gbNNuzOH4A,80,101
2020-04-12 17:04:42,x0tSdjeO071wy6N6OsRf6g,81,102
2020-04-12 17:22:11,BgrZJImUfUENiXR0B5wUdw,82,103
2020-04-12 19:52:11,Y1HCDrheC5RlR0kaJGZIew,83,104
2020-04-12 21:14:57,lCSqhJxUYToAhtkAPLHl9w,84,105
2020-04-13 11:00:24,UFyeyse88d5UcKqAqsi_kg,84,106
2020-04-13 16:02:19,KszjyEkcHJ-Wz2k2pjqilQ,85,107
2020-04-13 18:06:14,0wzyYupy-XaNQnbj3IoSjA,86,108
2020-04-15 23:19:13,R2kYEvnw0Lt5KFAOXb_24Q,87,109
2020-04-16 00:48:13,zKCm6yLi-MkuaRi51u0EsQ,88,110
2020-04-16 20:19:37,NOLcMlfBR2L4V7RZ5TKTVQ,89,111
2020-04-17 06:32:18,UV0aqFOyEJuaCuZpHtl7_g,90,112
2020-04-17 11:31:04,VmONrwmotAiAR6PDXimCdw,90,113
2020-04-17 15:50:21,2iYVpobJvP1BCzUjnJNG7w,91,114
2020-04-18 08:16:35,pMKpaGfm3ZB0kfPlA8uB7g,92,115
2020-04-19 05:24:41,3NoI7YMwwJ0Z988W2avKMA,93,116
2020-04-20 00:24:46,_A1HwDDk1k2padR60UIR4Q,94,117
2020-04-21 04:55:29,3FNLaYCU1N3U6oKxdUZhaw,95,118
2020-04-23 05:42:37,TNmk1fGZBKuaLIdkH_MuSQ,96,119
2020-04-23 10:24:12,DnSvqYhu_5LbySslh7RP1A,97,120
2020-04-23 10:38:39,NQZDYOeGdiEPiWtBU4f83Q,98,121
2020-04-24 00:25:14,aX1fhnts59EGyaBuatUN3g,99,122
2020-04-25 12:21:57,YOE74gVZ5tTHoYPomjwwtA,100,123
2020-04-25 15:01:31,OOWbtS3Nbk3SJmSZT0XVhg,101,124
2020-04-25 16:05:36,tRqy4q3AdWewNkrjsPQwmw,102,125
2020-04-25 16:10:30,QEWucjs-UJ6vVgZKZhdrYg,103,126
2020-04-26 07:58:09,rfj5kPnf9Zssa3xDOou_JQ,104,127
2020-04-26 17:13:11,8LJbAspRqW-rzflZFq7R_A,105,128
2020-04-27 11:44:09,Kq_4prjTqCT4TfGKKxnGZg,106,129
2020-04-28 00:13:28,tZ0lSSXW5SiPJ-GWCVXv5Q,107,130
2020-04-28 04:43:55,TRh5uNGcqfrwPS1OL3XILA,108,131
2020-04-28 10:38:19,hwH7ciqB_qZ-i9YlZs_YGA,109,132
2020-04-28 19:47:49,QJebQyllILSSlXkrJVwIQA,110,133
2020-05-02 11:19:47,Ozijtn0O6AXQ6hn70oXPLw,111,134
2020-05-05 14:28:03,FVQY_Q598u7tQzGTSJGxxw,112,135
2020-05-05 15:03:13,NbOHw3pMV-JrjXm9ebymVQ,113,136
2020-05-05 16:28:01,TloKKKxky--w1ExrFlDxpg,114,137
2020-05-11 14:20:45,pdO4pix3N2mYunw9y0-GvA,115,138
2020-05-13 05:55:50,4CPTVAUoJhNWX33Eytu4Mg,116,139
2020-05-13 06:35:02,szfoTeh1Kyfto6EjYxCegA,117,140
2020-05-13 20:37:15,golgqraQah9wvQaCFAWlfw,118,141
2020-05-15 21:35:12,0e3VmJdy4HXSirh_4LDaNA,119,142
2020-05-16 01:10:58,LRXnY6oJUAQ9so20XLzPpw,120,143
2020-05-16 05:26:39,qpQudhEg_868RBtaYP0ATw,121,144
2020-05-18 08:03:37,CiUh8HawuPSxZ3pMX6xCDg,122,145
2020-05-18 20:51:29,nOYwZOrSKOi8pRfvO0Qjfg,123,146
2020-05-19 17:53:33,m3ZHJ89-zJetsevxwf3kTg,124,147
2020-05-20 15:06:28,GgDTyULcMfQDRGzA4JVQrQ,125,148
2020-05-20 18:25:49,jHi9Ey__nrnUfUdZ-47aEw,126,149
2020-05-20 20:13:26,AHI8g7gorrIGU1t2c1JLaA,127,150
2020-05-21 14:37:48,x0dJbOQNxOQdcCgzTat3OQ,127,151
2020-05-24 00:39:28,qRIsHhsuXss9K2PS_ah5KA,128,152
2020-05-24 07:33:44,2TjMagJqihh4fPoszW60aQ,129,153
2020-05-24 15:36:20,-aQKR4D14TBsRvHI2uzuOw,130,154
2020-05-25 01:41:17,h9NROlKluky29q_5f553Vg,131,155
2020-05-25 15:58:05,DHCSbO9aARIj5ES2nLxyWQ,132,156
2020-05-25 21:31:10,FOCrpjRRx13o_m5Fcbseqg,133,157
2020-05-26 10:20:21,y0FmL-JlytP_G6q03ze5-g,134,158
2020-05-27 08:03:25,GEjSgY0EK0aEckMxoaHsuw,134,159
2020-05-27 18:49:24,0zwCzXpf81zXWLQLb_12Pw,135,160
2020-05-28 14:42:44,QKsEUlUL_OcABKQ4uFcgCg,136,161
2020-06-01 02:52:28,fIXnoN6LwEcCIBEV-xXg9Q,137,162
2020-06-03 08:16:25,9zRtNtWPj3Js88b1G0nLFQ,138,163
2020-06-03 21:33:51,-9iYiwaMAzh0vPasW3X0Cw,138,164
2020-06-07 12:12:07,uuBxet_eabM9gJxkXIXdnw,139,165
2020-06-08 03:29:51,Vue4Z2Hry-Jo0zrrMZm5bQ,140,166
2020-06-08 20:34:34,7BRGnXo7lZGINMUHmISdbw,141,167
2020-06-10 19:18:02,9yvX4M7JdOJixjZkTuKBFQ,142,168
2020-06-11 16:53:00,SUKhe8Hn_4bpl9FFSQ_egg,143,169
2020-06-11 17:15:34,3MxOe701Xu4GwtjROaYxsw,144,170
2020-06-12 10:34:18,TL9zjr5db2eoL6JA89YnGA,145,171
2020-06-12 14:39:34,y2I1pbObHJ1NtQExvdAcsQ,146,172
2020-06-12 18:51:19,oqg2XJbNPXsbQj6UKxMB9g,147,173
2020-06-12 21:05:04,lJZ5wX8CFYwhmy6EZni_ag,148,174
2020-06-16 20:59:58,Np5TTTHQjLb5-j9eB7ns3w,149,175
2020-06-17 08:58:59,221DqrUjJHINO9HMMhUUUQ,150,176
2020-06-17 10:40:28,nVffeHjNSN0a0c2WeiJasg,151,177
2020-06-17 22:21:00,x0dJbOQNxOQdcCgzTat3OQ,151,178
2020-06-19 07:06:30,zsgZ-mA-Cz8X5q6vSm5okA,152,179
2020-06-19 16:21:01,4U5WitKmYeOdo94zjoorjw,153,180
2020-06-20 18:40:50,MdljV4S1LZIWm49URalCAg,154,181
2020-06-22 17:00:24,x0dJbOQNxOQdcCgzTat3OQ,154,182
2020-06-23 16:26:04,zUXkzmaWzhIw1rrOszIvOw,155,183
2020-06-23 17:49:49,n_AeOM5xXezVh3RDic9Qtw,156,184
2020-06-24 01:37:35,fLe_KLcE1bsqyVY_PWUOJw,157,185
2020-06-24 04:37:16,aa3B4Qf399A117rwQ0Lhyg,158,186
2020-06-24 10:08:47,NC6B_06TFu-qoxrFnTQSYw,159,187
2020-06-25 09:15:59,wRvF41wbJwWZwTtREhf2UA,160,188
2020-06-25 09:36:37,bTqf-AfIsS3uE1aYHv8CNw,161,189
2020-06-25 20:46:54,k-tBE7f7Gv63EMqki7Diog,162,190
2020-06-26 14:52:26,X2Lcv86FPVHqaE1tTAkr5w,163,191
2020-06-26 15:08:19,82o6sadqx0Cb0CllTuZ3nw,164,192
2020-06-28 02:44:57,ipUwa_jfTxiOuxP5UEJmQA,165,193
2020-06-28 04:42:33,TYg4VNcuC2Boh4b4P86efQ,165,194
2020-06-29 20:06:24,R7SpVucONJXBnDmuGfF1Hg,165,195
2020-06-29 23:13:09,qzHUNn2srt0zE36-MFf7Yw,166,196
2020-07-01 15:47:26,m2mOsxBb2CUo8j0Mkt7fwA,167,197
2020-07-01 16:31:18,-GGvUTEJa3leCKTrn3hOSA,168,198
2020-07-01 17:34:30,bzmFNSwlp2diyYYKf9ZPtw,169,199
2020-07-01 20:21:18,aPkWTWpaAgvbChlb4hOmaw,170,200
2020-07-02 11:28:55,IozyEb2VpSi2pBw2UNhyOw,171,201
2020-07-03 06:04:09,q6Nsw3YOCxxqZV8Bmmi4eA,172,202
2020-07-03 18:31:45,EZ_4weIV4w5DMA1sAIhVug,173,203
2020-07-04 12:32:24,e0vUcbH-RFJB8-ZVORpzPA,174,204
2020-07-05 16:43:07,ldOXR6JGIexi_E_Wbze0wg,175,205
2020-07-06 10:15:55,R24zub8PO4S7mKsn2QphQg,175,206
2020-07-06 10:20:21,R24zub8PO4S7mKsn2QphQg,175,207
2020-07-06 10:38:03,s13ulWkD746d7aYS4mj1kQ,176,208
2020-07-06 19:08:13,6-swCIJnfzUOqBjI8zP1uQ,177,209
2020-07-07 08:48:21,UkR40d30aOpxl7nqlbmrTA,178,210
2020-07-09 09:55:09,yooldflgNHdcfcABYvzCfw,179,211
2020-07-11 01:58:25,XpadUUQbZSKmpvHEXrt8cg,180,212
2020-07-12 04:59:46,pFHCeisw8tqM_RXncYGZOg,181,213
2020-07-13 15:54:58,TYg4VNcuC2Boh4b4P86efQ,181,214
2020-07-14 06:40:30,TYg4VNcuC2Boh4b4P86efQ,181,215
2020-07-15 09:36:37,fcGWHVvyCrGt5o7MCPkn7g,182,216
2020-07-16 14:10:13,vjrj9iCfAqevnYP0-9QZDA,183,217
2020-07-16 17:31:59,1Dscn3-Hft4N8KCN7TXEiQ,184,218
2020-07-17 05:19:55,3jVEgp9n8MtHKIyRkwwqpA,184,219
2020-07-17 13:48:23,sgjAkw7B-CwONkAo3OAO1w,185,220
2020-07-17 13:59:32,XQ556jnclMW9ov6MLBsZiA,186,221
2020-07-17 16:09:53,nx_XIN5vW7YTt30qwH7cEg,187,222
2020-07-19 15:18:52,o8HSlxyMMCAGER94_k7gag,188,223
2020-07-20 21:23:22,nEd1ENuCgQWxs8YXIrxUfQ,189,224
2020-07-21 21:10:00,ydjJ6TwA_uA-VK3Ld0Qs-Q,190,225
2020-07-22 22:08:29,iaju0NX9ZiejwQWCxCF65g,191,226
2020-07-23 10:10:47,0lTyIqgAlySTSnG1xIy_pg,192,227
2020-07-23 13:47:56,sW3Mm57sriEfuIZ8PjWlrA,193,228
2020-07-24 09:19:55,GmkiOX4KMrUkMz8l1UKGvw,194,229
2020-07-24 18:41:46,Zl2ukRQUGtwifNL3Hw34iw,195,230
2020-07-25 07:28:47,EHsvAgKLZayvejEGkQ9okA,196,231
2020-07-25 20:25:31,3EView_yWkFICKmf8W-OQg,197,232
2020-07-26 19:08:16,iBN_xXQSqIZzBVM15ENGkg,198,233
2020-07-28 01:23:07,R7zHvHZeWD4JuwXopvPnsQ,199,234
2020-07-28 05:54:07,-idoBW8iEO5-Wi4gEjpIxw,200,235
2020-07-30 08:22:19,jLUu89_b8vBt65UkjHWnng,201,236
2020-07-31 15:00:20,KXsuhknUvWlLs57B5YLRqA,202,237
2020-07-31 20:33:51,rXw9J8xDmseNmCmRwCcwkg,203,238
2020-07-31 22:56:34,VL6Q7zOMiTlurMbFN7uzGA,204,239
2020-08-01 03:09:58,1qNGmdML75vACd_ZzSItgA,205,240
2020-08-01 09:28:55,lm2AwdlhUOQRcSYEzhD9rA,206,241
2020-08-01 10:42:56,ZSrT_R8o4Z9yJSeiOViLbA,207,242
2020-08-01 12:39:36,PcJJYg4wrD_8FO17sPRnNg,208,243
2020-08-01 12:49:25,7H73XyzRbuKbxwn9PGVeHg,209,244
2020-08-01 22:14:04,6PWmhzjixTB6mrtsXmbmAQ,210,245
2020-08-02 06:32:12,hJcAQHV4Pz-EQYl02_PXlA,211,246
2020-08-02 12:10:07,x0tSdjeO071wy6N6OsRf6g,211,247
2020-08-02 21:56:49,9tquvthCkvyP2CvgqrZ91Q,212,248
2020-08-03 18:59:54,OlbMjzCgajlv5TNhsPNVPw,213,249
2020-08-04 21:51:21,GfFs-EjYOell7AijY6lNmw,214,250
2020-08-07 15:59:07,7qd9nozKTwaQT9_u6NkKyA,215,251
2020-08-07 19:28:51,ChF_LJSo5foHIIq7vkYIPw,216,252
2020-08-08 14:15:40,roBfkikfcMiXBGOSBKodbA,217,253
2020-08-09 18:57:21,SZ9USVcyQGNGvvoKbuAwrQ,218,254
2020-08-09 21:17:21,kbsnEJlJ6VqWxWPS1CImBA,219,255
2020-08-10 09:06:24,9v2qAnVDAJBSlChqO34NDQ,220,256
2020-08-10 19:17:01,OlbMjzCgajlv5TNhsPNVPw,220,257
2020-08-12 13:55:52,fC5lunLPzFZ9F4Ia-lf3mA,221,258
2020-08-12 21:19:55,uZxEBPF1wsmTx2wkJDg_Jg,222,259
2020-08-14 07:46:58,saH69MlmxxaELC9bw5JpBQ,223,260
2020-08-14 11:56:04,XU3QKdwSFW2OTCXqb4a2JA,224,261
2020-08-14 20:05:33,ctmlbnpJuTgN-EaYYn9Btg,225,262
2020-08-15 20:02:29,fBoQoV4YEMpYlhEaHSo_Fg,226,263
2020-08-18 17:29:48,VmONrwmotAiAR6PDXimCdw,226,264
2020-08-18 20:26:41,rb86f6x0aPY2jfSE6t0qpQ,227,265
2020-08-18 21:33:46,TzlCQjuzHNe_CG6A6Sficw,227,266
2020-08-20 15:51:05,_RlVTOqngByHTpBihVps1w,228,267
2020-08-23 13:23:24,KszjyEkcHJ-Wz2k2pjqilQ,228,268
2020-08-24 18:12:50,xjqVfpYixu4No-FqadC9zA,229,269
2020-08-24 23:26:48,GZ058B4on8e8AlSuA9_BIg,230,270
2020-08-25 16:38:50,XpadUUQbZSKmpvHEXrt8cg,230,271
2020-08-26 20:51:15,E4JmwFnJ6E713DJ6coQbWA,231,272
2020-08-26 21:48:04,TrrEw_5UrknZ5kNwv9Ueww,232,273
2020-08-26 22:23:00,PxqXlorfS8btJGaAjYxilQ,233,274
2020-08-29 20:02:33,AxoNi59-BOOOtVryyhVQvQ,233,275
2020-08-29 21:20:38,VmONrwmotAiAR6PDXimCdw,233,276
2020-08-29 21:43:38,VmONrwmotAiAR6PDXimCdw,233,277
2020-09-01 01:27:42,XpadUUQbZSKmpvHEXrt8cg,233,278
2020-09-01 18:55:41,WsmwIkRQrYcp48GSy-iIdg,234,279
2020-09-01 21:54:59,yjbHer7rkcSxvLoyXc-8Xg,235,280
2020-09-02 00:17:34,k-tBE7f7Gv63EMqki7Diog,235,281
2020-09-02 01:04:57,qBpnkjJlIQIQDy2rsTp0Hg,236,282
2020-09-02 08:27:15,rXw9J8xDmseNmCmRwCcwkg,236,283
2020-09-03 13:29:03,GPSW3vTJ5NAi-WTMr_A34w,237,284
2020-09-03 15:59:51,mv4v2D0XmmPcmj8gKmlpHQ,238,285
2020-09-04 18:28:40,TSdi7-LTvcwDFrj020g-4Q,239,286
2020-09-06 09:03:16,S9BAA_JyAqpEk3lMUXLyRA,240,287
2020-09-06 09:26:47,GtCWHXTwXLfgztsezPyH7w,241,288
2020-09-08 14:43:33,Qa0Ulk7rmlmdlO1LaIEM1g,242,289
2020-09-10 02:08:15,WFVgqHiFB3qwAckJ84fcrw,243,290
2020-09-12 16:31:30,4rou__AjHlKNx8W8zPftMQ,244,291
2020-09-13 09:16:49,StBHLQ4-N__LeHQ5sVKU5Q,245,292
2020-09-13 12:21:43,VmONrwmotAiAR6PDXimCdw,245,293
2020-09-13 12:53:00,2iYVpobJvP1BCzUjnJNG7w,245,294
2020-09-13 13:51:22,gPPFxYyssRovLcS0-fN1iQ,246,295
2020-09-14 13:01:39,MUzJF56caxB0Vwgf0v3MoQ,247,296
2020-09-14 17:18:03,L-0cWOkadjhHE-rul3FnmA,248,297
2020-09-17 16:34:17,gskTKzCGgQcyA0cK1HA8LA,249,298
2020-09-19 08:32:37,tg-RnDbynBG4-RLnDX6kmA,250,299
2020-09-19 17:14:39,ZUHIeDCwA8LkBk3xBISXDg,251,300
2020-09-20 00:10:07,KlsSAl88YMhCTFJXMHK-MA,252,301
2020-09-20 07:58:54,1V4DdG2RygAryJjStiNKjw,253,302
2020-09-20 10:22:45,nQdBud7ns5G1msKKQhCiiA,254,303
2020-09-20 20:49:32,8bbHdtjMpxjfs72mCACwjA,255,304
2020-09-20 22:26:44,VmONrwmotAiAR6PDXimCdw,255,305
2020-09-21 03:22:16,r8UD9RMjvNaeD7G-0jDJiA,256,306
2020-09-21 11:24:24,00nisa5eYD5Q9JxqYXXALg,257,307
2020-09-21 11:27:29,XpadUUQbZSKmpvHEXrt8cg,257,308
2020-09-22 06:43:28,_c7ZucUTMsWysF9qbQXoLA,258,309
2020-09-22 11:51:41,C6rT9lSZE4d8T9o4pgD9bA,259,310
2020-09-23 08:07:11,L-0cWOkadjhHE-rul3FnmA,259,311
2020-09-23 09:15:36,L-0cWOkadjhHE-rul3FnmA,259,312
2020-09-23 10:53:03,5i3HNAqjCQJRF-95RvKzuw,260,313
2020-09-23 12:26:51,LrwpcGZ3XwIb4wSIMW4kBw,261,314
2020-09-23 20:30:22,OGS212sEtiPDOwj7Pou3YQ,262,315
2020-09-24 02:53:35,rM3cvf7puI1RzXI0OFCVtg,263,316
2020-09-24 08:09:07,1V4DdG2RygAryJjStiNKjw,263,317
2020-09-24 14:33:42,iaju0NX9ZiejwQWCxCF65g,263,318
2020-09-24 18:18:46,1Dscn3-Hft4N8KCN7TXEiQ,263,319
2020-09-24 20:40:10,rXw9J8xDmseNmCmRwCcwkg,263,320
2020-09-24 20:58:07,t-HZ1_T8qJ2_U4w017LZww,264,321
2020-09-24 21:54:48,gpLCxa-6t1SRI6JkDiIESg,265,322
2020-10-01 08:28:01,mufOkDew2svU2ZrRpVKcOg,266,323
2020-10-01 09:26:45,kOyoDNbMyNnsxFD80YwY6w,267,324
2020-10-01 21:05:43,GL6C9MBlWMgu2EsKILW4kw,268,325
2020-10-02 06:22:25,IAfQMloIeg7oAfxaiZazYA,269,326
2020-10-03 08:15:21,goW__2hM2_L4ueug1RV2_Q,270,327
2020-10-03 09:12:59,HQRchpffVzv5WqHo2mofqA,271,328
2020-10-04 12:56:28,e-0OoIuRmR2-3RdqpgnJlg,272,329
2020-10-04 18:04:41,RYwNy-IsjB3qCchn3I5_5w,273,330
