time,userID,adoption,cascadeSize
2020-02-02 03:49:06,CX5CSDZSPXJRlPe9zFgdpA,1,1
2020-02-02 12:34:20,hUnzkG6lwu5tfwTPVXnsRg,2,2
2020-02-02 16:47:02,KLPmXSGr4IrEMAwBIUJv3Q,3,3
2020-02-03 07:37:38,KLPmXSGr4IrEMAwBIUJv3Q,3,4
2020-02-03 08:10:11,AL-3gkdrQJFTh9n_8bYP8Q,4,5
2020-02-03 10:45:33,VofU9mYZOre47bYJsP4Mzw,5,6
2020-02-03 12:40:27,tILKTOpCxwHLw6mxeR-sUA,6,7
2020-02-03 13:34:49,QnRsLA_H-g1005Nr8AiNuA,7,8
2020-02-03 14:25:33,rmJzIo_fX-QFOdiHQeFVfg,8,9
2020-02-04 13:26:35,iZC67vgNRtKLykt5pwlvHA,9,10
2020-02-04 13:57:56,mi6fbM2tSAv45C0txOLcRg,10,11
2020-02-04 19:04:45,kfgZYIQxIFh4URaleae73Q,11,12
2020-02-05 11:32:26,tpZJlVfo0Y9CpJqF-Tb9wA,12,13
2020-02-05 19:39:34,PalBcxuQDsAUEesA6LVOTA,13,14
2020-02-06 08:00:38,X7T7YtX5KKW1otoEk2n0gQ,14,15
2020-02-06 17:49:28,V23u6THj8PArKxPD3YlQyg,15,16
2020-02-07 15:42:28,vUWPNNe61OlKw2WcH02S-g,16,17
2020-02-11 17:42:17,0LkwlcRwZMoJ4e6GUodxfw,17,18
2020-02-11 18:14:24,fmaWLIbQeF-zU_pMRSEKbg,18,19
2020-02-11 20:59:54,C-ejUK89i4p2e-DC8lL2IA,19,20
2020-02-12 06:53:39,-mleMQ3OkxFi6DzWkpMGkA,20,21
2020-02-12 10:17:06,0LkwlcRwZMoJ4e6GUodxfw,20,22
2020-02-12 10:35:56,XYYMegH069gcg4xoif_exg,21,23
2020-02-12 12:55:38,7RVbpE5l3hVxDuxI-p1n7A,22,24
2020-02-12 19:12:38,TPHYvG8ywv4uFjh603gQmA,23,25
2020-02-13 00:23:15,D-DojJ-Lem8rCnXDsUP6wg,24,26
2020-02-13 01:28:24,uzNYmPZbZo9FUKdG77pUlQ,25,27
2020-02-13 01:34:02,uzNYmPZbZo9FUKdG77pUlQ,25,28
2020-02-13 04:05:30,reIlrWMHed4kH8qH8olnsA,26,29
2020-02-13 09:25:34,2rHHZRiIJa7HSvXzlxh1yw,27,30
2020-02-13 17:10:56,qvQwu0nsWjFhyFGvOjvQxw,28,31
2020-02-13 20:45:41,cDSNUnI-plPFGFPF4Vs_Dg,29,32
2020-02-14 01:59:38,KNmRS68JAsZyxqODLrbG2Q,30,33
2020-02-15 04:54:27,72Lu8mM9IJEfg7WBi4m1rA,31,34
2020-02-15 12:54:25,7QThzLj6Uzt_eWPY1mW8Qw,32,35
2020-02-15 14:16:38,4ro5lqCPZocAX8Vk4GUyPw,33,36
2020-02-15 14:24:20,ViF_eP4ccH4OXqTNLkls_w,34,37
2020-02-15 15:09:34,ViF_eP4ccH4OXqTNLkls_w,34,38
2020-02-15 15:30:45,ERwuNmjvRvR3ym-mIR0wpQ,35,39
2020-02-15 15:38:45,4ro5lqCPZocAX8Vk4GUyPw,35,40
2020-02-15 15:42:41,plSPVAl3Aqi69qKXduJtbA,36,41
2020-02-15 15:58:48,ViF_eP4ccH4OXqTNLkls_w,36,42
2020-02-15 16:36:56,ViF_eP4ccH4OXqTNLkls_w,36,43
2020-02-15 16:58:51,4ro5lqCPZocAX8Vk4GUyPw,36,44
2020-02-15 23:37:24,rEBsdj3AS7IZSnFDoYci7g,37,45
2020-02-16 00:19:31,DwnKvri002TUhJn_SrgjmQ,38,46
2020-02-16 11:36:58,3FX-MMBpKkvRklItvpw7IA,39,47
2020-02-16 15:13:05,Ye-PFOW_XQXptSjUxQDESw,40,48
2020-02-16 16:32:06,DfIteTc7T4J--s-Lft2Eew,41,49
2020-02-16 23:33:11,EOFBNwTuxuhlZ9pJSBLEBA,42,50
2020-02-17 21:02:45,1NAQg6o_YwjnF0WvQJTvQw,43,51
2020-02-17 22:41:23,Wf6jr0C-NGjBIgCCbg8yCA,44,52
2020-02-18 10:22:26,ii3-zaIRYekBhAmrCqYwpw,45,53
2020-02-18 11:18:58,HRAeW7CFrRStVacMdR3n3A,46,54
2020-02-18 17:05:27,ii3-zaIRYekBhAmrCqYwpw,46,55
2020-02-18 19:41:30,4_qaDBDumBGR3oWYYEd-IA,47,56
2020-02-18 21:17:38,LcIhELMKGi2gsHtsvvpPEw,48,57
2020-02-19 04:22:03,EgxwzjGDiKDxdn90ktHLeQ,49,58
2020-02-19 04:28:52,pBKvjczocIDeTpEAPL0TlQ,50,59
2020-02-19 11:16:49,Z6NP4aF6C6vpGI7bUEgrqA,51,60
2020-02-19 14:26:01,e7b6yTDLKzvLIWRWEMXJlg,52,61
2020-02-19 17:29:04,vuZBzk5h7acDrpsiXkEHwg,53,62
2020-02-19 18:45:25,vuZBzk5h7acDrpsiXkEHwg,53,63
2020-02-20 01:38:44,7WgrEs2Kjsi3H2YsrrtHRA,54,64
2020-02-20 06:20:06,SZvMtAlox0xltswRXPEyxg,55,65
2020-02-20 22:43:48,p8P9J6OUavPbdPynwsyM2A,56,66
2020-02-21 19:00:06,cvX8DHONJH7EvTRdSlUkrw,57,67
2020-02-21 19:00:08,opOUAfpzjsu2tEopWaZRuw,58,68
2020-02-21 19:10:23,2Mpgg9YPdbnP8DZOzAo1kQ,59,69
2020-02-21 19:21:27,p9nxxjdF1mBSVKYgdGkSvw,60,70
2020-02-21 20:23:55,2XHilDEnmIi6ifDLVytcvg,61,71
2020-02-21 22:28:25,Ow66333kpsPYCFIREfDp8g,62,72
2020-02-21 23:16:57,dQBUpNQ8VwJN4O5gSc9ZHA,63,73
2020-02-22 00:37:26,sj1eqkDa2cuHCHlsE2Lupg,64,74
2020-02-22 02:38:03,cWmiMyc_AnDgNuZOPHfJOw,65,75
2020-02-22 02:40:39,4lp8UFl3vwnPsIPOW5fmVA,66,76
2020-02-22 07:26:07,Ow66333kpsPYCFIREfDp8g,66,77
2020-02-22 15:17:15,tm8yoU371tnYujrHe_YrYA,67,78
2020-02-22 18:45:43,X76ygoWOJUi2xT9lV5Hqgw,68,79
2020-02-22 19:24:41,x7m1wp5hIb4BkVACKIka3Q,69,80
2020-02-23 07:32:46,Av9H_66YDfjAwqvHSvmNEw,70,81
2020-02-24 05:31:53,EqAxulf4SQjj5edYuWnUaw,71,82
2020-02-24 19:00:51,Gs6ZBgz7huZX7uKPqQSRGA,72,83
2020-02-25 21:17:16,uC2aEn52G_85WceYk7EK4A,73,84
2020-02-26 01:26:11,oUs-E5cYyJX8ZuHJ2dsSZQ,74,85
2020-02-26 02:43:32,iF_pbHnQCzxiPB4yH9R7Lg,75,86
2020-02-26 02:47:50,bevkYyQ3dLZGA3BaPkevyQ,76,87
2020-02-26 02:55:52,ksl4hLADDh-gm46k1pFDHw,77,88
2020-02-26 05:55:02,EqAxulf4SQjj5edYuWnUaw,77,89
2020-02-26 10:21:59,O8scUKYT-cYK3IjzJ1b4GQ,78,90
2020-02-27 02:38:26,0kDgByudte1At6vOKceRoA,79,91
2020-02-27 19:01:12,5wqt6JICykmJa41TupZimg,80,92
2020-02-27 23:56:22,p8P9J6OUavPbdPynwsyM2A,80,93
2020-02-28 08:05:54,O9MZWSEu4xMogXVx15fK1w,81,94
2020-02-29 00:24:23,4arOh0u0yEGEs6obzv5teQ,82,95
2020-03-01 15:20:16,IqFg-rnzHRgong6u-1b7Gw,83,96
2020-03-01 21:02:13,hmeKwZw2asb9_LIx2OvuHw,84,97
2020-03-02 02:22:13,hkYSaDClybCGVSU0AbWwPQ,85,98
2020-03-02 23:03:02,PSBFUcJMjAZywPWU1aUiFQ,86,99
2020-03-03 19:31:30,gvmGuV9kiRW3zgBm2nAT5Q,87,100
2020-03-03 20:32:24,rLj61el8oWkZdVTitbjCTg,88,101
2020-03-03 20:54:36,Nk2AeYhv8viTJLUwM95M8w,89,102
2020-03-03 22:00:22,oUs-E5cYyJX8ZuHJ2dsSZQ,89,103
2020-03-03 22:46:05,MVjnhQ9NIjyG-UfA9w3o1A,90,104
2020-03-04 00:12:11,rTqdiAYWfjAQLxAb72_HgA,91,105
2020-03-04 01:05:09,g6Ugv-LivKxuXn8OA4jgww,92,106
2020-03-04 05:27:56,Nk2AeYhv8viTJLUwM95M8w,92,107
2020-03-04 16:59:56,fIXnoN6LwEcCIBEV-xXg9Q,93,108
2020-03-04 18:14:51,96loXCptDpB_oRVmqYjxMg,94,109
2020-03-04 21:06:45,KfoNs1_cgTbJGUakw06qRQ,95,110
2020-03-05 08:35:50,wY-NtIOies1ZWvPgTuaCEQ,96,111
2020-03-05 14:35:21,atSE0AHGK57dI9kJU2fGMA,97,112
2020-03-06 05:15:23,HQ6glgViyArQlUeJFtq83A,98,113
2020-03-06 08:16:58,_guzsrquDvkFv0DpUpZCEQ,99,114
2020-03-06 14:47:45,wY-NtIOies1ZWvPgTuaCEQ,99,115
2020-03-06 17:18:33,7Zxpcf3chzWWsxvfVcpAeA,100,116
2020-03-07 00:54:54,Ixiav2_1s6O62sriPdaxpA,101,117
2020-03-07 17:25:25,gY2nK1yMPasitobA44kW5w,102,118
2020-03-07 19:00:26,zR61Wun1_ZTjvOXEj2Pw_A,103,119
2020-03-08 01:46:36,dpm3Bdqr5S0eALTmHIvxDg,104,120
2020-03-08 02:44:49,wO5FG7crXp6Ulmks-28dlQ,105,121
2020-03-08 14:46:09,yNoisRPu_PUJEb86pvUgUA,106,122
2020-03-08 17:18:46,fzjP34VniPOGHWLNjrOuWQ,107,123
2020-03-08 23:13:21,7Zat2Frb81hPsMNWKkWI0g,108,124
2020-03-09 19:30:57,S_lhIub9GJEX-oOPkeypcA,109,125
2020-03-10 05:02:10,fbINsO_JvULXvAfs0Y3cDg,110,126
2020-03-10 05:33:00,rWiG24sUFywn9VlJcZO03Q,111,127
2020-03-10 06:17:22,fbINsO_JvULXvAfs0Y3cDg,111,128
2020-03-10 06:56:47,fbINsO_JvULXvAfs0Y3cDg,111,129
2020-03-10 07:04:43,JVByXJvjDFf8bq76XblkJw,112,130
2020-03-10 14:07:26,YL69tezxlnFRSN7iCVmBWg,113,131
2020-03-10 16:30:52,Ixiav2_1s6O62sriPdaxpA,113,132
2020-03-10 22:23:30,NBhMkWshc36KVm7kx3K-hQ,114,133
2020-03-11 02:51:33,mSULYLG_RAc4GMycgWWX_g,115,134
2020-03-11 17:27:35,dPV4Epiy_R87FyS6F1akRA,116,135
2020-03-11 17:35:29,OfXKneIbpVK-O1Xm2XdLtA,117,136
2020-03-11 19:23:34,8vLoZHqVDpq70d1_2yQ4Gg,118,137
2020-03-12 08:53:20,pcS40QWyhc0PwS7ZrzpuUw,119,138
2020-03-12 14:46:46,g6WvEokAOKPIOvqRnI6OMw,120,139
2020-03-12 15:07:30,uFwnhuLoL3izn1-CXaBHcg,121,140
2020-03-13 04:04:26,p5ionl1jUamP-CxP39ub4A,122,141
2020-03-13 05:29:09,GBpDId9Ztqt0JiI4019ykQ,123,142
2020-03-13 09:34:11,mREKEpB3Q0pzTOP45hMdhw,124,143
2020-03-13 10:38:05,9QnUu0S8eyGgBO8fvSnsRg,125,144
2020-03-13 15:21:42,MQg1Ikfu3Q6PqhiK26yHMA,126,145
2020-03-13 17:34:29,x8rXIybhxZURfGZ_LiA63A,127,146
2020-03-14 02:33:41,hYwW2Be6p0KzhbVV4C0TSw,128,147
2020-03-14 04:17:08,irDImxvtPuM7cIt1iElF2Q,129,148
2020-03-14 10:51:48,dIu9xMKlpil-GKMvPGeiqA,130,149
2020-03-15 08:22:55,8cM8cfCUUEPzZEdHQ7gbKg,131,150
2020-03-15 15:36:54,VfxzOAw-OZdEdkogM3Z6wg,132,151
2020-03-15 18:53:12,AZOTHV6ysaqS6FdPT9jbBw,133,152
2020-03-16 10:14:09,9AVCME2OaZXn76yfjIS2wA,134,153
2020-03-18 00:44:22,2wiBzQjw1zSYt_xcq9ozKA,135,154
2020-03-18 03:53:03,bDziBy2P-VLCYBFWJUGfSA,136,155
2020-03-18 13:24:11,ovWQs0h1YySv-FprA3VWgA,137,156
2020-03-18 22:35:14,ZpeQ-9vXGbeI_L3CpkI4qw,138,157
2020-03-18 22:39:58,rvCEkC3B43w3-4LklmwGQg,139,158
2020-03-19 01:03:08,xZbrXEeFGd3L9bcijDybuQ,140,159
2020-03-19 17:46:49,Nl36QyXINszYmUYiKFMSdQ,141,160
2020-03-20 12:18:56,syawl5FLJ0Xu2by_r-qG6w,142,161
2020-03-20 21:08:05,RwrkXQvS4htkoS6AlkdIOg,143,162
2020-03-22 07:05:08,p20MGxaNzGuXlwvZAPSC6w,144,163
2020-03-22 09:54:13,NUf3HWHgvDE6K98MQkQ5Dg,145,164
2020-03-22 22:22:20,Ff0Av06uAiJJCwEvPqd0Dw,146,165
2020-03-23 02:42:26,By6dyFHBt6SGKuTGFfWplw,147,166
2020-03-23 02:52:39,zI46sFX3f08XmuPqoIkDEA,148,167
2020-03-24 05:45:17,7f0D_XYAuiLna-OjXnk15Q,149,168
2020-03-24 09:48:43,ZApCn_MSIwAMRANUbnMTqw,150,169
2020-03-25 06:27:26,jWf0ika_2iHuE4VlcnbJeQ,151,170
2020-03-26 16:02:43,bDFdPzofDR2A7az5C22pEg,152,171
2020-03-26 21:34:22,0iFMyejGG07YlnbMCxlxhg,153,172
2020-03-27 15:14:14,qq9mWM_Po15iXoepq5VSJg,154,173
2020-03-27 19:31:32,VPsc4D7QLrlaWo4BcrmQcQ,155,174
2020-03-27 20:02:37,jwIEwkkE07S2C4YQzyqKzw,156,175
2020-03-28 00:08:55,bLDH9wRKhqChMSRbJnU95A,157,176
2020-03-28 01:13:34,1gl9GfZ5m_Qc0dha86ImoA,158,177
2020-03-28 13:37:23,1gl9GfZ5m_Qc0dha86ImoA,158,178
2020-03-28 18:21:25,V9KNHPOB7WJliRBo6m0gUA,159,179
2020-03-28 19:55:29,EFlGHU_ZJndeLrdT9hJ0xA,160,180
2020-03-29 10:45:32,jUt0Atr3B6izXs4CvRl_jw,161,181
2020-03-30 03:19:55,EWRVcu6fCKtMCDE5mwEM-Q,162,182
2020-03-30 15:00:38,vuLOXNDUwSMu_dHLMONEXQ,163,183
2020-03-31 08:37:20,U5pJgtZv0JayJ93FEy2VCg,164,184
2020-03-31 08:39:54,fAuhkhrCAi3dkhVmC_O8iw,165,185
2020-03-31 20:18:07,zF2iZ18A2bZLY6xV2vdA7Q,166,186
2020-03-31 23:23:04,Ik9GeL1FL4D_V71FS5I2JQ,167,187
2020-04-01 14:19:08,ADFmQxGJlEJFRt8auNnGPQ,168,188
2020-04-01 20:01:05,CXmmPoax6FwNxP-Na5RxbA,169,189
2020-04-03 11:09:38,JARKm8DPQ5Vlr5ZNeLPBGA,170,190
2020-04-03 11:41:19,qD7al3IXUqk9yYecP6aFTQ,171,191
2020-04-03 12:53:08,5o1FXMZFDUOATU1hCwndPw,172,192
2020-04-03 12:58:05,p8kLKTD6k-C5jAZLA_SQkg,173,193
2020-04-03 16:59:29,n1g0pfY-iVCIvhH9_AVw2A,174,194
2020-04-04 00:43:26,qDTXIkIyhuXCl4ZTn1F2EA,175,195
2020-04-04 04:31:06,802ytOT6a-z73AiYVB6NCQ,176,196
2020-04-04 14:07:05,ViF_eP4ccH4OXqTNLkls_w,176,197
2020-04-04 18:40:36,LGPT5LNNmF_elys_Y6vkMA,177,198
2020-04-05 13:26:31,oZAbd0MVqfQnYYJKY1susw,178,199
2020-04-05 13:30:08,Ywomyq9Yh3oOuBW-u_ONEQ,179,200
2020-04-06 02:37:57,xYcQ7kG6m1DNcyhRJDazcA,180,201
2020-04-06 05:05:22,MinSaXzIgwdov2VbUiy1KQ,181,202
2020-04-06 15:17:58,g0LBZgE0HwitDKCh8owEFw,182,203
2020-04-06 16:56:29,odNOLMjAqeTXRgDJQUjW5Q,183,204
2020-04-06 17:50:52,7UTvn3XQkga9uj_tMuAfEw,184,205
2020-04-06 22:25:15,UgYk8KZQGr3c6L03nJq-lw,185,206
2020-04-07 01:33:58,xPDEfmIAroYcm8L6MEBqyA,186,207
2020-04-07 02:54:53,HZoDjv7y-LGb_f_YsHCoPg,187,208
2020-04-07 05:57:32,2YMa4IAPP0zl4PqrIXl-Zw,188,209
2020-04-07 20:31:40,kG9hnXfi3alBIElScUW-PA,189,210
2020-04-07 21:24:47,1G3jFx_VBWJRDBQ1upDPlQ,190,211
2020-04-07 23:18:12,PUWHP53g9tPpVLHYDrLtPA,191,212
2020-04-08 04:13:43,ZOMJTd600ch45r_8Y30oJA,192,213
2020-04-08 18:03:53,uoIT83q07eX5vTzJNOJJtg,193,214
2020-04-08 22:18:22,bKpxyyp8ozWBOZwWMwhF2w,194,215
2020-04-08 22:22:00,bKpxyyp8ozWBOZwWMwhF2w,194,216
2020-04-09 11:39:51,elGkJ7GGJnPT4RGRFuQNEg,195,217
2020-04-09 16:06:55,I7d2_DNVs28vZ0gbqjENFQ,196,218
2020-04-11 06:50:55,jTNbW9bv5oudxzOTWsXTrg,197,219
2020-04-11 11:33:33,y7tpfyVYz-ljWIsQGgNZFw,198,220
2020-04-11 15:29:30,ws71ibwmxF9z3Zf1EFcewA,199,221
2020-04-11 17:10:53,pszTVK2fD0FTAOx4Wu7LNg,200,222
2020-04-11 18:44:56,XYf591uDbMvxAb7hNbrWWg,201,223
2020-04-11 19:17:55,XYf591uDbMvxAb7hNbrWWg,201,224
2020-04-11 20:24:40,cnpAfNFhB5vD9be490rTiw,202,225
2020-04-11 21:10:44,1_uiCGniBGHzsR4APFQ-yg,203,226
2020-04-11 21:18:59,0TtarJPArtRmERLvM2otcw,204,227
2020-04-11 22:43:26,plbRsMP607r-KKRlGkpnsg,205,228
2020-04-12 10:48:02,dd_eeUUGkzrL-Mes0IaO9g,206,229
2020-04-12 11:00:37,VUeOh9g9k-PY6_c9_X4jyQ,207,230
2020-04-12 17:57:41,1R03yn-4VSD1_EO-5Rn59g,208,231
2020-04-12 19:08:43,EpLd7AhAMn5LxWh8hZjOrg,209,232
2020-04-12 22:25:44,_SmeW_34DapYZNvGo5M81A,210,233
2020-04-13 04:21:23,TSe1HURVyaoRUI6cSyIrSQ,211,234
2020-04-13 12:36:49,_sG1ko1viJ5Xe-Cua1sH7A,212,235
2020-04-13 14:30:06,dHQzEy_BnEb7vHxknn9Xew,213,236
2020-04-13 15:06:09,dojgfx01JyvAdjd3efN6Ew,214,237
2020-04-14 07:29:39,ISgl5yx14Q6QA2-tu2gutg,215,238
2020-04-14 08:35:35,--qObTaCAjXfsVgjVGRoBA,216,239
2020-04-14 10:10:12,QiNyaep8meM0JxYic8DrBQ,217,240
2020-04-14 14:19:01,DTekUCaEZjvXzyQ_8RaGXw,218,241
2020-04-14 21:51:18,ABUdYVN2Oc4OtnY37360cw,219,242
2020-04-14 23:02:32,fmyMVKn_kS-DKIu7XizfGA,220,243
2020-04-15 11:52:37,a0g81dw0h7nmF3f4rDKsdA,221,244
2020-04-15 18:32:11,V_JKb02-v1aKFlwWa5I_-w,222,245
2020-04-15 22:19:51,egn-tkQ0tJlrxNFXzgA1vg,223,246
2020-04-16 18:52:30,Pc_JKsDPgEPeGICe_7VjYA,224,247
2020-04-17 05:08:26,7KAO925RPFLwJMskYXInQw,225,248
2020-04-17 20:53:57,sOcA-MqCrvWnqFzpgXW-eg,226,249
2020-04-19 00:45:25,2RwoT7i_Z0F7tXuQ-gLpqw,227,250
2020-04-19 02:42:26,N8ukQ9NPUlntFZLKxRfmNQ,228,251
2020-04-19 13:04:46,OJvH3vtyrncrDV6G8IkepA,229,252
2020-04-19 14:43:12,DCzX_ZpHG6MYmsvgULQBaw,230,253
2020-04-19 17:35:59,lWJxAkirqwjm9e803sVjig,231,254
2020-04-19 17:36:12,pu9z4IAzGCrpAN39lp4x4Q,232,255
2020-04-20 11:19:53,Jz3zFR93rejRXAEn4VI5yA,233,256
2020-04-20 16:50:26,z7nZ7XdHBtzzvHSSPKySIg,234,257
2020-04-20 17:16:15,aeCB1A24j_Kfhe4wUvULCw,235,258
2020-04-20 17:29:52,sEQvkHe5Yb2Jqc1Srul27Q,236,259
2020-04-20 17:44:35,jHpHPv0Bf1LbP3djTFGolw,237,260
2020-04-20 18:49:02,bP4MlEaGF8axo0aoTlcf9w,238,261
2020-04-20 20:33:00,g39FWNjEz7P-Qku_NcP-Lw,239,262
2020-04-21 01:04:47,-gkQKyJLF0t0j3BgCzmBWA,240,263
2020-04-21 05:50:18,7tiVyz1kbJSfVnzi6dQARA,241,264
2020-04-21 09:32:16,uc2UlFUyMKl3ra0H1hayoA,242,265
2020-04-21 10:54:19,Y7RfYTyPDPQIgOntFNNT6A,243,266
2020-04-21 18:13:27,0IvLiYzlgvlo8oAZmjCanA,244,267
2020-04-21 18:26:48,opy7gVIufNjNbxortKqrcQ,245,268
2020-04-21 19:24:23,daoczxHIdv1ErQSMbbZ4jA,246,269
2020-04-21 21:20:19,H0i6C2c_dc6mq_s0iUzsxQ,247,270
2020-04-22 03:07:54,H0i6C2c_dc6mq_s0iUzsxQ,247,271
2020-04-22 11:56:25,iWuFiQVh5wkJlfRF0JC-MQ,248,272
2020-04-22 14:01:35,XGAYBby4ZUalVk4URFjwow,249,273
2020-04-23 06:23:38,IcZIv6qTIae9DlTi3fIWlA,250,274
2020-04-25 01:15:00,pSlDp9XXJWxGtUKGwA9Kag,251,275
2020-04-25 14:11:58,fD6O7RU_UH8deoaMBkNH1Q,252,276
2020-04-25 19:53:13,HX11NO7jhg9MUBpNtQDhhQ,253,277
2020-04-25 21:42:42,pHtzIkmkBQqksn9EsaMojw,254,278
2020-04-26 08:10:14,MydH7SDiZfGyepWa8E2ggQ,255,279
2020-04-26 08:42:42,MydH7SDiZfGyepWa8E2ggQ,255,280
2020-04-26 10:10:23,n98DdiGNMTFSGk7HXWL-Dg,256,281
2020-04-26 12:40:20,MydH7SDiZfGyepWa8E2ggQ,256,282
2020-04-26 13:30:25,MydH7SDiZfGyepWa8E2ggQ,256,283
2020-04-26 13:43:06,PjJ4ZuMzywZxPu46N6aR1A,257,284
2020-04-26 14:25:38,1d0YzZlDaFbx_IG16uLDgQ,258,285
2020-04-26 15:20:55,2AsGJ-Gko02C0TUdtHFNag,259,286
2020-04-26 15:22:10,2AsGJ-Gko02C0TUdtHFNag,259,287
2020-04-26 16:40:33,MydH7SDiZfGyepWa8E2ggQ,259,288
2020-04-26 17:00:33,MydH7SDiZfGyepWa8E2ggQ,259,289
2020-04-26 17:23:02,MydH7SDiZfGyepWa8E2ggQ,259,290
2020-04-26 17:35:08,MydH7SDiZfGyepWa8E2ggQ,259,291
2020-04-26 17:46:50,MydH7SDiZfGyepWa8E2ggQ,259,292
2020-04-26 18:10:44,MydH7SDiZfGyepWa8E2ggQ,259,293
2020-04-26 18:53:12,MydH7SDiZfGyepWa8E2ggQ,259,294
2020-04-26 19:00:48,MydH7SDiZfGyepWa8E2ggQ,259,295
2020-04-26 19:13:14,MydH7SDiZfGyepWa8E2ggQ,259,296
2020-04-26 19:25:15,MydH7SDiZfGyepWa8E2ggQ,259,297
2020-04-26 20:51:01,MydH7SDiZfGyepWa8E2ggQ,259,298
2020-04-27 02:11:01,MydH7SDiZfGyepWa8E2ggQ,259,299
2020-04-27 02:23:20,MydH7SDiZfGyepWa8E2ggQ,259,300
2020-04-27 02:35:18,MydH7SDiZfGyepWa8E2ggQ,259,301
2020-04-27 03:11:08,MydH7SDiZfGyepWa8E2ggQ,259,302
2020-04-27 03:23:30,MydH7SDiZfGyepWa8E2ggQ,259,303
2020-04-27 03:45:33,MydH7SDiZfGyepWa8E2ggQ,259,304
2020-04-27 04:11:20,MydH7SDiZfGyepWa8E2ggQ,259,305
2020-04-27 04:33:41,MydH7SDiZfGyepWa8E2ggQ,259,306
2020-04-27 04:45:33,MydH7SDiZfGyepWa8E2ggQ,259,307
2020-04-27 05:11:31,MydH7SDiZfGyepWa8E2ggQ,259,308
2020-04-27 05:54:17,MydH7SDiZfGyepWa8E2ggQ,259,309
2020-04-27 06:20:32,ht69zZZAnyv2_NV8tUv_gg,260,310
2020-04-27 06:31:42,MydH7SDiZfGyepWa8E2ggQ,260,311
2020-04-27 07:26:34,O1RnHGuIqVJRua6hnMDkIA,261,312
2020-04-27 08:41:38,MydH7SDiZfGyepWa8E2ggQ,261,313
2020-04-27 09:11:42,MydH7SDiZfGyepWa8E2ggQ,261,314
2020-04-27 09:43:58,MydH7SDiZfGyepWa8E2ggQ,261,315
2020-04-27 10:47:44,7_1p9RUWGHcWX57plecR-A,262,316
2020-04-27 10:51:49,MydH7SDiZfGyepWa8E2ggQ,262,317
2020-04-27 11:27:01,w5fy-mTNdp0NycsyEtVMzg,263,318
2020-04-27 11:42:07,MydH7SDiZfGyepWa8E2ggQ,263,319
2020-04-27 11:54:16,MydH7SDiZfGyepWa8E2ggQ,263,320
2020-04-27 12:02:00,MydH7SDiZfGyepWa8E2ggQ,263,321
2020-04-27 12:24:12,MydH7SDiZfGyepWa8E2ggQ,263,322
2020-04-27 12:56:02,MydH7SDiZfGyepWa8E2ggQ,263,323
2020-04-27 13:42:22,MydH7SDiZfGyepWa8E2ggQ,263,324
2020-04-27 13:54:41,MydH7SDiZfGyepWa8E2ggQ,263,325
2020-04-27 14:32:19,MydH7SDiZfGyepWa8E2ggQ,263,326
2020-04-27 14:59:53,ity113JJlcppp-aJZiXUqw,264,327
2020-04-27 15:38:13,D7Sc77lonroUkezgNfr5Ag,265,328
2020-04-27 15:52:25,MydH7SDiZfGyepWa8E2ggQ,265,329
2020-04-27 17:12:20,MydH7SDiZfGyepWa8E2ggQ,265,330
2020-04-27 17:24:33,MydH7SDiZfGyepWa8E2ggQ,265,331
2020-04-27 20:55:27,MmyIihSM-z3MXJ58KnJXsA,266,332
2020-04-27 21:11:07,aIjmdkVA-mDyUfiG98EBkw,267,333
2020-04-28 02:22:22,MydH7SDiZfGyepWa8E2ggQ,267,334
2020-04-28 02:44:32,MydH7SDiZfGyepWa8E2ggQ,267,335
2020-04-28 02:56:20,MydH7SDiZfGyepWa8E2ggQ,267,336
2020-04-28 03:12:29,MydH7SDiZfGyepWa8E2ggQ,267,337
2020-04-28 04:12:32,MydH7SDiZfGyepWa8E2ggQ,267,338
2020-04-28 04:34:38,MydH7SDiZfGyepWa8E2ggQ,267,339
2020-04-28 17:42:43,98UVoN9V6mC8Wq6DDHqDUg,268,340
2020-04-28 17:55:09,dKqDuiCAfuJkf7FxjxqsfA,269,341
2020-04-28 18:24:41,dKqDuiCAfuJkf7FxjxqsfA,269,342
2020-04-28 18:31:03,dKqDuiCAfuJkf7FxjxqsfA,269,343
2020-04-28 21:53:17,4wYBScu6XcG7lHcMF4CJaQ,270,344
2020-04-28 23:16:37,VOlOA56ZIYp_QktLWI3SwQ,271,345
2020-04-29 00:35:37,mcjLFUQF9Zva_R-PrANQXg,272,346
2020-04-29 15:24:44,dKqDuiCAfuJkf7FxjxqsfA,272,347
2020-04-29 20:25:40,GxjB17xl26cplq7wAwZj6Q,273,348
2020-04-29 22:02:08,qlfHjIeoKLK1KzJDSso6Qg,274,349
2020-04-29 22:14:52,qlfHjIeoKLK1KzJDSso6Qg,274,350
2020-04-29 22:15:21,qlfHjIeoKLK1KzJDSso6Qg,274,351
2020-04-29 22:16:42,qlfHjIeoKLK1KzJDSso6Qg,274,352
2020-04-30 10:28:41,iXnVoERpklsrS3X-ep5lHg,275,353
2020-04-30 12:17:01,R-XIjRy-aAwW145ofTaupg,276,354
2020-04-30 12:56:02,9Ui0Qn8aqQIcG-9pNKHLag,277,355
2020-05-01 03:25:08,rzgzjAOJA8G2KmbZb5MxpA,278,356
2020-05-01 16:20:12,C6tMAD3NFmZ4Y3p_GkaJJw,279,357
2020-05-02 20:33:03,O1LbjqhY_aLVz_04vQML6w,280,358
2020-05-03 07:11:07,Z9TcJjhvhVjp04eCiDvWGA,281,359
2020-05-03 08:14:16,EQ6KzP4VPJqMRnv_PlcU6w,282,360
2020-05-03 12:45:39,K5ryeX7ucxOk4I1_XuyxOg,283,361
2020-05-03 23:13:24,XVEtJKWo0XCAEJ5_t-vGUQ,284,362
2020-05-03 23:47:31,F82uYg2jBiy9vidC5dkPbw,285,363
2020-05-04 00:09:55,EB66G8GNJj_p8B9BV80QOQ,286,364
2020-05-04 06:05:29,-B9eUlSKYqof2S9gKlYKag,287,365
2020-05-04 06:33:20,wesaEdSDKuzzrFyqDbAqCQ,288,366
2020-05-04 14:38:30,q8jcIklXF7v0NI-eLeDqOw,289,367
2020-05-04 21:39:15,elWEZgQ7SvxiXSwu9a45uA,290,368
2020-05-04 23:09:27,HBQS7duHZH27wuCYDbdP4Q,291,369
2020-05-05 01:04:12,egbS3qlNKZBRvMxZfxyd_w,292,370
2020-05-05 10:39:27,rfgUYx8v2bq1WvTC5CFFDg,293,371
2020-05-05 13:55:18,_thNYdEDVj9tEPGtsrpuZA,294,372
2020-05-05 15:02:01,1EnR3o28m04YvoAvIuYOwg,295,373
2020-05-05 15:02:29,TOhjOUwKD37gQV_H2hx8kQ,296,374
2020-05-05 17:17:59,qlfHjIeoKLK1KzJDSso6Qg,296,375
2020-05-06 01:04:04,rFBwfYUQMhJJSI1qiXv6gg,297,376
2020-05-07 00:01:21,Aem8-TlqK3LbFXjz8Tzsbw,298,377
2020-05-07 01:17:38,inY5MqAAdwnJqzT8QXDYzg,299,378
2020-05-07 08:49:03,5W9yMblnnzEp8YyUkWmfTg,300,379
2020-05-07 23:56:28,aGQh_JX_wYvmLI3glwkQnw,301,380
2020-05-08 06:03:11,zE_WRmzeZDPQFRPAvjiPwg,302,381
2020-05-08 15:36:24,9Uq89pUlGWMzmK-K5WQifQ,303,382
2020-05-08 17:53:22,xmzo0grw8zAAMem42pDKHA,304,383
2020-05-08 17:59:06,sCt0wGL2WPFzI5Y5mJsLug,305,384
2020-05-08 19:07:16,CXtroAFcoT7y8XdYqTykJQ,306,385
2020-05-08 19:09:51,ih6aiXmCfHTMgembJnE3wQ,307,386
2020-05-10 00:37:51,QmcRqgLVZQek9LamyJLppw,308,387
2020-05-10 15:29:07,OK5BawKuE1RvTJqVvROjdg,309,388
2020-05-10 19:21:36,uXKN7QpRHqRqkXn15vRhvg,310,389
2020-05-10 22:39:21,uZoFyoY-0AlnL3EYy9iABA,311,390
2020-05-11 05:28:37,Z24rOzJf6b3rQkg90avEQw,312,391
2020-05-11 11:46:31,NoGIzBGasuvPmvqIxu2Exg,313,392
2020-05-11 11:47:31,rn96pz2vB_ECeBY2ehtONQ,314,393
2020-05-12 01:14:24,k4jiK-sMBl1a1kcX9ylapw,315,394
2020-05-12 10:34:11,QGAF56ibvZbggY_yc1SJVA,316,395
2020-05-12 14:18:24,pba3ePVvwMRfTSrtdf_KkQ,317,396
2020-05-12 18:23:52,bhQDfSEtyBaB17B8egxRAA,318,397
2020-05-13 18:19:03,jxgx5y_TYMKl6jztzKmGoQ,319,398
2020-05-13 23:07:54,rIGfxgLT4ETprZPzhLJdKw,320,399
2020-05-14 03:16:03,PMx8ZCf759j2WR9bRIkkBA,321,400
2020-05-15 17:33:05,P-elPM_Krgm0_n2UnxkTzQ,322,401
2020-05-15 20:37:47,A6v-0ACfK2Znwh_dsopJmg,323,402
2020-05-16 15:20:54,qNtrze3HfuMKyJszD0Uj6w,324,403
2020-05-17 13:42:14,Wr0TYzTEHNpsTUnRM4IDdQ,325,404
2020-05-17 13:44:53,Wr0TYzTEHNpsTUnRM4IDdQ,325,405
2020-05-17 14:24:26,h83KpUzXgMAmEiheTjJEVA,326,406
2020-05-17 17:52:16,dI3ofW4PxWDkooCbHr8IBQ,327,407
2020-05-17 20:27:06,bD8EQ11FEHObJemWcgxnpA,328,408
2020-05-17 23:24:34,0UDmgq_nLONpE-AuHMk5OQ,329,409
2020-05-18 06:15:56,zYGiJe-2iIGux-OwJicUcg,330,410
2020-05-18 06:20:35,zYGiJe-2iIGux-OwJicUcg,330,411
2020-05-18 12:43:41,cXWy3vT_sFC3qqK9LfxHxQ,331,412
2020-05-18 19:50:32,-v3JONOngmYIdhIFFsCkAg,332,413
2020-05-18 20:51:50,-s2UXlseJigKRavJgIjWlg,333,414
2020-05-19 00:33:36,Uql0XZ1v2TPwF-m54NG3ig,334,415
2020-05-19 13:17:32,xgz_Kp7Z2hnWiSzu4WVL4g,335,416
2020-05-19 15:46:26,b-YX0MaEjHgC-UEGT6zIiQ,336,417
2020-05-19 15:55:03,fNxf_znWalo9SFJPaqjBWg,337,418
2020-05-19 17:13:03,j0lYy3ycUeMvVgHu6BuDYw,338,419
2020-05-19 18:56:48,l4QVnOrI1kggaaV0b06dow,339,420
2020-05-19 21:47:14,3rITUbVedki1jLeZetmzuQ,340,421
2020-05-20 00:31:05,V9KNHPOB7WJliRBo6m0gUA,340,422
2020-05-20 02:38:15,JEkAkFgRnVn6Lw954sQwOw,341,423
2020-05-20 05:34:05,bINCuU940R6tdgZL5rMjcA,342,424
2020-05-20 06:25:21,Lh6v0E5NS8hbnxvdCeUUJA,343,425
2020-05-20 08:48:55,S6D4HVPxjIAYXYLfgScpPw,344,426
2020-05-20 12:09:45,iqA-P12ZlEgTXzPXkkfhGQ,345,427
2020-05-20 13:26:59,CsgJfQocwUhb9uvJdb_J2Q,346,428
2020-05-20 20:40:53,xT5gTNahcwpDoMUTTbgQlQ,347,429
2020-05-21 12:24:41,s570BOpST9mLW6W_HS-cHQ,348,430
2020-05-22 03:57:33,PtrkRxlSaJ5BFAnfWV8ffQ,349,431
2020-05-22 09:07:02,EoAndkubFdW5T5OgDMfA8A,350,432
2020-05-22 09:07:24,EoAndkubFdW5T5OgDMfA8A,350,433
2020-05-22 09:08:01,EoAndkubFdW5T5OgDMfA8A,350,434
2020-05-22 09:52:06,ABBVfeXXycgl60ux_v1aEA,351,435
2020-05-22 15:42:08,E8-GjZ37ECwSHEeiSX-J-w,352,436
2020-05-22 16:30:54,C7Y9OoAGVZu4UTK7Snq77w,353,437
2020-05-22 19:01:34,0QogpcFAPUHcQdCunSla-Q,354,438
2020-05-23 03:33:34,qcqs1O52pyNi3pL2DiXFpA,355,439
2020-05-23 19:51:03,GMy7hQxY3ScryMZlYz1_Iw,356,440
2020-05-23 23:41:27,Be9JM-CEVgf2cagtNKbvVA,357,441
2020-05-24 01:44:37,Smeoq4p1zr_sY6p6aOmYoQ,358,442
2020-05-24 12:45:14,ePxzrz7v25x-sycue1j2Sg,359,443
2020-05-24 15:13:07,7zW8jBfiObPdX-NO1afZCw,360,444
2020-05-24 17:30:11,823J5JZdslxPbPAMyrWN8g,361,445
2020-05-25 06:42:10,-CIBxvTV4jY6X5bIy9iUPw,362,446
2020-05-25 07:03:30,-CIBxvTV4jY6X5bIy9iUPw,362,447
2020-05-25 08:48:15,rKRpIOtkfRpz3rU2fj1mVw,363,448
2020-05-25 10:02:48,L8I7T8uwlsUj0CBunQg0xw,364,449
2020-05-26 02:39:15,pz9LBa3RJFa4tsWMged-hw,365,450
2020-05-26 07:02:33,6ePz4HvJKggDqlFsK-hrxg,366,451
2020-05-26 17:21:13,a6gycWVRlRBBYC6le1uCMw,367,452
2020-05-26 18:34:49,422_S3b-J81eyHUF3PJeVA,368,453
2020-05-27 17:50:43,WbrW7ewN0hufrD1KkUxqww,369,454
2020-05-27 17:52:24,uOh0kp6UbzDWkhHJNiC2cA,370,455
2020-05-27 19:42:07,RXZtlJznWuNhOasdeVUwog,371,456
2020-05-28 03:34:09,TQqB5dSVN2BjeHLbBlPNyw,372,457
2020-05-28 12:36:30,PAm-TAVPZZkcxD8vLCCGEA,373,458
2020-05-28 15:24:00,5BKD3Cb7TPuSKEj_n2zPJw,374,459
2020-05-29 01:19:22,IYI038PI0z5XqDcocekO2w,375,460
2020-05-29 13:22:54,8dTcP7ckPa_uQtda9mX5LQ,376,461
2020-05-29 17:05:53,UOgE8LM2Jem-7N7Ssfoc4A,377,462
2020-05-29 17:12:41,UOgE8LM2Jem-7N7Ssfoc4A,377,463
2020-05-29 20:53:51,Js0M4DKYUL1V65dWObM5vQ,378,464
2020-05-30 08:16:08,NQvS9QkP88BgQf9wFcmM3A,379,465
2020-05-30 12:46:15,M7iWWDMTII9zYVZxJ69yag,380,466
2020-05-30 16:59:09,GS-J7EgKHB7QMp3nPQuTmw,381,467
2020-05-30 19:14:31,ZLdyBlvTl-xCeI78Y4vLnQ,382,468
2020-05-31 18:24:46,zYGiJe-2iIGux-OwJicUcg,382,469
2020-06-01 16:27:32,26VUAgSI6KoRRpL_0hSLUA,383,470
2020-06-02 20:44:37,3HPdcqan3dwcQBC6gtpxMg,384,471
2020-06-03 07:09:09,PVkpHUqdeM6p9uXZtoQLIw,385,472
2020-06-03 14:11:39,wgV7_wDZUkiwqtY9Ms8zOg,386,473
2020-06-03 15:18:38,jv8if8YJiJ5nLvIPKDKBMA,387,474
2020-06-03 15:31:10,4gzmnmsdhx4LC0SKqW4ScA,388,475
2020-06-04 05:21:01,wF-4BXSjUHek-rMXOYwXiA,389,476
2020-06-05 10:08:18,Q9pnm_GAWKcFMC6GxIx69w,390,477
2020-06-05 14:26:16,T0mDpu66NYj3kUCHeg6N9A,391,478
2020-06-05 16:04:01,m2ttQJVWbq3iNUnT1JSqKw,392,479
2020-06-05 16:29:36,VqKRX86jZ55m2MC69VAldg,393,480
2020-06-06 02:04:45,sP_fjfG2zFwZqIzUR7_zfg,394,481
2020-06-06 13:18:36,WCrhw32Ons8SIJVe-7R_YQ,395,482
2020-06-07 02:01:06,sx8HsP3jC-v1IakWw0YWOw,396,483
2020-06-07 12:09:39,QIboIOIhp2m0qIc61ODDGA,397,484
2020-06-07 17:19:19,Lk8_K3jcpNAQfZyKpsWoQQ,398,485
2020-06-09 08:09:35,hjVSA5EZ3hAXJBfaiZaBZw,399,486
2020-06-09 18:58:50,AePFZlzyFMJp2lErGQmXFg,400,487
2020-06-09 20:23:32,z-L0jtJzgrpI98KPPaNc0g,401,488
2020-06-09 21:57:34,fW9tGvDHk_8N5u756k8SQw,402,489
2020-06-11 01:46:49,C59ItdQU7jf-9O1XIAP2-A,403,490
2020-06-11 15:47:43,Vpmu5g1iLLqqyxlr4PsqNg,404,491
2020-06-12 00:37:17,qTlYNO5BmCL73nLikMC1Ow,405,492
2020-06-12 05:21:01,goKQMu5fj6pKS4fKMWa2YA,406,493
2020-06-12 17:17:47,IhBupRsGzwhGku6s3sDS2g,407,494
2020-06-12 17:40:32,pprqIzCX9lgFvJpBwBn3Mg,408,495
2020-06-13 11:46:27,yLLN_nit-j7sjw9oqnuVIw,409,496
2020-06-14 07:02:29,IpoAki1lwls6oqjCYqwJ-w,410,497
2020-06-15 23:41:30,Jb4TkA25bVmpaZGjW10cbg,411,498
2020-06-16 17:50:58,arD2gspdKR38tI84R92O9Q,412,499
2020-06-16 20:13:20,y5NckRJXjPrObP4OuZrjBA,413,500
2020-06-17 08:56:38,Mag9owwxVh7cqtR-3YJDfg,414,501
2020-06-17 20:36:48,bLguJ0jrWKmCSeuFvClrrQ,415,502
2020-06-18 15:09:41,EJlUzPcwXLuHZ-EjSZAJsw,416,503
2020-06-18 15:50:53,tsdLmr3tIHegYDKsNY6SaQ,417,504
2020-06-20 06:46:20,oTY7RGzlOZkCXIstHk5Alg,418,505
2020-06-20 22:30:17,WZmk797635gM00opaDjvtQ,419,506
2020-06-21 01:47:22,0xY7Jyb6eptb0-Jod4wDmQ,420,507
2020-06-21 06:46:58,t_ED-sZTTTkjmNMPwvLd-Q,421,508
2020-06-21 09:20:23,ksKE4DBdACDO2FGpdmTXkw,422,509
2020-06-21 10:44:42,3sgZm3lfnP6Xan8YVP1zrg,423,510
2020-06-21 10:50:35,KM36lK2Y1rIrWMTIDAekqg,424,511
2020-06-21 17:25:38,Zrj0XKTJnqYpmeUxd6bYhA,425,512
2020-06-21 18:07:36,Zcb0IqH7H_MYrw8QEJBnGQ,426,513
2020-06-21 23:01:19,a09seTInF6nxEJRqMbGUWw,427,514
2020-06-23 19:30:34,1QzGPr6ZoBev306clTVSDQ,428,515
2020-06-23 22:12:31,MsOXssYsEnClzLafYyy4AA,429,516
2020-06-23 22:20:47,RpTZ7N1VHurl-Zn3MOKljA,430,517
2020-06-24 09:20:42,7o5FhxpS44lqCafPj2NJ-Q,431,518
2020-06-25 19:39:32,qj_4avQ7JAkW09-vo7oqZg,432,519
2020-06-26 06:36:12,R9CHm_NGQUFc4-sq7QQqIw,433,520
2020-06-26 08:13:38,V9kMs2VyvBPCHqW7H90qOA,434,521
2020-06-26 08:44:55,LZ-1trBB6yIV7entFqlk7A,435,522
2020-06-26 11:09:45,L5MsYtxrPmjaSru6gBxdTw,436,523
2020-06-27 06:45:49,FyOldEv8zhpPl3K77GJJTA,437,524
2020-06-27 22:33:43,sxwyFJqfYQRX_SEd0pwwTA,438,525
2020-06-27 22:51:29,Z93J0J1l1iC0VNVdz43K1g,439,526
2020-06-28 01:11:51,YyOvb1dbD62K5U-LbI4V8w,440,527
2020-06-28 02:54:00,7ftF3cWma_d5Xc_DLdWTuw,441,528
2020-06-28 04:00:01,sxwyFJqfYQRX_SEd0pwwTA,441,529
2020-06-28 05:15:45,sxwyFJqfYQRX_SEd0pwwTA,441,530
2020-06-28 08:20:05,zARDbZha7zDYg2vemv1ZKQ,442,531
2020-06-28 11:47:56,BYUD3ljHRJ23_KrBJxCc9w,443,532
2020-06-29 06:49:17,-gys4ONXqhXE7AVGIT_bjA,444,533
2020-06-29 21:49:17,ji7Cwj9T9oRI8mvKhtkJsw,445,534
2020-06-30 13:08:27,RtYgzavdrdDtwThN_boTsQ,446,535
2020-06-30 13:08:41,Mmc6sdJ8bHXYbc-baux8fw,447,536
2020-06-30 22:16:08,HdvcX_fioPIHBQZ0d-FTtg,448,537
2020-06-30 23:01:08,yzG0rC7af6K815pPVWnUNg,449,538
2020-07-01 07:51:06,4tsM6e1FkqGBi78ikNZjyg,450,539
2020-07-01 11:00:00,a9QqtbKoe78L-XtgJ9JrlQ,451,540
2020-07-01 13:44:49,NkoEJMgilw9W4IZ4JIKKHw,452,541
2020-07-01 14:03:11,CfNSHUNlKGXt83mwyZjXwQ,453,542
2020-07-01 15:30:31,TUBEQ2H1sWn_YVsDVW7x9g,454,543
2020-07-01 16:04:01,a142k8Bif5cL404TUIjPng,455,544
2020-07-01 21:44:56,WS6hJ4kYj6h4FAACnGlBmA,456,545
2020-07-02 10:04:29,5KgKooNlbbO167Z4DZ-9QQ,457,546
2020-07-02 21:40:54,qOYWCRj1USgnhBBWBJMeOQ,458,547
2020-07-03 06:15:46,dPV4Epiy_R87FyS6F1akRA,458,548
2020-07-03 09:15:18,gupy4oMFVAoqEoxE_tdKSQ,459,549
2020-07-03 15:10:41,joNZDnl2t7RI4GK6be5UnQ,460,550
2020-07-03 15:19:48,Dm0BBu_Yjg6YHN_UCAfzJQ,461,551
2020-07-03 17:15:44,Xy8p-e_YgFuYLJ_zBfR2tA,462,552
2020-07-03 21:03:19,5KgKooNlbbO167Z4DZ-9QQ,462,553
2020-07-04 15:19:36,M3Cn6WD1eJuZA3GtTDhhnA,463,554
2020-07-04 21:41:26,-JznHW9dmuXQdRWzgCPGIA,464,555
2020-07-04 22:07:05,dOJY0JdLWiuZ1dRFeEo9HQ,465,556
2020-07-05 01:01:42,aesjCHzlU8eO07ArtBcIYg,466,557
2020-07-05 03:25:59,dMJQc1CbUW3M17EoPSBJpQ,467,558
2020-07-05 08:18:00,-rk8O-RmAotci9tC6MZ9Sw,468,559
2020-07-05 18:19:06,iy8R-t3JSQXKotfwl-oKmw,469,560
2020-07-05 21:10:33,_sZaYWpbziC5NFyIxJ4exA,470,561
2020-07-06 08:12:04,WH0TSSylLpGZuE_GUV_xSA,471,562
2020-07-06 09:28:53,LBN88OHhwVfj_s41Q4YX8A,472,563
2020-07-06 18:23:45,rj8EgugGpZi6uPWDIBrh4w,473,564
2020-07-06 23:44:03,ti2xi5GevHD3Up9Jxo-yPg,474,565
2020-07-07 10:39:51,axY-3RYW9dkTj1g8dWf2aA,475,566
2020-07-07 10:57:51,aAUPLkchM4CaQ_7pZ4na-A,476,567
2020-07-08 02:58:41,d7tzbuGYiuYez0WFvC_Y2A,477,568
2020-07-09 09:10:36,CPI9XfNV1aRCaJfHzk-R0g,478,569
2020-07-09 12:43:56,3vgnXUHniRI93xW73-pLdw,479,570
2020-07-09 16:11:44,eTADsXhu5ZpHfVR9pTCIEA,480,571
2020-07-09 20:17:51,xMFV5Kv5maw7CgKYUKkqNA,481,572
2020-07-09 21:12:01,BJcmuvUscl-48e5wxkC9-w,482,573
2020-07-09 22:06:40,kkHvs8AG6RjYjplRgF47TA,483,574
2020-07-09 22:28:50,GoY9wUHob1m2svvg6Ov0vg,484,575
2020-07-09 22:50:42,FeWpYCQUfec2FcBajZyHjw,485,576
2020-07-09 22:50:44,6eHy3y_RabJftTWVhZDj6g,486,577
2020-07-10 00:12:15,ih0AQTuHrkqCVyI5dpuybA,487,578
2020-07-10 11:09:04,7n4VYqrP1C7hPkLGkb-ajw,488,579
2020-07-10 12:20:09,6TyhnlcJHqjJcWQb8ly1ig,489,580
2020-07-11 00:24:01,XFR2E9ZLpENgTCI-7ZIpxA,490,581
2020-07-11 07:17:05,0pDFhRe_Tm3e93Outo3s0g,491,582
2020-07-11 11:44:56,oq57GMZNwphVvPrcRTzOXg,492,583
2020-07-11 11:53:51,ydOuFueVmUoClMd0QBGjNA,493,584
2020-07-11 14:04:40,5coyVMb_uofpgx-evFCa_Q,494,585
2020-07-11 14:36:12,RtGHeuOCZ0FFh6v_jPhO8w,495,586
2020-07-11 17:32:05,-knFTI0GzMqpwN8XJ0JWxg,496,587
2020-07-11 17:37:39,RqRUxcIOHmUHFwH4iG-FSQ,497,588
2020-07-11 18:12:26,o-7p14yj4peErVAoWLfNrA,498,589
2020-07-11 20:33:26,eQfCz1puBl4JaqS8GmsvYA,499,590
2020-07-12 02:03:23,uIQ674XIGxBO-DKfd_dOww,500,591
2020-07-12 13:29:28,BiD3OeTvtnZU4GH7UnNUcg,501,592
2020-07-12 14:44:38,4LpCjjZOrqv_tWivHYxh2Q,502,593
2020-07-12 22:34:07,K6QZZgWG4WGmy3onQhNHzQ,503,594
2020-07-13 17:09:31,ptcKXf8QE4yhcN8wEsNolg,504,595
2020-07-14 15:12:38,FRz5LiOd7Hp-21Fs1w3h3w,505,596
2020-07-15 01:19:40,meuMBFNUKrKqJvI6CIHxTw,506,597
2020-07-15 02:25:06,1LzUiXsaWg3WAbl_7RqAjw,507,598
2020-07-15 21:07:11,siyeq29UwcZ73mZGcv_O9w,508,599
2020-07-16 06:14:35,-yIONSrNTCV-mJOU-AWNiQ,509,600
2020-07-16 20:06:19,0WOCOZjno49-9OTPuDEpcA,510,601
2020-07-17 13:18:52,QqjOQ4AC2_iTD2Gx8aBunQ,511,602
2020-07-17 23:15:37,uWF-FDmsW1dzZCS9FQlm_w,512,603
2020-07-18 06:12:40,ZuHJGD7MfISUofQxL1ioMQ,513,604
2020-07-19 15:40:09,HiYnJ1AuxOC2fATzcvTRhw,514,605
2020-07-20 04:30:03,YrpbtO3rfaB_1PFb62x0EA,515,606
2020-07-20 19:04:37,lKy0ofl9Wx0dSlIYrM77oA,516,607
2020-07-21 23:14:24,PmIy8G5z2J67lpocjjhuAw,517,608
2020-07-22 00:28:24,zcOCOnij9oDP2KYRxRmvyQ,518,609
2020-07-22 06:05:13,k4rseP-iJA77ZzIhzt0SUg,519,610
2020-07-22 18:29:24,5ll6LPX2ZqGXs7kauWSwyw,520,611
2020-07-23 01:57:12,afUJEPztbRoiZfdomBEJjA,521,612
2020-07-23 05:18:02,faKx7LuYQfYQn3cWu8LsWw,522,613
2020-07-23 16:00:08,qZS1wLv4n3kxE5t42a0_Cw,523,614
2020-07-23 21:38:26,HvhMdWDGuNDiilOD5010Ag,524,615
2020-07-23 22:24:14,3-_VZL_fkt-FKs3ORDA4Xg,525,616
2020-07-24 02:30:43,8EaYZmmYDVjSTtM-tNna9A,526,617
2020-07-24 08:46:51,RtGHeuOCZ0FFh6v_jPhO8w,526,618
2020-07-24 10:37:49,1tSvIAOJF7pgsetd4HDc9A,527,619
2020-07-24 11:40:24,gKBPl2N4bTirbRlkF73l1Q,528,620
2020-07-24 12:44:23,5EAo0aU1xTCA4qVpThZ_YQ,529,621
2020-07-24 19:39:56,tcJC35k2DMjHGKRy3HHvTw,530,622
2020-07-25 10:33:04,jd5KtivVAkCclBRJQCWfcw,531,623
2020-07-26 15:55:50,bApUqP6Fb2mA5iSiXk0dyQ,532,624
2020-07-27 19:42:49,BkW9Ap1TsyJKOS1c54EhCw,533,625
2020-07-27 20:09:05,i5O-07Rzim3sQiUIoLgE4Q,534,626
2020-07-27 20:22:35,Aqwa3LNQkwKadn0gywptKA,535,627
2020-07-27 22:55:43,s4JRJVYCyGIVDefPKRk2cA,536,628
2020-07-28 01:20:23,s4JRJVYCyGIVDefPKRk2cA,536,629
2020-07-28 03:46:07,ksKE4DBdACDO2FGpdmTXkw,536,630
2020-07-28 10:37:29,oQDqsNJRYB_KYE_GyVX69w,537,631
2020-07-28 16:17:13,EkO11-yzYY_zxVBW9b6hBA,538,632
2020-07-28 17:08:51,N2QkD-5gmAbRbXb-rGA5tg,539,633
2020-07-29 11:47:08,VO3XoMWVjlBVZF65epgwdg,540,634
2020-07-30 01:08:09,JwA8xFsjyCnyfhJhzCilig,541,635
2020-07-30 07:15:28,368L_VOhsDppAY2Sx03KSw,542,636
2020-07-30 11:37:41,6cgWCwShqvGz9y8CWRSltg,543,637
2020-07-31 07:17:14,zqfYuTf-IozQRK5E4D5nmA,544,638
2020-07-31 09:02:51,goi0SZumbBndembGwVgWWQ,545,639
2020-08-01 01:50:16,f4yuGeP8hz7sLYa4jSIDwg,546,640
2020-08-01 02:49:12,FQbq8iLHMOoefjdjH_4wFA,547,641
2020-08-01 04:08:38,cGNn2RqlMXtCs42ofczSEw,548,642
2020-08-01 17:13:45,X6VazjTEtvDcALzm7mYxlw,549,643
2020-08-01 20:11:16,l3o_rWWmJR7X6zotmCBWaA,550,644
2020-08-01 22:12:05,DmPE70RZHfVx6t2GfiNF3Q,551,645
2020-08-01 22:16:40,rtnYfWbbXgL3Jjsuh0romw,552,646
2020-08-02 00:03:24,Lh6v0E5NS8hbnxvdCeUUJA,552,647
2020-08-02 04:03:23,hBKMDs_gc5P5jhHDfFqMRQ,553,648
2020-08-02 13:10:35,TYEAZFnF46ni8aFxbnfLpA,554,649
2020-08-02 13:37:05,vEkv8gD1UEsLRpgzOG5QPg,555,650
2020-08-02 13:39:48,MHwNyUCuXeCh3KcRIGOgng,556,651
2020-08-02 13:55:02,pB8_RO5luk7F2gGlwsPzKQ,557,652
2020-08-02 14:02:15,nN_4qQ1UPv0xx1cPP6XTzw,558,653
2020-08-02 16:49:02,ljF2PQHDC0WIpLcoV32JOQ,559,654
2020-08-02 17:26:02,eMKGj3oUh167UQ2MJNwtLw,560,655
2020-08-02 17:31:02,m0wkUuZDs3H-wLjIAqHLeA,561,656
2020-08-02 20:16:33,absulFvFuKjbJFToV8DiXA,562,657
2020-08-02 21:34:04,R80JBAR_1j3FJQBy_Lhf_w,563,658
2020-08-02 21:41:12,gD5GQ9iYeA0DqNxKZxuVCg,564,659
2020-08-02 23:35:27,Or-6mWjLGNLrWDqiDPxKLw,565,660
2020-08-03 18:19:51,4_zpn4PH2NWpDi0GFVOQkA,566,661
2020-08-04 00:49:11,T69a3H9oROIaCCeBtSTSqg,567,662
2020-08-04 03:58:42,wsRxNOh92u66KwrkjAvGdw,568,663
2020-08-04 11:38:54,t4AKpzr3fuuPbGMFPEnwwQ,569,664
2020-08-04 11:43:52,YLuPG9RXNpfKLgId4OUiyQ,570,665
2020-08-04 12:04:52,tR409SAWNTACOPzTpNFjtg,571,666
2020-08-04 12:55:48,oHKwEsh331Aumd6ogz8LQw,572,667
2020-08-04 13:56:29,qNG61eBc4R9RHijC5Suo0w,573,668
2020-08-04 13:58:20,oHKwEsh331Aumd6ogz8LQw,573,669
2020-08-04 14:12:09,oWgKDDTANOLJTCzX_9VoAw,574,670
2020-08-04 14:42:53,YLuPG9RXNpfKLgId4OUiyQ,574,671
2020-08-04 18:29:47,0SESRFCHjP5fdL_bz92IWw,575,672
2020-08-04 19:05:01,CYRK-6pU8INRjhbGw5Q_PA,576,673
2020-08-07 16:49:23,RczcKE1Gg_ScME64XQVTyg,577,674
2020-08-08 20:57:58,EOhG-VGuDxqq5O_NRvtiKA,578,675
2020-08-09 16:48:11,ciwRu6WNsAQNiDW0o2nbaQ,579,676
2020-08-09 23:24:36,k3Bg2WGrU-PorR9AtkiCiA,580,677
2020-08-09 23:45:09,X5UM04dpsLbdqXWEgvB86g,581,678
2020-08-10 04:18:37,bEoguKVajlsLq_3TBZOnjw,582,679
2020-08-10 04:31:54,yD82GwWUnLSvg-vZ2YUESg,583,680
2020-08-10 13:22:59,HzzKwih7UwmMi9w153W4Sg,584,681
2020-08-10 15:42:15,uNwcVUUXGIVXN290bO7wUg,585,682
2020-08-10 18:05:48,kyLvAvZRS0HeWUXtfQOU0g,586,683
2020-08-11 01:04:46,7f0D_XYAuiLna-OjXnk15Q,586,684
2020-08-11 06:33:33,gjdNqvfVQWHyFoy2HBU_SA,587,685
2020-08-11 11:27:30,PrcgPdGjX_jVckI1xh5HVg,588,686
2020-08-11 15:51:52,A5ygkHQhQfdPBrzfPGX5qw,589,687
2020-08-12 07:45:59,vi45cfUPeaqElxJI7H3cIw,590,688
2020-08-12 12:22:15,_jGCC07KDroqCUZQDPo8_A,591,689
2020-08-12 12:32:19,IWcu11_Pi1cj_m4DfFG_TA,592,690
2020-08-12 13:13:06,_jGCC07KDroqCUZQDPo8_A,592,691
2020-08-12 15:25:38,F3ifbbN6J2hqRt04VqnERA,593,692
2020-08-12 15:37:14,CzqPeBGpEG6hpl_8eSVi0g,594,693
2020-08-12 16:40:35,7zHRuxSPPrYpKiWaip8W6Q,595,694
2020-08-12 16:51:09,2O3TD03WFqM8IYwBFJSKyg,596,695
2020-08-12 17:29:34,nMkrpxsLFu23CH4LgChW5g,597,696
2020-08-12 18:02:51,PcDqDLG7DosSTTpj3LF0_w,598,697
2020-08-12 18:43:54,b8piA4s3kOzYa3-Z08o9Ng,599,698
2020-08-12 20:28:03,Tl_aIZT9KNRKZVPdoc3iYw,600,699
2020-08-12 20:46:47,K9fpKy4NiEtBCA6ACFIJvw,601,700
2020-08-12 21:36:42,sn7GLq0fQwR29PBlcliS7Q,602,701
2020-08-13 18:27:23,Qn6ZxKlZoG7CNduhPtuxKw,603,702
2020-08-13 18:49:45,4TD53vXMiKEOiyzX54SpEw,604,703
2020-08-13 19:15:59,4TD53vXMiKEOiyzX54SpEw,604,704
2020-08-13 19:24:22,b5dlWOD6SZnOE9A4tWZaCQ,605,705
2020-08-13 22:24:29,ea7Ham7yiWNVynr0IoFXGA,606,706
2020-08-13 23:50:09,Pv2lskwRO_9FlL8a23W3_A,607,707
2020-08-14 00:42:22,5KW0jwk9tQ7lz78aEb5NPA,608,708
2020-08-14 00:47:14,5KW0jwk9tQ7lz78aEb5NPA,608,709
2020-08-14 04:33:04,VdOOXDlxVzOT24YiVkz4pw,609,710
2020-08-14 06:21:07,NYaI7Z9REvf4vvAq5PMoCg,610,711
2020-08-14 08:53:17,nt7WGpwnEqEURK6Nl061zQ,611,712
2020-08-14 14:38:11,xnxAzml7mwotX9f41VQwtw,612,713
2020-08-14 16:45:51,TPWWhNINnzbzC7ibtuYT1g,613,714
2020-08-14 17:01:29,6Pqw3Z1gnRbJ7K_sooKHMQ,614,715
2020-08-15 02:52:22,iG3hCli-pDdxHhhLgK5BDQ,615,716
2020-08-16 03:59:26,1IJg1DF4MNyjuz_FK2la8Q,616,717
2020-08-16 12:05:02,5KgKooNlbbO167Z4DZ-9QQ,616,718
2020-08-16 14:29:42,X6QyTiNvY4VsHwtep49B5A,617,719
2020-08-16 20:31:07,d56BaWoq6AuqZcsf9ziHOA,618,720
2020-08-17 04:38:20,UsXTW7uclEFb1grAP0p9Mg,619,721
2020-08-17 08:30:49,EVzhrnB2biCgbpWsDm92Ew,620,722
2020-08-17 14:11:09,EwOBsVPV4AJKztSi7D_xlQ,621,723
2020-08-18 02:33:07,xSnR9vTaTOsZEX6VtRIvpQ,622,724
2020-08-18 04:10:42,o5E9finvTjHwGQLyj9bsMw,623,725
2020-08-18 08:22:53,ooNJOqNhnHLuv-hy6kvlHg,624,726
2020-08-18 20:41:24,c6Q1Cm6l1Xe0cpRn75gZig,625,727
2020-08-18 21:29:48,BsBmAqIM41AkdrYkNmltGA,626,728
2020-08-18 21:56:39,sk73pM_nYfdgcbUK1zJDTg,627,729
2020-08-19 00:35:00,HqxruTWaaOcvDyz0W4hIVA,628,730
2020-08-19 00:41:45,HqxruTWaaOcvDyz0W4hIVA,628,731
2020-08-19 13:05:41,mmBjhrEEWJoflfwCqHPB9Q,629,732
2020-08-20 23:19:26,Ls7gGSkG88ENUN3VLapimg,630,733
2020-08-21 12:03:01,H5y2ZpZhP8kIFfa6oA1Cjg,631,734
2020-08-22 03:44:46,cHgVhlIlk5vHlvLf-kE8sw,632,735
2020-08-23 01:30:12,wRmxlI44tARXoPPz6-fMvQ,633,736
2020-08-23 05:17:33,ulKYqQltVy6hsDzzZArdYw,634,737
2020-08-23 08:37:34,jhtfutfKKnsMydN-l7VJDw,635,738
2020-08-23 12:07:35,TM5vxTY3JrUqXeuYgi-jhQ,636,739
2020-08-23 16:11:29,7f0D_XYAuiLna-OjXnk15Q,636,740
2020-08-24 00:48:13,0AIvOMO-zpRZLeCOvWzgig,637,741
2020-08-24 02:25:48,NlXL9C54PXmyUSqFbdLfnA,638,742
2020-08-24 07:00:43,--80MfkH6CXoo0VJ2BALkQ,639,743
2020-08-24 19:56:33,oSFgPCSeGf7AQEpi5-7u9A,640,744
2020-08-24 23:59:39,UlHHHd8s3CNWw6oxgvQT-g,641,745
2020-08-25 01:35:26,qk7EL1LqTLaortRQRyMVqw,642,746
2020-08-25 08:38:24,Ljo0si_wHQxh1c1_d32rHQ,643,747
2020-08-26 03:08:40,7f0D_XYAuiLna-OjXnk15Q,643,748
2020-08-26 05:07:23,wC-FztCfCVKvz2PmIfXYOw,644,749
2020-08-26 09:58:56,fMknR5pcz9GwjQqDRWjA1w,645,750
2020-08-26 11:29:46,VOxDTG_TwbNBmpBDbT462Q,646,751
2020-08-26 13:21:00,FI-2FuhkR-Yt1DIpveSSmg,647,752
2020-08-26 13:43:54,RnUGk4Okahh1lTbG7JM-rg,648,753
2020-08-26 14:49:48,Bz7ORmJMXT9cY80923c43Q,649,754
2020-08-26 23:29:43,Dq3JLa9nflabEgbpkPrinw,650,755
2020-08-27 00:53:46,Dq3JLa9nflabEgbpkPrinw,650,756
2020-08-27 16:30:50,i09E3qYi8hBQN1OVhgA5Qg,651,757
2020-08-27 18:17:06,Dq3JLa9nflabEgbpkPrinw,651,758
2020-08-28 18:53:03,R9QB9DEynm7qCJhgWBhkuw,652,759
2020-08-29 14:05:23,-YYBEi4Au0yc5QncknUhwA,653,760
2020-08-29 15:48:18,7f0D_XYAuiLna-OjXnk15Q,653,761
2020-08-30 20:02:09,5KgKooNlbbO167Z4DZ-9QQ,653,762
2020-08-30 20:02:12,5KgKooNlbbO167Z4DZ-9QQ,653,763
2020-08-30 20:02:15,5KgKooNlbbO167Z4DZ-9QQ,653,764
2020-08-30 20:02:18,5KgKooNlbbO167Z4DZ-9QQ,653,765
2020-08-30 21:54:40,VTeVaSnAGp6rk1Z977P2AQ,654,766
2020-08-30 22:03:40,m1O-gwWW7lzOHndq3bD0MA,655,767
2020-08-31 09:05:04,lbDChwtJBiQyy8RqAMKgyg,656,768
2020-08-31 16:31:01,X5CLRyF8vV-ZdgXDm-hGaA,657,769
2020-09-01 00:17:45,IDVPdAY6r2fHHbi7YmnGVg,658,770
2020-09-01 04:39:45,nvtwVjbx4ljp7WYobtgRig,659,771
2020-09-01 09:23:28,7f0D_XYAuiLna-OjXnk15Q,659,772
2020-09-01 10:41:12,7f0D_XYAuiLna-OjXnk15Q,659,773
2020-09-01 13:50:30,kBX4p5md0ABgLbI6N6KLlA,660,774
2020-09-01 14:24:31,Nn5_lyNhy_KYXrtSAdE5UA,661,775
2020-09-01 19:03:01,lbDChwtJBiQyy8RqAMKgyg,661,776
2020-09-01 20:48:43,nQoYBCe-zjqn4eeDQiwVTw,662,777
2020-09-02 13:00:12,f3qle4X7YnfGOECbzbLKlg,663,778
2020-09-02 14:45:31,7f0D_XYAuiLna-OjXnk15Q,663,779
2020-09-02 15:15:02,7f0D_XYAuiLna-OjXnk15Q,663,780
2020-09-03 09:17:29,1KFX6eg-xL8LYqSPqCc4pg,664,781
2020-09-03 12:34:31,8tt5Z1b4tgsmhZvexgGY5A,665,782
2020-09-03 14:03:50,gzApvbtNruXXdsfI5Dx_gQ,666,783
2020-09-03 18:16:08,XsiWJ2iJ5Kw2-OFHm9y9Ww,667,784
2020-09-04 05:44:19,IrcLKOwVQUQNo9pnDSBY3A,668,785
2020-09-04 14:42:22,uXmasSjYNlV72Pz9Gd27kw,669,786
2020-09-04 14:49:14,7f0D_XYAuiLna-OjXnk15Q,669,787
2020-09-04 15:45:01,7f0D_XYAuiLna-OjXnk15Q,669,788
2020-09-05 07:57:04,lSRDw0Rzr8St2xQ8kLANiA,670,789
2020-09-05 16:34:22,6weSV24W0C6V768mn6eJfQ,671,790
2020-09-06 12:03:41,ngLz79UX_LkkCFcc6bhWaw,672,791
2020-09-06 12:21:38,XK6c4trm_brZQoFe9mN3wQ,673,792
2020-09-06 16:08:46,XLawdEJmFptyfwwNSqoUJA,674,793
2020-09-06 16:53:48,OgotnxczjxAG2jhfcgtvwg,675,794
2020-09-06 17:46:13,nKJ5sIui_gm078On7hwWuA,676,795
2020-09-06 20:15:27,OgotnxczjxAG2jhfcgtvwg,676,796
2020-09-07 04:15:40,5fGZGF7KeDNg6M8vaDwWcg,677,797
2020-09-07 10:13:00,-X45Z2JxnD2t53v2C5IrIQ,678,798
2020-09-07 10:55:37,Xiln-23TbG0j6uIjB1nM0w,679,799
2020-09-07 18:33:14,zgS9mB94-WGW5QzQWifo8Q,680,800
2020-09-07 19:49:51,TihvkvUzsrpsNcPmW5TkGg,681,801
2020-09-08 12:02:19,lM2ulvimlKoIZLFt9hdvig,682,802
2020-09-08 13:01:57,wxJUVM_DZsLOcp1p9w1cqA,683,803
2020-09-08 16:40:06,OCoIvYcUYGCpBv0u7Pwifg,684,804
2020-09-08 16:51:51,3YVQBuHyGBa8MgZUGeibKw,685,805
2020-09-09 07:00:15,p6nXuqcg1jVO1b9fqR0ILw,686,806
2020-09-09 08:31:28,pSQO4qN3TWdnrKx0quFTvw,687,807
2020-09-09 11:56:32,7f0D_XYAuiLna-OjXnk15Q,687,808
2020-09-09 12:55:02,vV_HZSI4LFm1VMP2tdnTpg,688,809
2020-09-09 15:46:34,D2H7abKPZafOhb_fmed70Q,689,810
2020-09-09 22:59:57,QW0NBseX4l29mqiRmalJZg,690,811
2020-09-10 00:57:48,U16xirQEq3BumqtqItdcwA,691,812
2020-09-10 08:45:55,R0n9fG5BM_XFUxRFzOAfHA,692,813
2020-09-10 10:30:58,YL9bSnKr-3NvUmS1asyryA,693,814
2020-09-10 13:20:49,7f0D_XYAuiLna-OjXnk15Q,693,815
2020-09-10 16:30:01,7f0D_XYAuiLna-OjXnk15Q,693,816
2020-09-10 16:57:33,kMVWORmodQyRakO0WGYkrg,694,817
2020-09-10 20:25:38,9o6OGe0TQFRqFrgazbf21g,695,818
2020-09-10 21:55:42,jiIs-QScpIdKjDCXu19lgw,696,819
2020-09-11 07:02:46,KRu49-a05NUbJXDb1JQkaQ,697,820
2020-09-11 09:27:29,lPX3uy9D3q6S1hW2rOJqSA,698,821
2020-09-12 00:51:49,7f0D_XYAuiLna-OjXnk15Q,698,822
2020-09-12 01:30:01,7f0D_XYAuiLna-OjXnk15Q,698,823
2020-09-12 04:53:49,FnOaKvMX1CcUkyBqpfw2vQ,699,824
2020-09-12 14:17:10,yXeZyROyTo0rK64UFpy2Pg,700,825
2020-09-12 15:01:53,QOGg7tc70FvXuHAFzrzQQA,701,826
2020-09-12 16:25:55,fVUVWxAkpuAqFIO-VmZTUw,702,827
2020-09-13 09:04:45,-x1MkEPrg0ZqQLgmHLm6ww,703,828
2020-09-13 19:46:01,-i5M9bOZ1Gs_8wstZVw9JA,704,829
2020-09-13 22:24:23,uNpEVnY-6w0CZEnUKghNXQ,705,830
2020-09-14 05:27:44,rRVEgssOn-MBju4NfXUBuw,706,831
2020-09-14 13:40:50,Gl92uYKG_LG7_XM1CD5X8g,707,832
2020-09-15 20:34:29,1t4_yeq8d_iCuUmkM5Scfg,708,833
2020-09-16 01:09:20,iZ8eG7Am2Z9FnKhlSyKQdA,709,834
2020-09-16 02:05:58,h0DI5Lxp6_RjROUDVp7UTA,710,835
2020-09-16 20:51:03,DKYI_QbN6gQ_xYMIeYuPYA,711,836
2020-09-16 23:15:43,zTxu56vkn0JqKlbwmV0t-g,712,837
2020-09-17 07:56:50,7f0D_XYAuiLna-OjXnk15Q,712,838
2020-09-17 18:38:18,hcO4AeMXWB0S48Suk7b3cw,713,839
2020-09-18 03:29:18,OcYaABgfi6QGnaFFRacFSQ,714,840
2020-09-18 05:10:45,1Dy3o_6KeQ3CY4xpBafIzA,715,841
2020-09-18 14:41:37,1XVou5z_IoZdNdpo3rPALw,716,842
2020-09-18 21:10:21,9bZfW-nwGR7UfOeonxaM1g,717,843
2020-09-18 23:01:22,3ieXR-AtQJm96rFLN50h8A,718,844
2020-09-19 00:47:20,RZDEH_NgOeFL_R5Oq1esig,719,845
2020-09-19 20:48:17,VvdbB2xUzW_IF9z3MTR1hA,720,846
2020-09-19 20:53:39,r4Gm0w8FrNVtbNXW2uRuJw,721,847
2020-09-19 22:28:20,EEC-B9EUOUZ0YCQB5vVlMg,722,848
2020-09-19 22:46:58,omjv_Z6mWs81g6KUUZ93nA,723,849
2020-09-19 23:55:50,z-4s-lVWPoUjsbykRYVl0g,724,850
2020-09-20 00:51:54,jMFavOgU86rqyiPG4Crd5Q,725,851
2020-09-20 13:35:00,l4xmoIvXBfbf9GXwvONRvQ,726,852
2020-09-20 18:11:10,qDGqk2MYP5ffZUWrfKwJ4Q,727,853
2020-09-20 18:59:57,F0MHuUXoO6H6YCyTlIizfg,728,854
2020-09-20 20:21:17,QU1COa_H8hMHJj9URVHfWw,729,855
2020-09-20 23:12:10,1XVou5z_IoZdNdpo3rPALw,729,856
2020-09-21 01:52:43,Ai5mquYNTMV4wdxzT5M3pg,730,857
2020-09-21 03:08:34,32Yte46BYgo0TEfv7VqUWQ,731,858
2020-09-22 07:30:03,7f0D_XYAuiLna-OjXnk15Q,731,859
2020-09-22 10:05:27,ipaiRXqZUkotZ2NHggakUg,732,860
2020-09-22 10:09:05,suKRG88-6lijf32JyFyQ7g,733,861
2020-09-23 08:18:26,dPV4Epiy_R87FyS6F1akRA,733,862
2020-09-23 09:05:04,va20E-Z9aVfkSpn4nu2mhA,734,863
2020-09-23 09:31:04,1VACaFMuhf4Qe8XFRkK4wQ,735,864
2020-09-23 12:06:05,lVio31qw88aKKLvaI73DRg,736,865
2020-09-23 12:52:46,tbbYDTycsFOTxp4urafiug,737,866
2020-09-23 13:01:11,furcMWETM8A2r3kuKVXN9g,738,867
2020-09-23 14:13:44,mODchKy462g746CBNqsnBg,739,868
2020-09-24 10:39:32,stslC343EcRg54vdXRg6Ug,740,869
2020-09-24 16:23:02,qNxuxQrKdaHNHGHaMhIu5g,741,870
2020-09-24 17:45:15,iVD9AkgJYYlzgksU4UP3Cg,742,871
2020-09-24 18:28:56,YR1-NImBBuoOmETGnk4FIA,743,872
2020-09-24 18:48:02,7enNtEmz2LC8wjFzmWXnNQ,744,873
2020-09-24 21:29:50,UMsezlx-xB0hHV6EVyS0ag,745,874
2020-09-25 12:04:56,GAJ5-a-j4m5ws5ceyXQ7rw,746,875
2020-09-25 17:41:36,hTk3t7NueBZrvFl1s9yy1A,747,876
2020-09-25 19:46:18,-tBWw7fYr3NfA11CKHw2GA,748,877
2020-09-26 23:46:46,6wz3Zu1zzD2gQybaHRXTGw,749,878
2020-09-27 15:30:57,lz1TY7XoSCpQ_qBC_9-dKg,750,879
2020-09-27 19:16:15,0FbFGJinOLQruiM8gbSv2g,751,880
2020-09-28 13:44:40,gSJVsqHPK0Ypr5yRuATq0w,752,881
2020-09-28 20:48:04,U6ngME-B2BGgnj2nRGEJ_w,753,882
2020-09-28 23:09:56,fxpgm6eYf6ubRb5iA0W11Q,754,883
2020-09-29 17:14:51,H1ARB0cUTnnssINVZGr0sg,755,884
2020-09-29 18:36:37,G6P8RRKKeEAZkDg5tHunzQ,756,885
2020-09-30 16:07:57,OWB1VPMIz9xU_QzNIvIzdQ,757,886
2020-09-30 16:31:27,1DuWyTlXBWjy96s-JGvAUA,758,887
2020-09-30 17:27:05,f5f4ZOh8IsiOEReEGH2N6A,759,888
2020-09-30 17:33:56,XyuccMVvS6MXr4R_9Q4JtQ,760,889
2020-09-30 17:45:37,KrDepjZsgmNlUs1tYrEbfw,761,890
2020-09-30 18:52:27,HLYN1UiWEc0gbJMj7-FN3w,762,891
2020-09-30 22:15:35,OWB1VPMIz9xU_QzNIvIzdQ,762,892
