time,userID,adoption,cascadeSize
2020-02-01 06:43:43,hUnzkG6lwu5tfwTPVXnsRg,1,1
2020-02-01 11:51:27,x0dJbOQNxOQdcCgzTat3OQ,2,2
2020-02-02 11:22:20,qRgzQ5FLNBovENyepUfBLA,3,3
2020-02-03 04:36:22,ZTRwQjUgo0gRZU6oUZM49Q,4,4
2020-02-03 17:14:54,PxqXlorfS8btJGaAjYxilQ,5,5
2020-02-05 02:16:10,IOZOB-qoD6rQx8haYVeSZQ,6,6
2020-02-05 04:35:03,TYg4VNcuC2Boh4b4P86efQ,7,7
2020-02-05 15:09:24,qRgzQ5FLNBovENyepUfBLA,7,8
2020-02-05 15:18:31,TYg4VNcuC2Boh4b4P86efQ,7,9
2020-02-05 17:07:59,TYg4VNcuC2Boh4b4P86efQ,7,10
2020-02-05 20:57:32,TYg4VNcuC2Boh4b4P86efQ,7,11
2020-02-06 13:40:16,TYg4VNcuC2Boh4b4P86efQ,7,12
2020-02-07 02:12:26,2YSJg-VaZFdiJA8RjUYykg,8,13
2020-02-08 12:14:03,72PRX0y0FnA49DUuIlVoPg,9,14
2020-02-11 18:43:11,QKsEUlUL_OcABKQ4uFcgCg,10,15
2020-02-13 19:52:47,x0dJbOQNxOQdcCgzTat3OQ,10,16
2020-02-13 23:41:26,pukAxAASjt3w7ovKPdC2JQ,11,17
2020-02-14 08:54:33,ZLSoVC6BynkUWlv8V5-pGQ,12,18
2020-02-15 13:53:55,75xR1qsUq5oLTgJoZ1a1YA,13,19
2020-02-16 22:13:31,bQig_gVuqjsiG61vuDW4uw,14,20
2020-02-18 02:32:55,Q5X7BkzBqMf-_rL6-a6avg,15,21
2020-02-18 02:34:46,Q5X7BkzBqMf-_rL6-a6avg,15,22
2020-02-18 02:35:54,Q5X7BkzBqMf-_rL6-a6avg,15,23
2020-02-18 09:28:04,_XAnTW5QQPmU0zgLP0syuA,16,24
2020-02-18 09:56:11,KKf39B1N8DBqKIWmzHk82w,17,25
2020-02-18 16:02:24,G47kR5H0xfpuuHOQ_t4lDw,18,26
2020-02-20 09:01:33,-9iYiwaMAzh0vPasW3X0Cw,19,27
2020-02-20 18:24:21,SZ9USVcyQGNGvvoKbuAwrQ,20,28
2020-02-20 19:11:21,BgrZJImUfUENiXR0B5wUdw,21,29
2020-02-21 09:27:28,qRgzQ5FLNBovENyepUfBLA,21,30
2020-02-21 23:52:07,1F_bF8g5Sbi7opPrOg85sA,22,31
2020-02-22 06:59:44,HvhMdWDGuNDiilOD5010Ag,23,32
2020-02-22 13:37:03,iTal5OaOwlU482-1c2oJbA,24,33
2020-02-22 16:44:08,AHSFTvO8fBqH1peiTJLGqg,25,34
2020-02-23 08:35:55,x0dJbOQNxOQdcCgzTat3OQ,25,35
2020-02-23 16:38:55,TYg4VNcuC2Boh4b4P86efQ,25,36
2020-02-24 06:57:49,5TRATBlPtDLkz3i5t4FvJw,26,37
2020-02-25 11:06:42,H6YgDtLX32-px-m8Q2AjZg,27,38
2020-02-25 14:37:59,gSACVnlerjO3Wa2tzWf8Aw,28,39
2020-02-25 15:36:22,nZ4e2FCN5YDVEttfiNrGyA,29,40
2020-02-25 19:36:17,9nzQque86Clwc7rhouVofw,30,41
2020-02-26 14:37:39,pl7Y-wos7GXWKsT7ZqJlUw,31,42
2020-02-26 19:59:17,iTal5OaOwlU482-1c2oJbA,31,43
2020-02-27 04:08:09,TYg4VNcuC2Boh4b4P86efQ,31,44
2020-02-27 20:08:29,iTal5OaOwlU482-1c2oJbA,31,45
2020-02-28 04:03:09,1BM7je5j63FRajzx8lNnGQ,32,46
2020-02-28 10:46:01,rT8yyY6BrqfEVQuhfDYpug,33,47
2020-02-28 22:21:36,EZ23pfAvpzRADYzYXmUssA,34,48
2020-02-28 22:41:22,Cy5gw6VLQeVRv5fky2RIaw,35,49
2020-02-29 07:49:58,I5_9-k2yyn6-07AZUYx6cg,36,50
2020-02-29 14:36:09,qE8bOqr8-lVAaBrxTo2Bzg,37,51
2020-03-01 01:47:37,EiPKFQDyIpXQeRJT5W_7xw,38,52
2020-03-01 13:51:07,x0dJbOQNxOQdcCgzTat3OQ,38,53
2020-03-01 14:02:12,x0dJbOQNxOQdcCgzTat3OQ,38,54
2020-03-03 09:55:19,yR5HGsn6HxfVpsHEJ4vnFQ,39,55
2020-03-03 11:28:24,x0dJbOQNxOQdcCgzTat3OQ,39,56
2020-03-03 13:38:37,TYg4VNcuC2Boh4b4P86efQ,39,57
2020-03-03 23:28:53,Nt2qd6a4CJtEEYkFEBqu8g,40,58
2020-03-04 02:01:54,NRzoVNIS4eFAldNmRCiw7w,41,59
2020-03-04 15:53:02,qRgzQ5FLNBovENyepUfBLA,41,60
2020-03-05 06:49:20,BkkmqDYQtWsGwiZDaTaV2w,42,61
2020-03-05 11:37:46,E4JmwFnJ6E713DJ6coQbWA,43,62
2020-03-05 15:06:10,aPkWTWpaAgvbChlb4hOmaw,44,63
2020-03-05 18:28:10,RBDXpynpzIDpUh9DNHAUeQ,45,64
2020-03-05 20:00:04,x0dJbOQNxOQdcCgzTat3OQ,45,65
2020-03-06 11:13:53,7izA8J-rNyXV1VuYJdGs3A,46,66
2020-03-06 16:59:18,TYg4VNcuC2Boh4b4P86efQ,46,67
2020-03-08 19:29:02,nYa9-TSc6J6Q-v-rScYgQg,47,68
2020-03-10 12:26:54,qRgzQ5FLNBovENyepUfBLA,47,69
2020-03-10 15:49:24,YKSARmtgYlxlfON78orKbg,48,70
2020-03-10 15:56:20,sLONe2voR-emnTO7z7pieQ,49,71
2020-03-10 16:24:43,oQyHLDtNaqqP3YJE3tknfg,50,72
2020-03-10 17:00:22,YKSARmtgYlxlfON78orKbg,50,73
2020-03-11 02:57:38,lRGVAJYVxtVdYRCYcY1mUA,51,74
2020-03-12 05:31:27,R7SpVucONJXBnDmuGfF1Hg,52,75
2020-03-12 23:54:52,3jVEgp9n8MtHKIyRkwwqpA,53,76
2020-03-12 23:58:51,3jVEgp9n8MtHKIyRkwwqpA,53,77
2020-03-13 00:43:24,M3Wo0leWQ3SX3ShZspdXOg,54,78
2020-03-13 03:29:39,TYg4VNcuC2Boh4b4P86efQ,54,79
2020-03-13 08:51:11,3jVEgp9n8MtHKIyRkwwqpA,54,80
2020-03-13 09:21:33,3jVEgp9n8MtHKIyRkwwqpA,54,81
2020-03-13 10:22:05,uAWxA3HdLGURP8eRMsjWrQ,55,82
2020-03-13 16:16:47,3jVEgp9n8MtHKIyRkwwqpA,55,83
2020-03-13 16:30:07,3jVEgp9n8MtHKIyRkwwqpA,55,84
2020-03-13 17:10:43,e-0OoIuRmR2-3RdqpgnJlg,56,85
2020-03-14 06:26:42,BSAoyWj8uQEdgSDPP6_I2g,57,86
2020-03-16 02:00:01,rFZ4EQQyrvXVWN_5iEJJQQ,58,87
2020-03-17 08:56:16,563VSS4tT4RxvLGQuVIaOg,59,88
2020-03-17 16:11:08,x0dJbOQNxOQdcCgzTat3OQ,59,89
2020-03-18 08:42:20,7sRyB8sh8Eye9HvKuJUlFw,60,90
2020-03-19 12:44:59,7M44p3Adk50L1Bv71aT0qw,61,91
2020-03-20 12:22:47,x0dJbOQNxOQdcCgzTat3OQ,61,92
2020-03-20 15:02:22,mv4v2D0XmmPcmj8gKmlpHQ,62,93
2020-03-20 15:33:36,x0dJbOQNxOQdcCgzTat3OQ,62,94
2020-03-20 19:59:31,3jVEgp9n8MtHKIyRkwwqpA,62,95
2020-03-21 11:26:02,TzlCQjuzHNe_CG6A6Sficw,63,96
2020-03-21 11:42:22,Q-Lj4jXdvhWWve2EKQA-QA,64,97
2020-03-22 01:27:39,TYg4VNcuC2Boh4b4P86efQ,64,98
2020-03-24 12:38:50,DNsKAcI9QFp9S69ydYteOw,65,99
2020-03-24 15:57:26,Q4255wEFzP8H6G1kfTA43Q,66,100
2020-03-24 18:04:56,wbdfVqvYU7akphWCgkrA1Q,67,101
2020-03-24 19:04:00,Id4CwnvTwrKh_vRUXkEkSw,68,102
2020-03-25 11:03:42,x0dJbOQNxOQdcCgzTat3OQ,68,103
2020-03-25 11:14:19,x0dJbOQNxOQdcCgzTat3OQ,68,104
2020-03-25 14:53:42,7E2Q3ibU-jga1ccTgbRLQA,69,105
2020-03-29 07:42:17,DifTNJwW3qN65VVA9Ac3fw,70,106
2020-03-30 05:44:30,PhTFV5OLnwHFPSFDV1oXtQ,71,107
2020-03-31 00:10:46,qmEABPJE5fO8U5R-kp85Jg,72,108
2020-03-31 03:44:13,GRZLXfAbi8_zPPHGdRBDzw,73,109
2020-03-31 16:16:21,9v2qAnVDAJBSlChqO34NDQ,74,110
2020-03-31 17:48:46,x0dJbOQNxOQdcCgzTat3OQ,74,111
2020-04-01 16:01:33,qtSoNt4xOMpHH-ZZuVpEbA,75,112
2020-04-01 19:31:21,qtSoNt4xOMpHH-ZZuVpEbA,75,113
2020-04-01 22:40:29,KjrUb2NBmCj0uR2NOtIYSA,76,114
2020-04-02 07:11:26,ZbO76pvMSVUcbbdu59-C-A,77,115
2020-04-02 12:01:47,7e4SWHq0SLwf-T02_ZNkgA,78,116
2020-04-02 19:47:24,JjbV886i6i6VZYoPeo1OFw,79,117
2020-04-03 05:54:29,CIzt-iAkaTeVFxYkL8KnWA,80,118
2020-04-03 16:51:36,Jy4CdaO5eiZsGX9QM37XaQ,81,119
2020-04-06 10:37:08,CTf9VjCQlxLlqM03ROfMKw,82,120
2020-04-06 22:01:09,x0dJbOQNxOQdcCgzTat3OQ,82,121
2020-04-07 02:58:35,TK_pVwhOFU2KL8TJCKcPgg,83,122
2020-04-07 21:16:25,U2wHpM-WQRTnFa-00C4jRw,84,123
2020-04-08 13:13:26,FywWOtS9PNpOCE_QqloKRQ,85,124
2020-04-09 10:47:59,DI876KZJCE818aZHHMFPcw,86,125
2020-04-09 19:19:19,GcHdoHbsdEmB5FzUs6z37Q,87,126
2020-04-10 17:50:15,tzh_V74mLUlWxPpWGU-IzQ,88,127
2020-04-11 04:52:21,vWP3x8CQ_HQ4y5yLT1aeCA,89,128
2020-04-11 12:05:21,YUZ5lP9rUM94mMaAlUupXw,90,129
2020-04-11 18:23:48,2gKx0l0GDzRmkWgq5pzmbg,91,130
2020-04-12 02:29:00,lCSqhJxUYToAhtkAPLHl9w,92,131
2020-04-12 15:51:21,A8y2KY1FiG0bu7g6umKs2w,93,132
2020-04-12 19:43:45,9leP-NScETvcdABxyUcUHw,94,133
2020-04-12 19:50:42,9leP-NScETvcdABxyUcUHw,94,134
2020-04-12 22:10:50,x88qsyZqusEcrV4krmOyiA,95,135
2020-04-13 01:49:48,-6tEm801XMYgc5dKEet2_g,96,136
2020-04-13 05:12:00,ov4frHPnp22TSZhVNOPMhw,97,137
2020-04-13 05:37:44,IIzyEZOcZFDhVnIjhZvhGQ,98,138
2020-04-13 18:58:53,nRQxr424va11O6yWMYxeIg,99,139
2020-04-13 19:42:21,O3I9lZQKNpqjUyVCPgilYw,100,140
2020-04-13 20:43:55,bd1y9krKnNonvriL_fHVAQ,101,141
2020-04-14 03:57:18,3xfSY9ExzYr6kbw2z831fA,102,142
2020-04-14 10:20:27,ChOk3bv28ywGB1nL6_JIKw,103,143
2020-04-14 10:32:55,MCpuBmDZHNeeluQszLGqYA,104,144
2020-04-14 21:43:22,teQSOG0lJHLQd9ru5mqowQ,105,145
2020-04-15 01:33:18,cI7fED83dVBpAkDjCs3Uww,106,146
2020-04-15 17:19:28,CVPlN34KxWVy7OVpVcAqnQ,107,147
2020-04-15 20:35:23,_9rPqHABhCHPd8rmnrFoaQ,108,148
2020-04-16 02:51:25,MuXM8eapYx2adpx4twBu6Q,109,149
2020-04-16 03:53:15,RGWLKsapCv_NNkariKfTyw,110,150
2020-04-16 03:59:50,_9rPqHABhCHPd8rmnrFoaQ,110,151
2020-04-16 15:38:16,1Ku149d8bKNXadZrQfKx2A,111,152
2020-04-16 19:02:52,8MNMbXCY45p9skMEvyhxeQ,112,153
2020-04-16 19:12:12,gaFDb6pMOP2gNH5smZ-9Gg,113,154
2020-04-16 20:27:56,GXge0d4E1fXEmajXZiGKCQ,114,155
2020-04-16 22:47:04,DucWVAoEwNUocl-yaKm40g,115,156
2020-04-17 01:05:09,tRqy4q3AdWewNkrjsPQwmw,116,157
2020-04-17 06:04:27,RfXeIYU7EN_F2lSy60A2Kg,117,158
2020-04-17 08:24:45,YYKGwUXKzGujAt1cDr7pmA,118,159
2020-04-17 11:06:14,eJouiRCP0kl3QGryPlEWeA,119,160
2020-04-17 11:52:53,-Yl9ATrkNrn94GoXeOplRQ,120,161
2020-04-17 16:57:20,HwiEbNOubygCUmvo4Md5gA,121,162
2020-04-17 17:36:49,sdzRFZkjR9-Fs4zIVyI0Mg,122,163
2020-04-17 17:38:04,nExleKSeciW3_wc4oX5ogQ,123,164
2020-04-17 21:00:59,TYg4VNcuC2Boh4b4P86efQ,123,165
2020-04-18 04:13:58,NQ8em5pRtYxigQpwYHc1Xg,124,166
2020-04-18 05:01:59,A7g9m7Zj3dFE6i3rf1qlKA,125,167
2020-04-18 05:20:08,EDg67DMsajp-wkLCEBIh4g,126,168
2020-04-18 10:52:06,3jVEgp9n8MtHKIyRkwwqpA,126,169
2020-04-18 11:02:29,SopQkf8olsPQk3jjPhRucw,127,170
2020-04-18 11:44:25,3PGO7i6DQBL3A5RXl3U_SQ,128,171
2020-04-18 14:24:31,GL8YoJt3Q_ibmR8_DUNDNQ,129,172
2020-04-18 19:22:09,P_lF72mU5_gzPeRkJdSFNA,130,173
2020-04-18 20:30:37,ddpqg1yexbuNnvFMoE8gFQ,131,174
2020-04-18 23:14:45,mv6ww_eOiokOI51-83qgnw,132,175
2020-04-19 08:59:39,Yq85PxtR_x7jdbeibotDwg,133,176
2020-04-19 11:33:07,8Fy2H_xPQm5SQeQYJrUHSg,134,177
2020-04-19 12:25:58,BwBTDXgHXkx9CxWX-ESekg,135,178
2020-04-20 02:01:31,_A1HwDDk1k2padR60UIR4Q,136,179
2020-04-20 18:28:34,DPxR3aN3tQwTzbR0nZ1h0A,137,180
2020-04-21 05:32:18,VkBh0is4drGuD015qlBOOw,138,181
2020-04-21 07:51:15,aC9Gd_vyJiHcg13HQOm8GA,139,182
2020-04-21 08:07:34,xMW3qUFwMiM5jCIen1nvmw,140,183
2020-04-21 15:25:45,AWBYhSWqBo5XiPdQ_RukLA,141,184
2020-04-21 16:19:09,voiONPFNvaeBwx3QRZHJxA,142,185
2020-04-21 21:41:31,TYg4VNcuC2Boh4b4P86efQ,142,186
2020-04-23 00:25:20,AIhs2Qvb7h8GLdGVMTeWcQ,143,187
2020-04-23 10:50:31,p5pge2yb3NY1H_fG397n_A,144,188
2020-04-24 01:55:38,gSjqEUSQIc4xZDN7vbCq-w,145,189
2020-04-24 21:34:27,LC4yYse7LOKm9vqSJSf_uA,146,190
2020-04-25 01:58:26,r6E16KDzhEExW5aylR0CMA,147,191
2020-04-25 12:37:40,TCU4G8yvhauurEA38ujolA,148,192
2020-04-25 13:46:15,yASyrXzX5oE63S57Knkmjg,149,193
2020-04-25 14:22:24,4FMYx_ydxh1x2ewvNLOcJA,150,194
2020-04-25 15:06:48,HaUjVBIpi9MtELJuyrvZqg,151,195
2020-04-25 16:56:03,SdQ6G-t4v01ULgCARwSYHA,152,196
2020-04-25 17:16:48,nXClZagOI_xqw3ebVa_oMA,153,197
2020-04-25 19:40:51,RGN0mzktdNIGEtBOnho3tg,154,198
2020-04-26 03:05:23,xT1UQep1Fsz6tmKLQKtasQ,155,199
2020-04-26 06:13:15,8USuTbvXrzPIlevCWLSTeA,156,200
2020-04-26 07:52:54,Sf8LNjxJIgVhxpVG5aCnwQ,157,201
2020-04-28 18:03:10,dOZqot9YIkdOMSBFhm1ijg,158,202
2020-04-28 19:01:26,C96UDr5h8v9pfFh3Ra6ujg,159,203
2020-04-28 23:43:03,_XAnTW5QQPmU0zgLP0syuA,159,204
2020-04-28 23:49:21,QVI5vPDHhxEznp-wTAZwhA,160,205
2020-04-29 00:24:13,KKf39B1N8DBqKIWmzHk82w,160,206
2020-04-29 05:11:58,ph6zg_jh1t27U1O08IZcgQ,161,207
2020-04-29 06:51:54,_cWSYx9lSjgIQCOqT6gFZw,162,208
2020-04-29 13:54:07,kKMeyobGnSm-nOYCfWfzlg,163,209
2020-04-29 16:39:13,v6EJ1XahO6fpq9_u_53YZA,164,210
2020-04-29 17:26:02,OfYSRg1gneruzGknCecZRA,165,211
2020-04-30 04:36:50,TYg4VNcuC2Boh4b4P86efQ,165,212
2020-04-30 19:34:52,V7vf2NYCezlXpJ3ULu5svg,166,213
2020-04-30 19:44:02,5i3HNAqjCQJRF-95RvKzuw,167,214
2020-05-01 00:20:10,oC1n_I6Oaze3HEIhWd5mdw,168,215
2020-05-01 01:42:30,5jLNH0ARfom_CtmN2kNljg,169,216
2020-05-01 08:14:03,lFW3dMRQl5AEFHVyDQ6Xrw,170,217
2020-05-01 09:41:32,jFADj1IWUOHy3Oxype6N_w,171,218
2020-05-01 15:06:01,MBaDY-QLfiRha9G6-VWvHA,172,219
2020-05-01 17:03:17,EVjQGMsLQgxCfnof-guYiA,173,220
2020-05-03 12:17:26,jRCEWR3nxCw-jNqZv5mdVA,174,221
2020-05-03 14:55:00,xCMSdIjaBEiXt6KpltbZAQ,175,222
2020-05-03 18:53:42,FLoTsCyTG3hYgRbtOwZeWw,176,223
2020-05-04 01:12:32,VFvvbsA0VFce3MsiZIZc4g,177,224
2020-05-04 01:22:41,VFvvbsA0VFce3MsiZIZc4g,177,225
2020-05-05 06:11:22,TYg4VNcuC2Boh4b4P86efQ,177,226
2020-05-05 20:00:58,XGe6XfdRjn0i5i9nW6W0YQ,178,227
2020-05-06 14:08:37,oDOZnhCQq3Q1OW3_udeknw,179,228
2020-05-07 08:56:24,zgSEQHkoiN0e1jzLaFWzJw,180,229
2020-05-08 00:22:10,fsX7oql86vvN7wzB_Z6o2w,181,230
2020-05-08 18:57:33,qg8igK-m62hd9ntvdCLZaA,182,231
2020-05-08 20:00:06,wWqfmw_5IzzNugcGjB7c2A,183,232
2020-05-09 01:10:59,TYg4VNcuC2Boh4b4P86efQ,183,233
2020-05-09 06:32:43,Ac-04u7BP9dXQK7iiM_G4g,184,234
2020-05-09 15:43:14,9LmToKQGRScDKSOU9tT_eQ,185,235
2020-05-09 20:05:43,UwscWHatqba750i8EePKFA,186,236
2020-05-11 01:45:52,G-S5MZ7EC39bPeob4RtuaA,187,237
2020-05-12 14:14:50,TYg4VNcuC2Boh4b4P86efQ,187,238
2020-05-14 14:33:59,PxqXlorfS8btJGaAjYxilQ,187,239
2020-05-14 14:35:13,TYg4VNcuC2Boh4b4P86efQ,187,240
2020-05-14 14:55:14,PxqXlorfS8btJGaAjYxilQ,187,241
2020-05-14 15:50:11,XQjqpDT4UfmZe6KbusWQ3w,188,242
2020-05-14 16:47:41,TYg4VNcuC2Boh4b4P86efQ,188,243
2020-05-14 19:38:45,cN9BFkVFktewSj-YZ7ypTg,189,244
2020-05-15 11:52:42,XQjqpDT4UfmZe6KbusWQ3w,189,245
2020-05-15 16:56:00,7hKhTskCXQhTlxrwA0rNLw,190,246
2020-05-16 00:37:48,x0dJbOQNxOQdcCgzTat3OQ,190,247
2020-05-16 02:05:37,-0IH7XyyM6lxlOTk546nyQ,191,248
2020-05-17 21:59:39,sYm3HkOsjI6KVidOP5Ydlg,192,249
2020-05-18 12:55:21,u-SbxSclD-U7zYmp7CpUMg,193,250
2020-05-18 18:47:27,FzjiQ6uOo6qmogxDv56YlQ,194,251
2020-05-19 12:27:53,4FMYx_ydxh1x2ewvNLOcJA,194,252
2020-05-20 19:05:17,662ZSWIgCeFvSIs9TVjkTg,195,253
2020-05-20 19:28:43,q7TywwCXWtdNe6HW3LciAw,196,254
2020-05-20 19:29:15,662ZSWIgCeFvSIs9TVjkTg,196,255
2020-05-20 20:56:54,662ZSWIgCeFvSIs9TVjkTg,196,256
2020-05-21 00:49:31,i1nfbMRs08Khdu6Tof4l5w,197,257
2020-05-21 04:49:21,mk1KFgqex_zjeXFsch-VeA,198,258
2020-05-21 20:34:49,os06m8XCXbqqEz1jULB17A,199,259
2020-05-22 02:13:49,TYg4VNcuC2Boh4b4P86efQ,199,260
2020-05-22 03:00:42,0QH3elYwf_gY0IxvW_lSxg,200,261
2020-05-22 21:54:49,eJLEAj3hqQkTFaUzhVYARA,201,262
2020-05-23 02:54:33,PqLbUOYs7vzq9wqdmlam9A,202,263
2020-05-23 03:29:41,PqLbUOYs7vzq9wqdmlam9A,202,264
2020-05-24 00:07:58,Eopfg2IuMUjjqjuSPKGkpA,203,265
2020-05-24 18:35:43,j-l7K95-YhDuKgF5ICmNfA,204,266
2020-05-24 18:45:23,5jLNH0ARfom_CtmN2kNljg,204,267
2020-05-25 03:03:08,XCIs135ISXF6OY4o54XBiw,205,268
2020-05-25 11:57:53,-KJvdDLDexDmsAUsEA1dew,206,269
2020-05-25 23:06:09,x0dJbOQNxOQdcCgzTat3OQ,206,270
2020-05-25 23:32:48,x0dJbOQNxOQdcCgzTat3OQ,206,271
2020-05-27 12:11:36,Vub5KqzLDBdQOcg-ygLYwg,207,272
2020-05-27 14:48:02,HHogwFFAzL1J7biijzSq4w,208,273
2020-05-27 16:03:14,WWufunS6GPFSzwka3Q8uWQ,209,274
2020-05-27 22:57:27,LxWF2_JFBEvLw6EIYOyyWQ,210,275
2020-05-28 18:30:46,ti0Gy9uHP7F9DUbwY76lhA,211,276
2020-05-30 00:42:44,egbS3qlNKZBRvMxZfxyd_w,212,277
2020-05-30 06:30:13,C1lue8Sz-V5gNYrvy9YgRw,213,278
2020-05-30 19:50:49,vJ_ByNudwXZpkF8F9O9hNg,214,279
2020-05-31 13:26:41,oC4jzsVQ7QIW4sCC9N6Z8g,215,280
2020-05-31 14:59:24,eyBnU2kOr3OahnuAubLu1g,216,281
2020-05-31 16:28:33,NGEUofaCxMFp9mHF-tEjvQ,217,282
2020-05-31 20:20:53,0kKnD1ArRa3pI7c6ItC7Bg,218,283
2020-06-01 03:51:26,nGgutPCt1yDZl3nuU_sfGg,219,284
2020-06-02 06:08:39,TYg4VNcuC2Boh4b4P86efQ,219,285
2020-06-02 18:04:59,jHi9Ey__nrnUfUdZ-47aEw,220,286
2020-06-03 06:19:55,7o9W6JOprX1sHm_18U7FuQ,221,287
2020-06-03 17:21:05,w3NBSMLjTmf1vSIceURlOQ,222,288
2020-06-05 02:44:01,7S7ybvh0MuGZmhnou6mkGg,223,289
2020-06-05 19:08:54,JG7pO2n2n5LupUZptvz3mQ,224,290
2020-06-05 21:26:23,kHHEXty9HrO0d8HIiEuJKQ,225,291
2020-06-07 19:00:31,nMsM-yZIqSiVcDiPrG3LaQ,226,292
2020-06-08 12:11:39,3jVEgp9n8MtHKIyRkwwqpA,226,293
2020-06-08 19:13:39,TYg4VNcuC2Boh4b4P86efQ,226,294
2020-06-08 19:28:25,7FC8Jh0GY9ELt5HZ113cTg,227,295
2020-06-08 20:04:56,RpQOC_1_u1c1AK-ny7U87A,228,296
2020-06-09 02:39:43,9AggBcedSwkx3D7FUwyJKg,229,297
2020-06-09 16:33:49,qBYmUdMtIjlch1i_sMzZ7Q,230,298
2020-06-09 17:47:29,3PAuS5OJtkeKCONZPhA7Sw,231,299
2020-06-10 13:20:23,h_qlc6i9265UuafaplRMbQ,232,300
2020-06-11 08:04:51,nBg0QJ7eRo80Bz4pih_wxw,233,301
2020-06-11 17:05:38,YJ3-boAhhxCwK8EgDXfCLw,234,302
2020-06-12 13:53:07,63ayXVVlbApK4fn08ZPZUA,235,303
2020-06-12 15:58:22,8FwILmTuV1E_ddG9ZZmuuw,236,304
2020-06-13 10:56:46,cUmlbFgrzvMn46j0ceFHjA,237,305
2020-06-13 18:19:51,6zH2S2KpCzZnk-SBx-LW5g,238,306
2020-06-15 10:57:34,DKDRpJMhqcOFyh6NQ_ecgw,239,307
2020-06-16 15:41:54,He-rUFMN_a8y3RnZ0Tcdrg,240,308
2020-06-17 03:20:45,_RlVTOqngByHTpBihVps1w,241,309
2020-06-17 04:40:00,D8F-xiP5taHtp-l5VjpKTg,242,310
2020-06-17 12:44:54,SaSUbRBMhF22xlQVoJ4PUg,243,311
2020-06-17 16:55:55,OzOxXZvP6FvqFcmUxBgI6Q,244,312
2020-06-17 18:03:48,RIUi6Tcs4X1_e34BXXZqWg,245,313
2020-06-18 07:10:02,pG7XlKa-Mk8dfM55VM2h7w,246,314
2020-06-18 10:15:44,QLQAtCpAwJ_LTzTYrj7Obg,247,315
2020-06-18 10:32:29,m6LcMm0g41z5U9oaMvH1iw,248,316
2020-06-18 13:59:32,daROoexgaudVVMuZhZ7_6Q,249,317
2020-06-19 03:41:46,9MVuSoKEDAurxb7eGBjRAA,250,318
2020-06-19 10:28:06,p1iu3yinin6ddGpY7Qodbw,251,319
2020-06-19 15:49:48,HdA8Et8AnWNPoZaOzUhNYQ,252,320
2020-06-19 20:59:55,DclTGyaZ1wYJDeHLcWbZ-g,253,321
2020-06-20 14:36:42,DclTGyaZ1wYJDeHLcWbZ-g,253,322
2020-06-20 16:51:01,t1zIXZSQLD_Y07bAlKo1Fg,254,323
2020-06-20 22:28:27,7_DEE0VKY3XroHWrHM1qhg,255,324
2020-06-21 07:17:22,PcZ5qR-ZMGJUqNSOeEx6rA,256,325
2020-06-23 12:45:17,X4_OOQvpPJiUzrYgRLU1HA,257,326
2020-06-23 14:37:19,1rnLKDqufG7DPxln2MjevQ,258,327
2020-06-24 09:28:16,R3DulY3LK5SD15XW_hjXiQ,259,328
2020-06-25 01:01:06,6Did3kBzZSipkjPcHX6Xbg,260,329
2020-06-25 03:42:27,8AKLgAwbgHhu0cdqO0mNdA,261,330
2020-06-25 16:12:22,ykJQRR0BNYKOXJVZadWS9g,262,331
2020-06-26 05:24:52,EADcf-l3nGAlP-rDPVmfZA,263,332
2020-06-26 07:05:59,JxaVqoX9YUXqs-E_NHNK6w,264,333
2020-06-26 13:54:52,TYg4VNcuC2Boh4b4P86efQ,264,334
2020-06-28 23:10:56,-uQLZ1UYe6RgA--TyDB8Pw,265,335
2020-06-29 03:16:06,TYg4VNcuC2Boh4b4P86efQ,265,336
2020-06-29 10:08:20,yR5HGsn6HxfVpsHEJ4vnFQ,265,337
2020-06-29 16:15:44,qBYmUdMtIjlch1i_sMzZ7Q,265,338
2020-06-29 22:52:51,-BQG0xNtp7e306OoahKOgA,266,339
2020-06-30 04:48:35,TYg4VNcuC2Boh4b4P86efQ,266,340
2020-07-01 10:45:41,GyCl-XsemvxolHRpF7bM7g,267,341
2020-07-01 14:57:37,OmWIbDoNypjrxcFMrhkYAA,268,342
2020-07-02 14:42:49,bKurOJnYPchOIIu3Rm9e_Q,269,343
2020-07-03 03:11:34,01fONswr0ezjgd7EAAQfZQ,270,344
2020-07-04 09:35:23,bHp6R4Mld3xTtd_5legeAg,271,345
2020-07-04 14:02:05,WWufunS6GPFSzwka3Q8uWQ,271,346
2020-07-05 10:47:43,qNG61eBc4R9RHijC5Suo0w,272,347
2020-07-05 11:00:11,bi0_08bvW2uk2ll7-LXe2g,273,348
2020-07-05 13:06:18,Be3rl0Q-kjfppt5Qe849Cw,274,349
2020-07-06 04:01:17,KFP6Rubo7nWQPpKhi-BYgA,275,350
2020-07-06 07:31:02,5i3HNAqjCQJRF-95RvKzuw,275,351
2020-07-06 07:48:31,RLs9lIShmLx3HUcvsjbaFQ,276,352
2020-07-06 20:23:17,390sODitxFB0YIRuCRDJ3g,277,353
2020-07-06 20:25:11,7oru1OzcFyRi1jCZE2yEzQ,278,354
2020-07-07 12:09:17,U23ct5h9xE_EAXem6iTMAA,279,355
2020-07-08 03:01:20,d7tzbuGYiuYez0WFvC_Y2A,280,356
2020-07-09 04:54:36,MNANWqvH0Cn4XJ7nU1YScg,281,357
2020-07-09 16:42:37,TYg4VNcuC2Boh4b4P86efQ,281,358
2020-07-09 18:55:03,IOr74aVwsc9qST42U5DczQ,282,359
2020-07-09 19:48:23,qKloLPpWP2dUYaqA0EMm4w,283,360
2020-07-09 20:45:35,L-0cWOkadjhHE-rul3FnmA,284,361
2020-07-10 06:12:57,yR5HGsn6HxfVpsHEJ4vnFQ,284,362
2020-07-10 09:38:24,p6pztc5zeTI2zYp_xm-ORA,285,363
2020-07-10 19:09:23,tqRmIMxC5W_eBkz2i3KSpg,286,364
2020-07-11 15:17:37,aZKvD3zUH7TXhIQRreQNzw,287,365
2020-07-12 16:35:44,MsrqzrtVDl6FblhZYYmtDw,288,366
2020-07-13 06:58:59,pl7Y-wos7GXWKsT7ZqJlUw,288,367
2020-07-13 09:02:22,WpB3smyVnu8sRwChGJEqYw,289,368
2020-07-13 15:01:43,x0dJbOQNxOQdcCgzTat3OQ,289,369
2020-07-13 15:02:19,x0dJbOQNxOQdcCgzTat3OQ,289,370
2020-07-14 20:03:30,-KbFhKFtSmap5VmL3017Pw,290,371
2020-07-14 20:37:08,l6_lmfezkyOnpivXWaJm9w,291,372
2020-07-16 05:14:42,5jLNH0ARfom_CtmN2kNljg,291,373
2020-07-16 17:15:58,kqX4qnLVMilFU1fu4x9hiA,292,374
2020-07-16 20:18:53,3_Cs0G87ZIzSBp22VsDRPg,293,375
2020-07-17 10:29:06,8gSbHFzDe0VZHM5X4z2Elw,294,376
2020-07-17 17:26:54,htaWsYhf8gQ4d9mGdHM9Dw,295,377
2020-07-18 01:43:46,S80zzJZgshiGQOri2ZO8Eg,296,378
2020-07-18 03:26:50,TYg4VNcuC2Boh4b4P86efQ,296,379
2020-07-18 03:38:09,TYg4VNcuC2Boh4b4P86efQ,296,380
2020-07-18 14:03:02,5d0tOJe2qRLmDZ74-G8r7w,297,381
2020-07-18 14:47:51,m3s_brvPA7PUaGqa7TJEYg,298,382
2020-07-18 15:45:07,3jVEgp9n8MtHKIyRkwwqpA,298,383
2020-07-18 16:31:13,3jVEgp9n8MtHKIyRkwwqpA,298,384
2020-07-19 12:17:11,5j0oIJMsDH1K_6m6EjCQiQ,299,385
2020-07-19 15:54:15,4zfaDZ0TDncK0Te6EZqTGw,300,386
2020-07-20 04:57:46,TYg4VNcuC2Boh4b4P86efQ,300,387
2020-07-20 20:58:54,R2mu_drE9m1W87zopJ8_qw,301,388
2020-07-21 12:31:17,_VKu9OM9uszymHN8CJUU8g,302,389
2020-07-21 18:41:46,PY90S3pSEFDuTrIxb6366g,303,390
2020-07-21 21:28:32,3jVEgp9n8MtHKIyRkwwqpA,303,391
2020-07-21 22:29:19,3jVEgp9n8MtHKIyRkwwqpA,303,392
2020-07-22 21:40:13,x69cU86IGdqJJAE8PGwzfA,304,393
2020-07-23 09:00:21,poE-oh7dJmYo-7ukQisngQ,305,394
2020-07-23 10:52:59,eYaCdpjojj04-e4ZXMpUzA,306,395
2020-07-23 12:03:01,sym-wzHIsekYOPAR0Xig8A,307,396
2020-07-24 14:36:29,CkekRzqs81dbdfMnUtD_rQ,308,397
2020-07-25 01:07:41,ASBX3NTQtuo1RiH_ggPCQQ,309,398
2020-07-25 19:46:55,qbouURlw8gQlZvVJVXtJGQ,310,399
2020-07-25 20:01:06,UwscWHatqba750i8EePKFA,310,400
2020-07-27 01:14:29,s2JSImEEDUuetQRKk45vmQ,311,401
2020-07-29 01:09:22,TYg4VNcuC2Boh4b4P86efQ,311,402
2020-07-31 05:43:28,04NHZh89feU1gIX5n0L2IA,312,403
2020-07-31 09:41:14,K7Ufep6xDBpsQxI0X79U4Q,313,404
2020-07-31 13:37:34,z6_8xPjM3f5yaFu_JqmsLg,314,405
2020-07-31 15:02:18,sW3Mm57sriEfuIZ8PjWlrA,315,406
2020-07-31 15:25:21,gdtJb9vswQhtDbIwfGJtWA,316,407
2020-07-31 15:58:36,XgVq1J0_KspUQILa7JLfLQ,317,408
2020-07-31 20:08:24,Iaxr392eHoPVTUImYYxsUQ,318,409
2020-08-01 08:55:59,gxJrtdd_L6_mLQyTvdf6hA,319,410
2020-08-01 23:00:27,a3E6URjxAH1DpAqLSqdasA,320,411
2020-08-02 01:09:35,TYg4VNcuC2Boh4b4P86efQ,320,412
2020-08-02 01:39:34,JVByXJvjDFf8bq76XblkJw,321,413
2020-08-02 08:30:08,qg6Gv8vphU-CtXdNxAq6vQ,322,414
2020-08-02 08:32:58,qg6Gv8vphU-CtXdNxAq6vQ,322,415
2020-08-03 12:04:48,44NfDKGBDpCPil0PKsPXPQ,323,416
2020-08-03 15:25:31,D8FT0jtwpxAoHwb_pliILQ,324,417
2020-08-04 13:29:18,3jVEgp9n8MtHKIyRkwwqpA,324,418
2020-08-05 08:25:18,EyjPs2cGbeNjLTECkyxv3w,325,419
2020-08-05 12:45:14,daROoexgaudVVMuZhZ7_6Q,325,420
2020-08-05 13:28:44,o8HSlxyMMCAGER94_k7gag,326,421
2020-08-05 17:46:25,eZ1xsK0XNzxCu3hXS659yA,327,422
2020-08-05 17:46:35,XQjqpDT4UfmZe6KbusWQ3w,327,423
2020-08-06 01:40:43,vjpQuQwRsWR8Ox5cTGizzA,328,424
2020-08-06 01:46:47,QWpcxt2s7lxD4J5khF6e1Q,329,425
2020-08-06 02:23:53,WE5eBb6ynTLFwEl8qkcMrA,330,426
2020-08-06 17:59:15,3PAuS5OJtkeKCONZPhA7Sw,330,427
2020-08-07 11:45:49,7qd9nozKTwaQT9_u6NkKyA,331,428
2020-08-08 00:37:40,TYg4VNcuC2Boh4b4P86efQ,331,429
2020-08-08 05:03:46,CzsggK3xkICOFNWblu-2VA,332,430
2020-08-08 05:12:03,8QIbOdMMGpUSsvsEt_ZPwQ,333,431
2020-08-08 07:01:39,f4N5TbmROaW5HoYnrYoI1A,334,432
2020-08-08 07:03:51,f4N5TbmROaW5HoYnrYoI1A,334,433
2020-08-08 09:43:54,JI_mlRPAGSH8Cz-ub-Pacw,335,434
2020-08-08 15:05:02,UFyeyse88d5UcKqAqsi_kg,336,435
2020-08-08 17:53:01,samsszoHRrgwJQaYQjxQTg,337,436
2020-08-08 19:17:53,aP4z69d850bN1z1WEWiHXQ,338,437
2020-08-09 08:32:00,8ZArb1bMUmUQuYnthyKmtw,339,438
2020-08-09 08:51:07,hphwNFmBSLe5T2s_iOomsA,340,439
2020-08-10 04:36:47,uKo21XmlwwyWOOnNOvV-Gw,341,440
2020-08-10 08:20:51,m6LcMm0g41z5U9oaMvH1iw,341,441
2020-08-10 15:39:24,NlH-1MFf9ypCTb60vbeRvA,342,442
2020-08-10 18:58:04,Hh-ASXVypGKzLcMn0TxO2w,343,443
2020-08-11 04:48:08,XpadUUQbZSKmpvHEXrt8cg,344,444
2020-08-11 11:42:32,jmae1mFYcEAM2EawCObstQ,345,445
2020-08-12 13:26:09,TYg4VNcuC2Boh4b4P86efQ,345,446
2020-08-12 23:33:12,HLNrrj42ruxVOQUqPpXMeA,346,447
2020-08-13 00:50:18,VhbKppdvsd62a8pAqZfjWg,347,448
2020-08-14 05:06:50,ia5vk79qV1xMm4n2c7yy9Q,348,449
2020-08-15 11:00:04,keZNC1rDDHFuyile-gfUMQ,349,450
2020-08-15 17:48:28,AxoNi59-BOOOtVryyhVQvQ,350,451
2020-08-17 05:44:39,HFX2J6KtGz5xZYchAGSLcA,351,452
2020-08-17 05:51:15,XsjjdHWrdKvWMT-trfGiLw,352,453
2020-08-17 05:51:22,XsjjdHWrdKvWMT-trfGiLw,352,454
2020-08-17 07:07:34,aqR98P7HaJZEIVxsCvhN0Q,353,455
2020-08-17 14:02:00,daROoexgaudVVMuZhZ7_6Q,353,456
2020-08-19 07:30:01,VDWwhUVGO-AHgblqX06yAw,354,457
2020-08-19 15:58:14,DDig-mB4g2ecDYyRaSrRzg,355,458
2020-08-19 21:31:24,GLB_M5aWzm7Bx2QD0BphbQ,356,459
2020-08-20 00:56:13,BWYItfh3K2qKMKcn6R6bng,357,460
2020-08-20 12:10:20,vIEOh2592dc-7MyY3K_TRg,358,461
2020-08-21 08:50:51,-h005MuCBASvORMO5QkshQ,359,462
2020-08-22 10:02:45,NkY90ZfM9v6KEoZx-9UQfg,360,463
2020-08-22 19:22:47,-oBXWmesU1wIxqO_IvZ60A,361,464
2020-08-23 16:34:58,uiAB_qij7baCHLxE-qo9rg,362,465
2020-08-23 21:41:08,TYg4VNcuC2Boh4b4P86efQ,362,466
2020-08-24 10:19:14,4rou__AjHlKNx8W8zPftMQ,363,467
2020-08-24 11:21:34,4KO-O2XnA3SLrSyCkJp3Hw,364,468
2020-08-25 02:03:47,OHxAphUkvEjLj-li-u2UBg,365,469
2020-08-25 02:18:10,8UnBUfH7zjWx3orQL4T-EA,366,470
2020-08-25 04:48:09,81bX0LwhGDpRFSDl4f-D2Q,367,471
2020-08-25 09:31:53,3jVEgp9n8MtHKIyRkwwqpA,367,472
2020-08-25 11:20:20,5l2iOSZyv6o4IxImPKzrnQ,368,473
2020-08-25 13:34:57,9QL9KfDvZ4S3_k_bO9Ktrg,369,474
2020-08-25 23:31:12,HcgZfTdtdAJDHh56eHpyEw,370,475
2020-08-26 23:52:04,T1pvg5Mat7Mb4CRibPpDbg,371,476
2020-08-27 10:54:33,pl7Y-wos7GXWKsT7ZqJlUw,371,477
2020-08-27 20:52:07,BgrZJImUfUENiXR0B5wUdw,371,478
2020-08-28 05:19:00,7f0D_XYAuiLna-OjXnk15Q,372,479
2020-08-28 07:14:56,ZOcXQkw1lzQp4gfXChzPTQ,373,480
2020-08-28 07:15:11,ZOcXQkw1lzQp4gfXChzPTQ,373,481
2020-08-28 09:56:12,1KfW3vkTi7ZeikGcRzpNFg,374,482
2020-08-28 14:54:58,5TRATBlPtDLkz3i5t4FvJw,374,483
2020-08-29 18:18:11,lCSqhJxUYToAhtkAPLHl9w,374,484
2020-08-29 19:11:04,nGdBKYOYLgSbwQhh8oxLsw,375,485
2020-08-30 20:06:46,m_0deHOp04MbC46nOWGpVQ,376,486
2020-08-31 15:16:36,mw2WwCyoeIqQFmFpIEN2rg,377,487
2020-09-01 08:05:55,L-0cWOkadjhHE-rul3FnmA,377,488
2020-09-01 10:15:56,daROoexgaudVVMuZhZ7_6Q,377,489
2020-09-01 16:18:08,X2Lcv86FPVHqaE1tTAkr5w,378,490
2020-09-01 17:17:23,aZKvD3zUH7TXhIQRreQNzw,378,491
2020-09-02 14:13:33,WyJ3G6NIbajEvSJdSlQiIg,379,492
2020-09-02 18:45:42,-qv-49xUXcIVCl8LwheSsw,380,493
2020-09-03 05:00:21,R4G76CaGpUnEzEsjb7x2sw,381,494
2020-09-03 07:45:13,1Ce5Kn6tmSkT6h3XeZ33uQ,382,495
2020-09-03 09:19:31,GmiUFF5OzOwKSURYpBqOqA,383,496
2020-09-03 17:41:47,3PAuS5OJtkeKCONZPhA7Sw,383,497
2020-09-04 14:55:15,KmZ--PlauKDhFEI7hm_71A,384,498
2020-09-04 16:49:14,n5J2sSoCNJukHV33KOemhA,385,499
2020-09-04 18:51:03,pbDGaPY9WUzFEgZS2VisYA,386,500
2020-09-04 23:16:37,ZwjK2aj2SpEfzJWamT_cyg,387,501
2020-09-05 21:53:30,Zbe_vffpQti-Qp0mnkL64g,388,502
2020-09-05 22:52:29,xuuhKJjGqPagMqlkq2jOVQ,389,503
2020-09-06 23:42:05,XHrxw0Gzm5V7pHa81PARdw,390,504
2020-09-07 10:03:35,mv4v2D0XmmPcmj8gKmlpHQ,390,505
2020-09-07 23:55:50,Wx6kzwnS85ceAR68OWTYNg,391,506
2020-09-08 08:01:54,wwx7gPYZ2YQOG0otolttXg,392,507
2020-09-09 14:05:24,l2sl7FzJYMUVhtKcn2tHrw,393,508
2020-09-09 14:39:20,PGhgrcMs4s7KCl5ljyTgzA,394,509
2020-09-10 23:05:26,e7CkNLjXGjkaok9efgC4GA,395,510
2020-09-11 06:14:40,JRJk-ltbXAzyh8zif7jzhw,396,511
2020-09-11 06:33:29,sd6qg_GbWsB0zyCPe035cg,397,512
2020-09-11 08:23:27,ormJLlNCy6vSW-Kjiq-2yQ,398,513
2020-09-11 08:23:37,ormJLlNCy6vSW-Kjiq-2yQ,398,514
2020-09-11 11:49:17,pkQttU51xj5-dbBuOCtRMQ,399,515
2020-09-11 17:13:17,_q0NUzGYU7pTPzacIumPcA,400,516
2020-09-11 23:46:59,8n_nOuYro2mE3_0NYnhHaQ,401,517
2020-09-12 14:13:00,GtCWHXTwXLfgztsezPyH7w,402,518
2020-09-12 15:04:10,QcPtz2rwelV4vbaLBcZ1ZA,403,519
2020-09-12 16:06:52,Svpke37ObFpbdKWZNpkJvw,404,520
2020-09-13 02:50:58,mEnh5_XYp4i7G_8qAKWXKA,405,521
2020-09-13 10:19:27,3PAuS5OJtkeKCONZPhA7Sw,405,522
2020-09-14 05:48:58,-eLD0BM8LiiPST5Na-dhfg,406,523
2020-09-14 06:35:45,82rY8dY2d3joHA8mCfCw2w,407,524
2020-09-14 14:41:22,TYg4VNcuC2Boh4b4P86efQ,407,525
2020-09-14 16:04:02,FEFLwJ-sOQPcfb2oObqakg,408,526
2020-09-14 17:10:39,kgPK3xNekBjZRLSjfb3MCg,409,527
2020-09-14 21:39:52,zZ0LRClhPxti0dT7tyrPKw,410,528
2020-09-15 14:49:19,RaDlbjizxNd6Z7syyK3krQ,411,529
2020-09-16 18:15:01,EjXbAbjkQf8cfNVhzGDGQw,412,530
2020-09-17 23:32:42,x0dJbOQNxOQdcCgzTat3OQ,412,531
2020-09-18 07:43:16,PqLbUOYs7vzq9wqdmlam9A,412,532
2020-09-18 14:02:42,a1XThSow1GHFY12InBWgXw,413,533
2020-09-18 14:42:57,TYg4VNcuC2Boh4b4P86efQ,413,534
2020-09-18 14:53:29,ungjzZl82QYKWEsl2xsNBQ,414,535
2020-09-19 00:10:04,X6FBhYq8Bx74w2LMA30oQw,415,536
2020-09-19 02:54:00,pl7Y-wos7GXWKsT7ZqJlUw,415,537
2020-09-19 03:22:10,oWIFJ2qB8v7kdki_B1UOgg,416,538
2020-09-19 04:04:51,Q2YU3IObhy5cDQWNVPVh1Q,417,539
2020-09-19 04:56:01,NKfNcHwu1kuvSHKVuXOpMg,418,540
2020-09-19 05:06:01,ZwFvFm8GtQ7Zd5ck3TyFsg,419,541
2020-09-19 09:26:17,D1HliQsE5qL7orDrK99aYA,420,542
2020-09-19 18:30:08,650Om-GxdLLGu_wYo6kWWA,421,543
2020-09-19 19:45:30,qD12x402ybpH-0caeaBEHA,422,544
2020-09-20 07:52:21,Waz2bunev2penc_5KZSvwg,423,545
2020-09-20 08:00:31,5wpKXYh0aFnhxWD0kHwnVw,424,546
2020-09-20 12:03:09,r8UD9RMjvNaeD7G-0jDJiA,425,547
2020-09-21 07:48:06,CFAdXC6M2EwxXJLVr8S_5w,426,548
2020-09-21 08:57:51,89TLkzGFkHo_95crrKkN0g,427,549
2020-09-21 14:15:56,EahdPwpkplATbHBt39mr_g,428,550
2020-09-22 09:54:00,UaXBsSPtLOMgB9uX39U5PA,429,551
2020-09-22 13:04:34,GsplfiF7C8iuuP_REKaBmA,430,552
2020-09-22 22:44:40,TYg4VNcuC2Boh4b4P86efQ,430,553
2020-09-23 00:12:05,nfMHqrHzrli5n_4H2b2Cmw,431,554
2020-09-23 13:26:17,bSgQNIGEQ5kuZfowFsV0Vw,432,555
2020-09-23 19:02:40,x0dJbOQNxOQdcCgzTat3OQ,432,556
2020-09-23 19:30:04,wCgmnYisxVZLeZBADk1tSg,433,557
2020-09-23 22:48:38,TrrEw_5UrknZ5kNwv9Ueww,434,558
2020-09-24 15:55:27,jmae1mFYcEAM2EawCObstQ,434,559
2020-09-24 16:52:27,itDo_CpARWSBgNwWiGJ09A,435,560
2020-09-24 19:31:08,KVEg_l2tG1ClHacxr532uQ,436,561
2020-09-25 09:16:25,A9tgwjMQGLGMQWbBeHBy_g,437,562
2020-09-25 14:05:11,KVEg_l2tG1ClHacxr532uQ,437,563
2020-09-25 15:22:27,Svpke37ObFpbdKWZNpkJvw,437,564
2020-09-25 19:35:47,IpxsiKKfwRILlqiEQU9llA,438,565
2020-09-25 19:58:17,TYg4VNcuC2Boh4b4P86efQ,438,566
2020-09-28 06:26:16,Em_XJDTUEct_biblloV_mQ,439,567
2020-09-28 07:39:27,BdopYI0s8xyUHCGkN8o2Jg,440,568
2020-09-28 18:25:12,mfT-JpoDvfyvP2OA9GcwVg,441,569
2020-09-29 17:47:50,BEaBAckd6fVFcc3pr59-fw,442,570
2020-09-29 21:43:12,tfDsy82fdfU5otRDJmlLWQ,443,571
2020-09-29 23:47:12,yzG0rC7af6K815pPVWnUNg,444,572
2020-09-30 06:47:28,gPPFxYyssRovLcS0-fN1iQ,445,573
2020-09-30 07:07:15,AU32YMlXAC4zx_Hp5hR6Hg,446,574
2020-09-30 07:56:29,LplfteqDvO3yaZkyQJcJxQ,447,575
2020-10-01 01:50:18,8R7mJIf7ay_Dj9WUc2mO7Q,448,576
2020-10-01 16:40:58,-4fOkYHbGZnLCeMIo1_90A,449,577
2020-10-01 19:38:53,tTi-KOHTJxc7G-K6OHOa2Q,450,578
2020-10-01 20:46:07,6qcu4U_xdbQiI3VgH0yi2g,451,579
2020-10-02 09:12:06,idpfv3xN8_rZ-6DLfk5X7g,452,580
2020-10-02 10:21:37,idpfv3xN8_rZ-6DLfk5X7g,452,581
2020-10-02 17:02:46,AHSFTvO8fBqH1peiTJLGqg,452,582
2020-10-04 13:18:30,qaP0QmiUF9hb8MAVxkYaeQ,453,583
2020-10-04 21:48:19,8mW4pg5pOL6awVeH59cd8w,454,584
