,intasconstantprobabilityovertotalinfected,intasrelativeprobability,intasconstantprobabilityoverfreshlyinfected,intasrelativeprobabilityovertotalinfected,constasavgnx,constasnx,intasconstantprobability,intasfractinfectednbrs,intasnumofinfectednbrsnormalized,constasmaxnx,fractbyrand,intasrelativeprobabilityoverfreshlyinfected
0,0.00013978692355942623,0.00022294573473236046,0.0004388743871048817,0.014412878921448491,0.07782848545130783,0.1174709780007025,0.11521925675397215,0.2772071258960206,0.5817482037394271,0.7022662489303925,0.9863188364220058,0.9357738331795541
1,0.00013978692355942623,0.00022322426203214008,0.00047975277987288845,0.013877304513990496,0.10247741424442591,0.11128574246737688,0.13295971361857994,0.27388918383183924,0.6199250560917474,0.6630274676221485,0.9398126762286138,0.9723844289895703
2,0.00013668551243883886,0.00022322426203214008,0.0007946546432582302,0.01559109473216469,0.07452954019453994,0.13134861081052518,0.1249649944679393,0.2667241107057817,0.5636110577366252,0.6674801963760132,0.9433596994024714,0.9885021237213037
3,0.00013953148674961113,0.00022667582979196688,0.0004685611149597424,0.015956228535003336,0.07321619815642366,0.10077942555548691,0.11305479045726707,0.24580461416892652,0.573027304557537,0.6022387838494844,1.003179362776769,0.9958546409433388
4,0.00013941972542064196,0.00022719424813921751,0.0005076568998922948,0.016907137133398753,0.08216248103214796,0.12829643614728325,0.13022454265647,0.2739632133986042,0.5352104196235691,0.6875302459325715,0.9271774362335176,0.9952334502795138
5,0.00013844246772909408,0.00022322426203214008,0.0009750048233320152,0.017936326738173025,0.06553564017126001,0.1052977463084338,0.09057650056149935,0.2731969587992792,0.5972307449417203,0.5947699622872339,0.9957127981802184,0.9872259006145073
6,0.00013862682049559094,0.0002457404480614711,0.0005016831896406115,0.008127648787195296,0.068031812369019,0.13217966308055584,0.1241884946826296,0.2970915047806231,0.567868153074267,0.6633804533266191,0.9492448808333164,1.0453332083794091
7,0.00014607319176773714,0.00022370954968031764,0.0004004618756039413,0.009044006633595836,0.09009661956222492,0.11802174330231574,0.11656841854918654,0.2557328361992145,0.5285530057460345,0.6933888044493316,1.0678073435584188,0.9025939036864007
8,0.00013978692355942623,0.00022322426203214008,0.0005082878560361825,0.013453121325705752,0.07750303413458359,0.12308409949231014,0.12627054955319117,0.2910677761268554,0.5512438341750784,0.6261250754590414,1.0260551841857177,1.0418683218617457
9,0.00015242303149964886,0.00034164871659936313,0.0005074476733858413,0.015140323359259633,0.09495818611164808,0.10993990779563267,0.12262837233749968,0.27347578150888674,0.5820186079580035,0.6813713670079936,0.969482399081225,0.9889632217186203
