,intasconstantprobabilityovertotalinfected,intasrelativeprobability,intasrelativeprobabilityovertotalinfected,intasconstantprobabilityoverfreshlyinfected,intasrelativeprobabilityoverfreshlyinfected,fractbyrand,constasavgnx,intasconstantprobability,constasnx,intasnumofinfectednbrsnormalized,intasfractinfectednbrs,constasmaxnx
0,0.031898987915749855,0.05860954429897125,0.094495163608598,0.20493059228587118,0.41909699227370745,0.6834352124756649,0.6343674109324786,0.6686749058109582,0.9370585190841816,1.1652946672743376,1.2351077666437942,1.449051905006225
1,0.03654774962836027,0.09835366899639608,0.08435541889000142,0.14457941586650036,0.4966049835280456,0.6434252873288401,0.6273769465867441,0.6151227472100778,1.038212241802905,1.2123495570966643,1.4393217014051807,1.4293683799458188
2,0.030983784677266035,0.07395753078605027,0.06884020791759005,0.17958806228981405,0.46589920263758955,0.5856226473285661,0.7227689094463254,0.7249131568066045,0.9609029071242214,1.1549689772497018,1.3486431211281031,1.46064216517344
3,0.03695473535949101,0.07329792453267459,0.08185683015127554,0.18734022694231645,0.2690406672043215,0.5265495844572479,0.6553685143950827,0.6087634021992248,1.0059220570129292,1.2009417789176604,1.559252244144269,1.531178594605868
4,0.04074594561203915,0.07990740253155026,0.08655775980372493,0.1814800491266232,0.4692186341482323,0.6338195178376428,0.711997501360172,0.7093763375060758,1.012855480029041,1.1900088698473963,1.3667184186232224,1.500241382448615
5,0.02840584970335369,0.06847049149187456,0.07212060347393212,0.20481738057386645,0.4388299662847627,0.7856938780562341,0.6373711627555692,0.6842808952806327,0.9743017346446734,1.0588932951422125,1.3969537993879888,1.383750782067141
6,0.029425381596488998,0.07727868088263534,0.06534525094726618,0.19618981348993791,0.40302947552056245,0.63369247617532,0.6821529543858826,0.694694380171883,0.9015746341324822,1.1736251301351823,1.3152194518246372,1.561112741085925
7,0.038576221112357256,0.07589464589818629,0.08082195503515577,0.187141534210031,0.29075315561099324,0.5158400934037813,0.6032627082915467,0.7479498374321032,0.8557561073739379,1.0926002010199871,1.3377921795692982,1.5128152113273314
8,0.03652769245668952,0.0764836776729666,0.07181593285012888,0.1770580031818204,0.46920977462875135,0.6825206428772772,0.546360295941993,0.6369789331181573,1.0224004368528143,1.2248639368498093,1.3325318369601045,1.5004197591529314
9,0.02571614324360283,0.0759053292663946,0.09087053014449276,0.211180205546999,0.4277910015836959,0.675061649362702,0.6014621029284621,0.6796130118652635,0.9168655164908985,1.1136755975293882,1.358681120711898,1.4712880920227451
