,intasconstantprobability,intasrelativeprobabilityovertotalinfected,intasnumofinfectednbrsnormalized,intasrelativeprobabilityoverfreshlyinfected,intasconstantprobabilityovertotalinfected,intasconstantprobabilityoverfreshlyinfected,intasfractinfectednbrs,intasrelativeprobability,constasmaxnx,constasavgnx,constasnx,fractbyrand
0,3.622464428221228e-05,6.262779690069387e-05,0.0005026258857544486,0.0009119173109448653,0.017083296068266196,0.06844931983456826,0.11263790241539928,0.20385237964502434,0.2562374266095281,0.2511020489101655,0.5205951212698777,0.6561211763329889
1,3.394485974417272e-05,6.262779690080489e-05,0.0007902260816987638,0.0009119173109448653,0.020207910633979753,0.07353809367485264,0.1224057756711544,0.24306336000726791,0.2530497489899143,0.26888431845679783,0.5290018138630804,0.5502646540549864
2,3.622464428221228e-05,6.262779690069387e-05,0.0007605352826007827,0.0009119173109448653,0.015674537593589277,0.06854928928994752,0.1187406737263802,0.229202713344289,0.2556688805438808,0.24260805396120178,0.4974339715761339,0.5562265660745219
3,3.622464428221228e-05,6.262779690069387e-05,0.0012142201072561365,0.0009119173109448653,0.01037405861334495,0.08104800021631686,0.10060174240707176,0.20835379175801527,0.2746757550529698,0.23726587712528435,0.4933008064273835,0.5940314693975809
4,3.622464428221228e-05,6.262779690069387e-05,-0.00020527007714465917,0.0009119173109448653,0.018763152467332622,0.07675465458161546,0.11440581290815321,0.22175301136809555,0.2716036245709069,0.24826138393231634,0.48374558802139933,0.5710915615741131
5,3.6224644282323304e-05,6.262779690080489e-05,0.0005948828444373166,0.0009119173109448653,0.018805740044641972,0.07602371901700666,0.11801007827998322,0.20862630628292378,0.21564299385639207,0.27808568466945205,0.45198174752934495,0.5468541451716965
6,3.6224644282323304e-05,6.262779690069387e-05,0.0010006260786765697,0.0009291307553044303,0.017045234538600407,0.07300362608733468,0.10960565198613192,0.24257715693257909,0.22817357559869078,0.27450754143181155,0.4941282822844232,0.5326457015044334
7,0.00013686742201957092,6.262779690080489e-05,0.0009720081256155977,0.000941598347290129,0.016016610776608098,0.0659498194703706,0.11661754134538471,0.22401185059725337,0.29649220064368864,0.26023484871021807,0.5370329186790262,0.529431764324254
8,3.6224644282323304e-05,6.262779690080489e-05,0.0008861052121106328,0.0009119173109448653,0.017021015614920865,0.06704539686760824,0.15927811155471916,0.22864607593958242,0.26217029848523576,0.2876335570650045,0.458900316859865,0.5816510927940634
9,3.622464428221228e-05,6.262779690069387e-05,0.0010861036318954298,0.0009119173109448653,0.01919231037103797,0.07694463858327916,0.10311251491105144,0.21444016961406998,0.25041314559456895,0.27327588681670345,0.44063605973945663,0.5550524523283326
