,intasrelativeprobabilityoverfreshlyinfected,intasrelativeprobabilityovertotalinfected,intasconstantprobability,intasconstantprobabilityoverfreshlyinfected,intasnumofinfectednbrsnormalized,intasrelativeprobability,intasconstantprobabilityovertotalinfected,constasmaxnx,intasfractinfectednbrs,constasnx,constasavgnx,fractbyrand
0,0.006283764393082536,0.01612489293155739,0.06062432833637721,0.05924025013940415,0.10696014264292575,0.1677328490989186,0.21273755655061055,0.2781821915992596,0.8784902694161426,0.9496391394561435,0.8884565669541143,2.195302235745887
1,0.006952727659751079,0.011765417375700804,0.05407546940421715,0.06621994237659634,0.15565824319734078,0.19381367690053897,0.20756041146642312,0.2562794603165046,0.8928142695453894,1.1585164144505766,0.87026663728853,2.2936893150122417
2,0.006404377864852595,0.015328279059881766,0.05407546940421715,0.06310934064193197,0.11884147743277163,0.18786619575277264,0.20841565216080626,0.2494417039519511,0.7949531828377173,0.8207943990482246,0.8874060208345284,2.1647538344067345
3,0.006353853695378331,0.015328279059881766,0.05407546940421715,0.06380141185571886,0.13466796756987187,0.2134790514410867,0.20387227758855686,0.28879210039633807,0.8736538971974536,0.8417455840680149,0.8398742952441053,1.6965903045017456
4,0.00806941384463522,0.016817854518025865,0.05464765722934606,0.060015286289408554,0.131377071971445,0.22376288457856308,0.20583137462574896,0.24866688877153342,0.8466650404832242,0.7612792612091593,1.0385154856314083,1.891394554500982
5,0.008037279811275666,0.015539808194784399,0.054352907319746735,0.05998646156024434,0.11721924403187611,0.18873711101265078,0.2037543518513062,0.2886896711094159,0.7857878180216468,1.0756294164244622,0.9210211703930863,1.9034617157968223
6,0.006351472180769924,0.01620017824909048,0.05407546940421715,0.058538305846407956,0.12889724561540983,0.1826291850635251,0.20413299369140026,0.2629774105745878,0.8567344668960076,0.979984439160719,0.9166221720260251,1.9846774468101036
7,0.007030765354926749,0.025332017852016997,0.06420944633373171,0.06047951487319936,0.11270287809343504,0.2318018850195862,0.2061990100140063,0.2810183355398981,0.804335813335146,0.8361413737785609,0.897810190663661,2.0516955790777005
8,0.006351472180769924,0.018159900177195598,0.04486980586888767,0.062471155411279344,0.10492290792397008,0.19349986859701274,0.20609827606618447,0.26673018910673396,0.9013798806550134,0.8971889292298721,0.9002610486563493,2.0124974487329648
9,0.006378218845715211,0.016236377455613682,0.052517119210869434,0.0588089258031439,0.12844221177792559,0.2044263088556454,0.20548122260389678,0.25166513679110736,0.7962073036656744,0.6782822070567497,0.9549008703073291,1.9318024120795827
