,intasrelativeprobabilityoverfreshlyinfected,intasrelativeprobabilityovertotalinfected,intasconstantprobabilityoverfreshlyinfected,intasconstantprobability,intasconstantprobabilityovertotalinfected,intasfractinfectednbrs,intasrelativeprobability,intasnumofinfectednbrsnormalized,constasavgnx,constasnx,fractbyrand,constasmaxnx
0,0.009516684408578557,0.018774052640125438,0.032472209694084264,0.06720039628948926,0.12171027897366915,0.12628446157839246,0.24825662885084265,0.26627706256106964,0.41302627591561514,0.4839723456646414,0.5446260842525268,0.7386591453129103
1,0.009774591330646398,0.019086031501755363,0.03227137433377414,0.04362341808358339,0.10305240536435434,0.2545429990876541,0.2062685782477377,0.2552952462181032,0.4058333753408987,0.45967432782383066,0.5629158196257953,0.7869422595878881
2,0.013148037171133886,0.02341105376652597,0.03471884509297829,0.04596231414612273,0.1166366555138515,0.1234602404624271,0.22583042458645775,0.24395116445417653,0.3085151658907336,0.4674164111709297,0.6186091848732489,0.8421080081083987
3,0.010376384871772837,0.041751264415542666,0.03480958974838333,0.054213575150885096,0.10454243354751647,0.12957740850347788,0.24275373127661992,0.2613488338826888,0.3288213089185239,0.4035659334137405,0.646898520537003,0.7837310055492848
4,0.010419982545935458,0.033567165389072895,0.031412368584475714,0.0391856340200234,0.11202785590299491,0.12389091883152292,0.23290682039955302,0.23752197946501385,0.3533305725527054,0.458660512820133,0.5773831643070924,0.9025432842779026
5,0.010172634711345996,0.025426764625559928,0.03465071492102623,0.03908617287261573,0.1062277231558445,0.12598482115027554,0.23243268573259201,0.23816776775069193,0.3259305750758634,0.5098681365330382,0.5697638970668248,0.8528824997113951
6,0.011740201088432323,0.02708487121319414,0.031524860852560344,0.03342047209609067,0.11916979684217377,0.1746159534634587,0.23619234515700271,0.29446171825525236,0.31423067314632236,0.46526844590437644,0.5481542411130029,0.7873186968621393
7,0.01127916339055346,0.02459907087545221,0.03529221703522545,0.03908617287261573,0.11245664612217265,0.23598094142484527,0.2420947352069731,0.24868346418876208,0.38356741648649084,0.4244269115960462,0.5781945487056788,0.9264876216865423
8,0.010413796415523757,0.02415122213558618,0.03443699052674498,0.04140653162472441,0.09412724484543522,0.13755484606699597,0.2314844288175517,0.2843940443304195,0.3186026479429881,0.4838731036602345,0.5230071075079697,0.8207811154616569
9,0.004150890257095363,0.02365557827563558,0.03430651297081577,0.06534691064970977,0.10222070345986722,0.15938482609102822,0.24837583298454768,0.271299354540953,0.3112031598331081,0.5025217368845554,0.48218305596035316,0.7444635474888193
