,intasconstantprobabilityovertotalinfected,intasrelativeprobabilityovertotalinfected,intasrelativeprobability,intasconstantprobability,intasnumofinfectednbrsnormalized,intasconstantprobabilityoverfreshlyinfected,constasavgnx,constasmaxnx,intasrelativeprobabilityoverfreshlyinfected,intasfractinfectednbrs,constasnx,fractbyrand
0,0.0014760783240663766,0.0017655076921783142,0.002393206125885672,0.023949504764263163,0.050834062474582,0.07562272050238028,0.10823020188413368,0.36739381956366823,0.7172160512219694,0.7614318596021172,4.347123854168173,9.53435140047786
1,0.0014281372769361367,0.0017655076921783142,0.002393206125885672,0.023960449459576427,0.059950480007405105,0.07504173000786618,0.09753860739699571,0.36253083442717093,0.6447111750659391,0.6976548184908982,4.362626658682869,9.654609043239628
2,0.00131489268545959,0.0017655076921784252,0.002393206125885672,0.02421919625867197,0.05324531654907583,0.07974752805261232,0.09960163980933068,0.3721939532131726,0.6302884213027764,0.7018739438655235,4.132110052824662,9.972733071426864
3,0.00131489268545959,0.0017655076921784252,0.002393206125885672,0.02425757583808963,0.07937877553257233,0.11316977686937413,0.10573444898284867,0.35567998338361895,0.6070624292935891,0.6206010789967499,4.252757172278617,9.493867827725447
4,0.001233986357614958,0.0017655076921783142,0.002393206125885672,0.021352651021408375,0.054438898867911645,0.07504173000786618,0.11183844063073856,0.3550957231652192,0.670628108849251,0.6410064836546505,4.473778053728872,9.864283225273361
5,0.001839533658658521,0.001821975960170752,0.002393206125885672,0.018128466471991844,0.0804584598395538,0.07762209022489563,0.10520058535282018,0.41303843323978573,0.6109115428064302,0.6386411370014922,4.355309665680966,9.814065015632602
6,0.00131489268545959,0.0017655076921784252,0.002393206125885672,0.02379323690630275,0.04809718015438236,0.07792681472454444,0.11320113082685734,0.3623783055195411,0.661511256190743,0.595768899318431,4.398230628510412,9.735201546358931
7,0.00131489268545959,0.0017655076921783142,0.002393206125885672,0.02636825812890109,0.07665564036868044,0.07483068799912851,0.11996258121438341,0.34633228966611485,0.6480357236655421,0.6303063535954703,4.484939319487461,9.46229455918179
8,0.0010827915799598298,0.0017736508926167183,0.002789504116261554,0.021352651021408375,0.056537224614420345,0.07743790900504122,0.11267416013408615,0.36031922957469187,0.5651947951094913,0.7938490152777111,4.377821932710127,9.70457297656445
9,0.0016137716266303448,0.0017655076921784252,0.002393206125885672,0.021352651021408375,0.0746953250153316,0.07472507681897,0.10988312939678413,0.37593501826312026,0.6349062103740812,0.7333641860700779,4.385881265360262,9.491002235790791
