,intasconstantprobabilityovertotalinfected,intasrelativeprobabilityoverfreshlyinfected,intasrelativeprobabilityovertotalinfected,intasrelativeprobability,intasnumofinfectednbrsnormalized,intasfractinfectednbrs,intasconstantprobabilityoverfreshlyinfected,intasconstantprobability,constasnx,constasmaxnx,fractbyrand,constasavgnx
0,0.00014212696227333677,0.0001961505010449338,0.0004078636606358321,0.0011602549412657037,0.0048213599915089,0.005395147332872496,0.00915241978748782,0.04560753561384656,0.17728038801571788,0.22243596485977868,0.31114246186091,0.3130981122477212
1,6.516827816305248e-05,0.0001961505010449338,0.0004078636606358321,0.0011606718273027283,0.004805984011650888,0.006103574047007121,0.009149701573720415,0.05111301811609559,0.18127664947577515,0.23126874730180869,0.2797552273697157,0.33371600473241303
2,0.00014845427986820425,0.00020269601974221008,0.0004078636606358321,0.0011606718273027283,0.004876425419826025,0.009191080861278289,0.009168160119916391,0.04953390670242941,0.16926385851315695,0.24342971602109587,0.33129944704791914,0.3623420432442963
3,0.00016273994801041525,0.00015580294284733842,0.0004078636606358321,0.0011606718273027283,0.004870437337827327,0.010215406588487297,0.00953415347788411,0.0579438062365184,0.17985064804502793,0.255261412268204,0.29306218761843295,0.34485207526459316
4,0.00011648780162820671,0.0001961505010449338,0.0004078636606358321,0.0011606718273027283,0.004923316563477775,0.010442918001615342,0.009401009200763588,0.04651197658688244,0.21134876042176187,0.2418052470234422,0.30682026382551064,0.29527094887461347
5,9.779260790288014e-05,0.0001961505010449338,0.0004078636606358321,0.0011606718273027283,0.004855341386632017,0.013124435936771595,0.009160678625126262,0.046063516403170635,0.17046315909341803,0.24213695389098566,0.3077028990727919,0.32280264553131466
6,0.00014911109464565975,0.0001961505010449338,0.0004078636606358321,0.0011606718273027283,0.0046552629435709925,0.005589794463481623,0.00915988218527175,0.04885275722524429,0.183539530823148,0.22953696819599467,0.320194712616648,0.35492698036553905
7,0.00014772205595192656,0.0001961505010449338,0.0004078636606358321,0.0011638342727808837,0.0049386323242845975,0.005796264468832968,0.009433731470141371,0.039996062030766,0.17109821834999916,0.22397234877807337,0.32099337327978983,0.32771438182022083
8,0.00014772205595192656,0.00019247281622614132,0.0004078636606358321,0.0006707837714665654,0.005107209552546732,0.00918306891687326,0.009160678625126262,0.0442003943444681,0.13450197858859325,0.2208945410083456,0.3122079674139744,0.30724712660834075
9,0.00014772205595192656,0.0001961505010449338,0.0004078636606358321,0.0011606718273027283,0.00472893954723641,0.00901928979110167,0.009366402559745857,0.05315538169078149,0.17338839510011606,0.23584523002349012,0.3066323572392953,0.3242748311206656
